13.45
14.88
15.05
15.22
14.24
15.37
16.13
17.65
21.98
22.43
23.62
24.38
24.14
26.12
28.71
30.87
23.93
27.85
27.94
30.57
25.89
28.08
29.01
29.05
29.37
30.24
32.33
35.84
27.49
28.56
35.27
39.39
30.77
33.06
33.64
35.6
31.65
32.6
32.65
36.28
31.45
33.7
34.29
36.95
29.23
32.78
36.86
39.42
28.86
34.26
35.76
39.96
32.72
32.8
36.21
40.49
34.99
35.4
36.17
38.81
36.41
36.56
38.04
39.8
34.3
36.68
44.14
44.84
36.62
38.23
44.15
44.34
38.2
39.52
42.92
47.13
37.36
41.43
43.81
46.5
38.91
42.12
42.21
48.08
40.81
42.66
44.85
50.18
40.41
45.69
48.52
49.01
44.6
44.66
47.64
49.64
43.44
43.59
45.76
58.72
46.38
51.37
51.58
52.19
38.8
49.87
57.58
58.03
44.3
49.47
54.32
60.44
46.79
50.97
53.38
57.7
47.92
48.38
54.91
59.44
48.92
51.12
55.09
55.6
47.82
48.8
53.02
61.59
47.5
55.59
56.63
58.38
50.49
53.72
55.93
59.07
49.1
55.84
56.16
60.4
46.53
56.18
57.18
64.07
49.42
55.23
59.61
60.47
49.73
55.65
56.33
63.65
48.43
56.31
59.24
65.48
55.03
55.18
55.37
65.42
53.74
55.2
60.53
63.51
56.41
58.44
58.63
59.75
41.87
59.16
61.02
71.62
52.12
58.74
63.21
63.49
58.31
61.76
62.07
64.17
54.22
61.48
62.88
70.85
59.55
61
66.53
67.75
59.69
65.22
67.94
68.32
60
64.17
64.94
72.54
60.58
62.48
66.13
73.28
59.94
62.36
70.33
73.08
58.77
64.58
67.15
75.57
60.59
63.25
70.81
78.11
64.09
66.55
69.49
74.1
64
65.7
68.53
77.45
66.85
69.82
69.94
70.05
61.21
65.54
79.02
79.3
68.3
68.62
74.62
75.44
66.98
69
72.57
78.75
67.65
74.13
74.67
76.71
67.5
68.41
74.54
84.33
65
77.07
77.77
82.85
67.87
69.77
81.35
86.42
70.11
76.25
77.37
82.03
68.29
68.96
86.14
88.83
66.57
81.34
82.42
83.61
75.76
78.29
78.35
83.05
73.75
75.91
83.29
85.58
68.05
73.31
86.22
97.7
77.61
79.4
81
88.96
77.22
80.27
82.31
90.66
76.44
80.11
83.41
91.19
75.18
82.62
87.95
91.75
77.7
84.73
84.84
97.41
80.03
82.72
91
91.94
82.78
88.56
90.46
91.8
82.25
83.37
87.56
101
81.49
88.01
90.82
94.17
83.78
87.08
89.61
94.27
80.23
85.59
88.52
100.4
83.55
85.58
92.82
99.45
77.69
90.44
99.58
104.86
81.87
87.99
103.14
106
86.47
94.45
102.27
108.28
84.52
99.87
103.9
105.18
80.43
99.22
99.45
115.31
93.33
102.6
103.31
109.2
80.62
104.15
111.68
118.38
97.44
105.59
106.92
111.49
95.5
107.15
109.96
115.88
106.05
107.44
111.68
114.27
106.13
107.19
119.81
124.47
102.96
115.19
118.31
121.79
102.12
111.8
127.08
127.24
117.42
121.9
122.1
126.98
115.45
115.53
125.17
132.95
94.07
116.36
132.13
154.15
110.47
119.93
133.28
137.25
104.86
116.54
137.66
147.27
101.03
124.84
139.45
150.97
116.73
124.38
136.01
141.27
105.49
126.45
137.27
150.6
120.56
125.06
132.07
142.75
117.72
128.24
129.2
147.66
99.94
132.91
153.27
158.24
127.65
135.11
139.83
149.44
123.79
135.55
140.13
153.72
133.03
133.71
136.91
163.84
134.96
142.49
146.53
157.49
133.76
138.2
147.36
162.2
122.45
140.39
155.88
163.2
138.09
150.24
161.71
177.16
145.76
157.95
167.23
186.26
153.18
157.92
166.2
183.76
159.94
163.09
163.95
177.23
164.24
186.95
191.71
205.03
164.28
173.01
206.47
209.41
170.2
178.66
188.88
240.96
175.79
197.69
203.15
211.27
194.33
195.56
196.93
223.7
187.06
190.8
204.01
251.4
170.4
209.7
222.19
231.68
205.71
214.37
218.72
229.15
194.49
205.59
224.96
243.21
211.33
223.1
233.1
283.17
240
243.48
251.66
270.7
246.67
255.23
272.42
300.53
278.81
291.45
303.23
314.78
