10.39
12.55
12.61
12.7
10.5
12.47
12.57
12.98
12.45
13.49
14.21
14.94
17.31
18.99
19.08
20.87
20.72
20.78
22.72
23.56
21.32
21.71
22.98
23.88
20.11
23.23
23.58
26.18
22.14
23.57
25.06
25.98
23.04
26.08
26.33
27.61
22.74
23.94
28.19
30.37
20.77
25.96
27.78
32.74
25.57
26.2
28.03
28.26
23.86
26.26
28.39
32.02
23.05
27.12
29.03
31.6
26.62
28.53
32
33.55
29.15
33.2
33.58
33.83
30.77
32.04
32.69
34.37
31.94
32.71
34.14
34.79
31.78
33.29
34.35
40.26
31.26
34.24
35.79
39.01
30.46
33.65
37.32
39.83
34.52
34.97
36.33
39.26
30.4
38.38
39.88
43.5
36.74
38.16
41.96
43.01
36.39
40.35
41.14
43.08
37.98
38.58
38.86
49.32
41.17
41.62
44.84
45.17
37.16
41.34
46.67
48.24
42.97
44.52
46.09
46.9
43.96
44
44.37
58.36
37.44
49.39
50.19
53.93
42.26
46.57
50.54
52.11
47.51
48.08
50.86
54.76
45.15
45.75
50.7
63.22
48.04
48.05
52.04
56.73
53.93
55.02
57.6
66.16
55.8
58.39
59.69
60.59
57.19
57.54
66.73
69.82
56.79
60.11
63.62
76.42
59.42
61.15
63.24
74.51
63.45
63.73
66.35
69.58
60.38
62.28
70.44
70.75
61.52
62.71
67.69
73.05
63.55
66.31
66.37
69.78
61.62
67.08
67.57
77.73
66.14
68.45
69.19
73.13
67.05
70.04
71
75.34
62.53
68.56
75.74
77.27
67.87
67.93
73.86
77.73
70.31
72.01
72.43
77.72
59.9
69.66
70.78
92.58
65.12
72.39
75.29
81.95
68.37
68.4
79.94
80.16
72.26
73
75.03
77.53
69.16
71.11
75.92
81.94
68.97
74.69
75.35
86.24
71.18
74.82
78.14
81.29
71.3
75.57
80.4
80.49
63.8
76.78
83.75
84.85
71.37
80.39
82.17
85.48
79.58
79.9
81.81
84.31
70.44
79.69
81.2
100.04
73.73
76.9
90
93.02
76.5
80.84
82.46
96.6
74.71
75.4
89.69
98.06
76.01
87.03
87.63
89.56
75.84
82.49
90.7
91.3
85.59
86.49
90.83
95.21
85.44
87.35
92.11
94.82
75.81
89.61
96.17
98.38
80.5
92.88
93.51
96.28
83.63
84.95
89.46
105.87
84.34
91.56
97.72
100.36
84.63
97.39
98.65
100.6
83.51
90.55
92.26
115.36
87.97
94.15
98.71
102.31
74.46
93.96
105.95
111.59
83.7
94.84
103.32
105.23
89.19
94.73
99.84
105.8
90.04
95.18
98.4
108.51
92.77
93.94
98.62
111.76
87.45
97.38
103.97
109.75
81.9
93.96
106.3
123.12
90
104.02
107.43
109.25
90.21
100.67
103.06
117.66
99.28
101.53
109.63
110.8
99.89
101.53
108.65
116.38
99.9
105.88
108.08
117.76
102.31
113.45
116.07
118.19
104.97
115.49
116.2
117
108.1
112.34
112.41
128.31
105.28
105.55
126.47
127.42
105.54
112.09
112.39
135.66
114.52
122.56
129.89
145.89
123.82
127.35
130.37
137.37
106.74
122.12
134.97
163.37
123.74
135.13
135.25
151.27
134.43
135.96
137.3
138.12
130.33
133.43
158.35
165.22
142
144.79
150.72
160.59
144.93
146.4
150.92
160.24
144.03
151.81
153.05
156.93
146.2
152.14
152.15
162.84
128.79
139.57
163.2
188.01
137.71
156.32
162.46
164.38
151.99
153.68
155.32
180.91
134.72
160.13
172.56
175.9
148.97
151.75
167.42
176.8
131.63
163.79
165.01
184.97
157.18
158.03
164.74
171.09
145.22
162.44
165.56
183.47
159.33
162.73
164.59
171.2
155.16
155.18
174.43
174.51
147.6
161.87
163.31
189.34
149.87
170.05
180.58
200.62
148.47
161.35
188.19
207.79
152.14
164.87
199.02
204.38
168.68
179.65
190.54
215.89
178.3
194.9
195.13
199.29
185.16
187.15
192.62
204.37
186.15
198.84
199.46
208.49
182.26
188.2
196.75
229.18
200.92
202.93
208.96
218.2
174.65
199.34
227.03
233.32
175.01
199.69
224.62
237.91
250.54
262.26
299.69
301.02
228.31
283.99
287.83
344.72
292.29
299.22
323.1
339.5
