8.49
12.44
17.35
28.96
37.55
47.93
52.18
52.7
14.22
48.46
57.33
107.21
27.8
47.28
64.29
109.09
27.44
42.23
68.05
116.41
24.94
76.82
78
98.03
30.03
57.92
70.2
180.75
76.09
88.76
107.56
108.1
67.56
115.28
131.86
136.13
49.76
255.33
262.9
277.94
170.86
201.69
230.45
257.97
187.27
201.33
262.56
449
