7.46
7.5
7.52
7.53
7.79
8.14
8.27
8.53
8.91
9.04
9.19
9.29
9.35
9.6
9.67
9.93
9.42
9.48
9.87
9.95
10.01
11.13
11.54
11.61
11.65
11.73
12.16
12.27
12.38
12.4
12.84
12.86
10.4
10.46
10.82
11.25
11.4
11.5
11.52
11.81
11.86
12.03
12.03
12.32
12.34
12.35
12.55
14.1
10.66
11.17
11.57
12.11
12.29
12.31
12.87
12.92
12.95
13.24
13.3
13.39
13.7
14.05
14.69
15.11
13.21
13.69
13.71
13.92
13.95
14.04
14.56
14.61
14.83
14.94
16.01
16.49
16.73
16.8
16.89
17.28
12.53
12.54
13.59
13.69
13.9
14.36
14.73
15.01
15.64
16.05
16.61
16.63
16.82
17.04
17.73
17.86
14.06
14.6
15.16
15.24
15.61
15.82
15.85
15.99
17.08
17.49
17.68
17.97
18.07
18.28
18.36
19.25
16.27
16.88
16.94
16.99
17.09
17.14
17.39
19.1
19.55
19.77
20.21
20.65
20.81
21.09
21.12
21.7
15.16
16.32
17.51
18.13
18.31
18.31
18.54
19.01
19.08
19.2
19.46
19.9
20.21
20.32
21.13
22.26
18.4
18.45
18.82
19.16
19.53
19.93
20.38
20.62
21.04
21.5
21.77
21.93
22.25
22.65
22.93
23.51
15.02
18.79
20.14
20.36
20.69
20.86
20.93
21.1
21.47
21.59
22.12
22.75
22.86
23.02
23.1
23.54
18.5
19.12
19.87
19.88
20.08
20.28
20.88
21.32
21.51
21.6
21.62
22.24
22.26
23.76
24.08
26.59
17.57
18.44
18.47
19.85
20.63
20.97
21.57
22.19
22.22
22.78
22.92
24.13
24.16
24.72
26.5
26.57
19.32
19.9
20.02
20.14
20.2
20.67
22.01
22.01
22.52
22.6
22.66
23.25
24.06
24.08
24.35
26.83
18.35
18.97
19.15
19.37
20.35
21.6
22.53
22.87
23.47
23.78
23.81
23.85
25.87
26.02
26.24
28.4
19.55
19.89
20.63
20.79
21.78
21.93
22.8
23.42
23.76
24.25
24.58
24.59
24.62
24.69
25.16
25.21
20.82
21.09
21.25
21.84
22.11
22.69
23.08
23.27
23.65
23.83
24.23
24.48
25.1
25.51
27.02
30.25
21.78
21.81
22.09
23
23.48
23.96
24.36
24.62
24.69
25.06
25.13
25.4
25.99
26.24
26.63
26.74
20.69
21.42
22.01
22.24
22.35
22.48
23.32
23.79
24.31
24.82
25.18
26.84
27.1
27.39
28.39
29.12
20.77
20.91
22.61
23.11
23.34
23.35
24.21
24.76
25.09
25.29
25.42
25.46
26.32
26.39
26.46
29.62
20.81
21.86
21.91
23.15
23.92
24.03
24.47
25.2
25.8
25.81
26.48
26.72
27.75
28.08
29.49
30.99
20.12
22.17
22.8
23.83
24.2
24.97
25.15
25.38
26.29
26.3
26.59
27.32
27.62
28.34
28.67
28.72
21.17
23.18
23.3
23.69
24.48
24.69
24.89
26.3
26.35
26.55
26.67
26.79
27.81
27.92
29.45
29.48
22.72
22.95
23.75
24.13
24.62
25.05
25.52
25.61
26.26
26.89
27.26
27.29
27.29
28.87
29.1
30.12
21.47
21.86
22.83
23.66
23.76
25.11
25.7
25.93
26.12
26.47
27.01
27.18
28.63
29.6
30.95
31.27
20.87
24.33
24.34
24.56
25.01
25.65
26.34
26.49
26.96
27.54
27.98
28.18
28.23
28.58
29.03
31.1
22.07
23.7
24.32
25.16
25.24
25.25
25.62
25.93
26.6
26.74
27.5
28.15
28.81
29.75
30.05
33.44
24.67
24.76
24.78
24.91
24.92
25.8
25.95
26.41
27.03
28.01
28.03
28.07
28.71
29.29
30.31
30.33
22.55
23.18
23.72
24.3
25.8
26.08
26.41
26.52
27.77
29.16
29.69
30.02
30.71
30.95
31.65
32.31
24.94
25.52
25.82
26.36
26.79
26.8
26.82
27.17
27.54
27.66
27.95
29.02
29.32
29.77
30.3
30.8
24.65
24.77
25.04
25.21
26.55
26.57
27.18
27.51
27.91
28.6
28.94
29.92
30.06
30.06
30.11
31.13
23.94
24.66
24.85
26.17
26.66
26.7
26.96
27.78
27.93
28.74
29.71
29.84
29.86
30.18
31.13
33.78
23.37
25.5
26.42
27.84
27.85
28.18
28.31
29.41
29.54
29.76
30.56
31.41
31.46
32.55
32.69
32.72
24.01
24.74
27.41
27.59
29.15
29.38
29.43
29.56
29.56
29.75
30.2
30.51
32.13
33.9
34.52
35.05
25.83
26.2
28.04
28.14
28.26
28.57
28.73
29.41
29.74
31.73
32.19
32.2
32.39
32.46
33.63
34.03
26.54
27.46
28.96
29.07
29.1
29.29
30
30.04
30.29
30.39
30.6
31.27
31.29
31.67
31.77
33.89
24.49
26.37
26.84
28.38
28.5
29.96
30
30.25
30.27
31.14
31.58
31.69
32.4
32.94
33.06
34.21
25.98
28.4
28.75
28.78
29.11
29.77
29.9
30.17
30.59
31.05
31.07
31.29
31.56
31.78
33.14
34.51
27.13
27.82
27.93
28.97
29.58
29.59
29.66
30.4
30.45
30.52
30.6
32.37
32.41
32.8
33.06
40.79
25.4
27.04
28.11
28.27
28.64
29.33
29.92
30.73
30.77
31.34
33.54
33.79
34.05
34.18
34.49
35.54
27.34
27.74
28.11
28.64
29.22
29.23
29.29
29.34
30.2
31.13
31.39
33.52
34.5
35.11
35.32
35.87
27.7
27.89
28.04
28.63
29.56
29.7
30.43
30.73
31.18
31.91
32.14
32.89
33.72
33.74
34.38
39.12
27.23
27.65
27.86
28.38
28.39
30.18
31.06
31.07
32.59
32.78
33.48
33.61
33.79
36.66
36.67
38.21
27.64
27.76
27.89
29.09
30.02
30.2
30.88
32.02
32.29
32.33
32.39
33.19
34.72
35.28
36.22
38.23
27.8
28.92
29
29.53
30.24
30.26
30.61
30.83
31.28
31.55
32.46
33.09
33.22
35.36
35.52
41.48
28.41
28.9
29.68
29.8
29.83
30.54
31.3
31.59
31.64
32
32.38
34.5
34.72
35.31
35.7
38.65
28.11
29.01
29.98
30.24
30.57
31.08
31.17
32.34
32.56
33.15
33.57
34.52
35.01
35.37
35.83
36.98
26.95
27.96
28.05
28.45
29.19
29.55
30.85
32.54
33.36
33.44
34.35
36.78
37.05
37.15
38.4
43.17
26.04
29.92
30.27
30.79
30.94
31.33
31.5
32.65
33.9
34.51
34.51
34.76
36.17
36.38
37.41
38.59
26.71
28.44
30.22
30.35
31.21
31.22
33.45
33.78
34.02
34.23
34.46
34.92
35.55
35.82
37.33
38.13
26.52
28.65
29.38
29.64
31.53
32.12
32.19
33.24
33.85
34.32
35.21
36.05
36.49
36.58
37.29
38.96
28.21
29.17
30.17
30.75
31.93
32.2
32.4
32.96
33.84
33.97
35.12
35.53
37.24
38.4
39.91
41.85
25.8
28.61
29.75
32.16
32.25
33.19
35.17
35.37
35.5
35.71
36.7
36.8
36.87
37.16
37.7
38.24
29.07
29.46
29.74
31.24
32.06
32.83
33.67
34.07
34.44
35.19
35.7
36.58
37.5
37.72
38.33
39.43
29.59
29.92
32.38
32.87
33.13
33.23
33.24
35.55
36.39
36.76
36.92
36.99
37.61
38.12
38.53
39.89
29.53
29.82
31.05
31.57
33.21
34.29
34.55
35.71
35.88
36.47
36.72
37.04
37.08
38.73
39.63
40.16
31.29
31.87
32.26
33.21
33.29
34.55
34.81
35.6
36.22
36.5
36.85
36.9
37.33
37.4
37.74
40.83
29.91
30.23
32.71
33.46
33.75
34.89
35.43
35.87
36.61
36.65
37.25
37.87
38.38
38.9
39.41
41.96
25.9
31.08
32.07
33.18
33.82
34.23
34.25
36.37
36.6
36.98
38.99
39.02
39.64
40.12
41.5
42.59
30.49
32.44
33.24
33.39
33.69
34.58
35.71
36.11
36.32
37.31
37.53
38.25
38.49
38.93
40.09
40.19
28.34
31.82
31.91
32.2
33.16
34.64
34.91
36.05
36.15
36.66
38.59
39.98
40.16
41.56
42.33
42.65
31.5
32.7
32.83
33.27
34.17
35.4
35.51
35.55
36.1
36.32
38.15
38.83
39.59
40.14
40.26
40.9
30.66
32.58
33.11
33.77
33.94
34.3
35.14
35.42
35.75
36.45
36.76
38.17
39.11
39.96
42.45
44.87
30.7
33.71
33.99
34.94
35.74
35.95
36.22
36.22
36.89
36.92
38.08
38.42
38.44
38.54
40.85
41.62
32.98
33.72
33.82
33.93
34.7
34.7
35.27
36.87
37.77
38.37
38.64
39.05
40.66
40.89
41.8
43.49
30.26
31.45
31.67
34.88
35.18
35.24
35.44
36.36
38.47
38.84
40.07
41.9
42.43
42.54
43.19
43.66
32.31
34.47
34.93
35.07
35.16
36.19
36.7
37.52
37.95
38.09
38.74
40.08
40.56
40.56
41.85
42.44
28.07
31.43
35.75
37.08
37.24
37.45
37.75
37.9
38.12
39.16
39.44
39.45
39.55
40.23
40.63
44.1
33.3
33.92
34.07
34.91
36.17
36.5
37.27
37.38
38.14
38.87
39.01
39.16
39.31
39.99
42.47
42.94
28.56
33.41
34.34
34.54
35.75
37.61
37.64
37.79
37.89
38.78
39.2
39.68
41.2
41.88
43.02
44.39
31.18
32.88
36.52
36.59
36.86
36.99
38.1
38.12
39.43
40.09
40.25
40.52
41.46
41.82
43.95
44.23
31.14
34.43
34.51
37.39
37.44
37.94
39.76
39.89
40.63
40.72
41.48
41.53
41.64
41.86
42.23
42.25
32.31
33.05
35.8
37.21
37.92
37.95
39.95
40.09
40.56
40.58
40.93
41.95
42.38
43.1
43.29
45.1
34.47
35.17
35.17
35.96
36.7
36.81
37.42
37.44
37.69
41.26
41.37
43.41
43.53
46.59
46.77
46.87
29.8
31.69
33.38
35.81
36.86
37.39
39.32
39.52
40.07
41.74
43.84
44.26
44.26
46.55
48.5
48.62
31.62
32.72
34.88
35.85
36.71
39.42
40.55
41.01
41.68
41.88
43.92
44.67
45.84
47.58
49
49.48
40.24
40.38
40.39
40.76
40.8
41.14
41.25
41.79
41.94
42.07
42.16
42.79
43.37
46.63
47.29
49.79
33.04
35.75
36.17
37.79
38.74
39.13
40.25
41.26
43.62
43.97
45.35
46.04
47.62
48.08
48.83
58.44
33.11
37.18
40.05
40.34
40.55
41.05
41.31
42.17
42.24
42.68
44.51
45.91
47.02
47.16
48.91
51.47
37.3
39.13
39.28
40.04
42.44
42.76
42.89
43.33
43.79
44.2
44.87
44.94
45.47
45.96
46.52
48.37
36.67
38.48
40.84
41.61
41.79
41.95
42.38
42.6
43.73
43.75
44.24
45.22
45.43
47.2
47.63
48.55
36.78
38.67
41.05
41.48
41.75
41.76
41.92
42.39
42.66
44.92
44.95
45.06
45.31
45.36
48.84
49.17
38.99
39.48
40.64
40.95
41.41
41.54
42.11
42.41
42.58
42.65
43.09
44.34
44.38
45.94
48.46
58.3
36.59
37.33
39.99
40.55
41.04
42.7
42.99
43.13
43.18
43.44
46.07
46.57
47.43
48.31
49.83
50.7
33.93
38.14
39.81
42.5
42.77
42.96
43.04
43.48
43.64
44.64
45.56
46.43
47.4
47.95
48.22
49.48
36.91
38.99
39.2
39.48
41.65
43.92
44.14
44.54
44.83
44.84
45.02
45.41
46.39
46.47
46.52
52.55
35.09
40.15
40.53
41.68
41.72
42.63
42.77
43.66
43.9
44.15
45.01
45.39
45.95
48.05
49.96
50.3
34.77
35.26
39.34
40.05
40.2
40.73
41.12
43.34
45.27
45.36
45.48
45.74
46.24
52.03
52.18
54.91
31.88
38.12
38.72
39.84
41.48
42.71
43.9
44
44.06
44.65
44.65
47
47.56
49.59
51.95
52.22
32.79
36.8
37.17
40.09
40.33
42.29
43.2
45.1
45.25
46.73
47.17
47.38
48
48.37
50.81
54.11
35.11
39.61
42.67
42.87
43.52
43.61
43.64
44.03
45.21
45.31
45.37
45.69
47.17
48.66
49.31
53.39
39.54
39.93
40.01
42.38
42.71
43.35
44.44
45.28
45.54
45.87
46.65
47.71
48.27
48.72
50.66
52.04
39.19
42.46
44.22
44.63
44.81
44.82
45
45.33
45.44
46.01
47.34
48.66
48.88
48.96
49.44
52.09
39.17
40.56
42.34
43.15
44.11
44.23
44.81
45.27
45.73
48.5
50.55
50.71
51.1
51.55
53.59
59.72
40.03
41.45
43.16
43.57
44.48
45.36
46.75
47.29
47.66
48.11
48.82
49.6
49.82
50.08
54.07
59.75
40.86
42.98
43.15
45.36
45.75
45.96
46.67
47.38
48.04
48.06
48.86
49.01
49.37
50.53
50.81
58.95
38.3
41.78
43.98
44.27
44.68
45.16
46.05
46.29
47.48
47.58
47.91
48.98
51.8
55.32
56.2
56.98
40.05
43.79
45.77
46.45
46.65
46.84
47.37
47.68
48.06
48.41
48.49
49.39
49.64
50.7
52.54
53.76
41.66
43.55
43.64
44.46
44.73
45.17
45.34
47.46
48.08
48.97
50.08
50.15
51.94
52.45
52.83
56.31
37.18
44.42
45
45.79
46.95
47.3
48.09
48.29
48.32
48.56
48.8
49.05
50.7
54.11
55.48
55.77
40.83
44.51
44.62
44.92
47.86
48.38
49.25
49.47
49.55
49.81
50.38
50.49
50.9
50.95
51.79
51.79
42.26
42.82
42.94
46.07
47.16
47.24
47.73
48.6
48.61
49.11
49.87
51.16
51.71
52.61
53.52
55.1
41.24
44.34
44.85
45.56
46.11
46.53
47.16
47.94
49.33
50.65
51.55
52.05
52.7
53.1
53.7
53.78
44.51
45.29
46.71
46.83
46.94
47.36
47.54
48.46
48.59
48.88
49.41
50.16
51.82
52.03
52.1
54.42
36.68
41.71
42.75
43.89
46.42
46.97
47.57
49.35
49.41
51.3
52.57
53.98
54.32
54.74
55.79
56.59
38.97
39.79
44.72
45.31
45.39
46.14
47.65
48.8
48.99
49.36
50.02
50.32
54.3
56.95
57.42
61.82
41.03
44.21
44.81
45.08
45.16
47.11
47.91
47.96
49.07
51.75
52.38
52.86
52.86
53.55
55.19
55.26
42.61
42.91
43.24
43.77
43.88
46.15
48.28
50.77
51.38
51.51
52.38
53.11
53.23
53.28
54.61
56.92
37.32
44.25
46.91
47.08
47.61
48.79
49.1
50.02
50.08
50.34
50.55
51.39
52.68
54.11
56.29
57.07
42.8
43.59
44.4
44.69
45.04
46.56
49.82
50.22
51.26
51.87
52.77
53.05
53.56
54.04
54.51
57.56
44.22
45.98
46.28
46.46
47.02
47.15
47.34
49.23
49.47
51.36
52.52
52.86
52.9
54.28
54.49
57.51
41.97
45.8
47.98
48.44
49.79
50.15
50.15
50.21
50.46
50.76
51.23
51.54
52.15
53.33
53.57
53.84
44.82
45.16
46.46
47.31
47.54
48.46
48.47
48.55
49.85
51.78
52.23
53.27
55.09
55.13
55.22
59.82
39.93
41.7
45
45.84
45.92
46.13
46.49
49.44
51.62
53.47
54.73
55.06
55.06
59.34
60.05
61.43
42.64
43.39
43.79
45.37
45.51
46.33
47.69
48.2
49.96
51.42
52.61
53.37
54.77
59.62
60.75
65.83
40.01
44.21
46.46
48.73
49.13
49.32
49.38
49.88
50.56
51.96
52.71
52.88
53.38
53.48
56.34
63.74
37.14
39.04
41.92
44.38
49.48
50.96
52.58
52.61
53.51
53.56
54.32
55.19
56.86
57.76
58.87
59.62
41.6
47.31
47.42
47.73
49.76
49.88
50.39
50.78
52.01
52.31
52.92
53.94
54.58
56.42
56.56
57.93
39.84
46.48
46.63
46.67
49.79
50.21
50.7
51.19
51.26
51.51
52.9
53.45
54.29
59.22
59.45
62.91
44.22
47.25
47.64
48.37
49.45
49.51
50.17
51.14
51.16
51.57
52.57
54.64
55.02
55.24
57.73
62.62
42.74
47.81
49.65
49.92
50.09
50.78
51.81
52.15
52.62
52.86
53.69
54.54
55.38
55.39
58.79
59.07
45.72
45.91
46.54
49.43
50.72
50.82
51.55
52.1
52.42
53.37
53.37
56.76
57.67
57.96
58.76
60.6
46.74
47.28
48.64
48.74
50.31
51.04
52.25
53.11
53.13
53.27
53.63
54.03
57.77
58
58.64
59.28
46.26
48.36
49.29
49.86
49.91
50.65
50.77
51.46
53.35
53.46
53.8
54.54
56.21
56.52
58.98
65.31
41.08
46.12
46.89
47.16
48.64
50.16
50.44
52.16
53.89
54.16
54.96
58.16
58.51
60.28
62.17
64.66
45.21
47.5
47.95
48.28
48.46
49.47
51.01
51.73
55.64
56.45
57.65
57.89
58.12
60.63
62.75
63.68
43.02
48.03
49.36
50.04
53.67
53.91
54.11
54.26
54.95
55.22
55.43
56.33
57.57
58.11
59.26
61.33
47.12
48.71
48.92
49.43
50.04
52.24
52.72
53.01
54.4
55.38
55.78
55.93
56.05
57.62
61.03
66.87
45.06
46.33
49.65
53.06
53.52
53.64
55.79
56.19
56.52
58.33
58.36
58.5
58.58
59.5
59.58
62
46.18
51.02
51.73
51.99
52.7
52.96
53.81
54.08
57.47
58.17
58.76
59.16
60.49
61.89
62.38
63.1
50.28
52.26
52.33
52.89
53.22
53.69
53.86
55.4
55.54
57.18
57.51
58.05
59.18
60.02
61.35
63.15
45.63
49.75
51.27
51.95
53.17
53.33
55.94
56.42
56.67
56.78
56.8
57.17
58.66
61.29
64.34
67.61
50.68
50.75
52.35
52.92
53.5
54.15
54.97
55.27
57.64
58.05
58.93
59.33
59.66
61.99
63.01
63.16
46.53
50.57
50.83
51.27
52.06
52.96
53.63
54.07
54.6
56.58
61.59
61.77
63.02
65.01
65.69
68.45
45.23
49.19
50.23
54.76
55.07
55.62
55.79
56.26
57.05
57.53
58.42
59.11
60.44
60.82
64.7
68.69
47.71
49.23
49.27
51.28
52.17
55.23
56.27
56.38
57.76
60.03
60.75
61.03
61.36
62.65
64.24
67.41
48.05
50.57
53.15
53.85
54
54.33
55.63
56.4
57.18
58.52
59.16
60.52
60.66
63.11
63.44
66.02
49.51
52.69
52.94
53.79
55.95
56.36
56.74
56.84
56.97
58.5
59.12
59.22
59.6
62.39
62.74
67.69
50.21
53.55
54.29
55.16
55.16
55.38
55.85
56.44
57.53
58.74
59.32
60.88
61.2
61.84
66.59
68.41
45.53
49.64
53.82
55.11
55.43
57.43
57.57
58.05
58.52
59.02
59.52
59.98
62.97
64.53
65.2
69.94
48.69
49.39
51.44
52.49
53.54
54.59
57.91
58.99
59.29
60.11
61.76
63.19
63.51
65.02
66.46
71.74
46.71
48.05
50.13
51.68
55.81
57.33
60.14
60.16
60.73
62.56
62.66
64.28
65.75
67
67.08
72.51
46.83
48.9
51.17
55.45
55.78
59.68
60.37
60.51
61.58
62.09
62.12
64.79
65.46
65.9
67.12
67.35
47.75
49.18
51.12
52.94
53.75
53.97
58.95
59.96
61.12
61.48
63.24
64.75
66.42
67.58
71.76
73.48
51.08
52.71
53.67
55.02
55.63
57.26
57.98
60.83
60.93
61.5
61.57
61.86
64.33
68.07
68.2
68.9
51.66
54.51
55.87
55.98
56.08
56.38
57.25
58.03
58.66
59.17
61.5
63.07
63.4
65.62
66.63
76.16
47.9
48.64
51.96
54.46
54.98
56.08
59.25
60.7
62.35
63.81
65.04
65.27
65.36
68.05
68.29
69.82
51.28
53.14
53.81
55.94
57.74
58.25
58.83
59.29
61.67
61.68
63.45
64.05
65.33
66.02
70.16
71.25
50.52
51.75
55.28
55.7
57.69
60.25
60.78
61.63
62.16
62.89
64.04
64.45
64.91
64.94
68.13
73.63
50.65
54.96
55.87
56.11
56.73
56.97
58.89
59.78
60.64
62.77
63.73
64.72
65.62
67.75
70.99
79.61
48.66
56.49
57.1
57.13
59.93
60.4
61.63
62.46
63.28
63.32
63.56
63.88
66.38
67.12
71.38
72.02
53.4
55.78
57.37
57.62
58.29
58.44
58.83
62.3
63
63.99
65.08
65.28
67.81
68.25
72.15
76.89
51.55
54.17
57.25
58.27
60.75
60.8
61.43
62.15
62.24
63.87
64.62
65.96
66.89
67.95
69.37
77.29
54.05
56.85
57.6
58.03
61.51
61.79
62.4
63.07
63.14
63.55
64.53
65.66
66.77
69.72
73.21
73.24
54.43
55.77
57.86
59.09
59.78
61.82
63.4
63.73
63.83
63.91
64.01
64.89
69.45
70.02
70.9
72.48
52.93
53.02
54.15
58.4
60.7
60.94
61.12
61.2
61.55
62.33
68.34
69.65
71.89
72.58
74.07
75.77
54.14
54.51
58.85
58.91
59.08
60.15
60.66
61.2
62.9
66.37
67.1
68.03
68.3
69.32
71.05
78.8
51.39
54.05
57.83
58.89
60.75
62.5
62.94
63.13
65.34
65.52
65.91
67.29
69.34
70.52
71.59
72.51
59.3
59.79
59.83
60.33
61.35
61.88
62.26
62.52
63.21
63.62
64.02
64.49
66.66
68.52
70.42
73.14
55.15
57.5
58.04
58.74
59.61
60.11
60.5
63.82
64
64.27
65.53
65.85
66.27
68.44
69.54
85.6
55.63
57.25
58.62
58.72
59.15
59.46
61.31
61.7
62.35
63.89
68.96
69.33
70.03
70.75
72.32
75.63
54.16
56.03
56.72
58.36
60.1
61.7
61.82
64.32
64.44
67.32
67.71
68.5
69.28
69.41
72.6
74.11
53.4
55.52
58.54
58.66
60.38
61.57
63.46
64.97
65.08
65.82
66.99
69.34
69.37
69.45
73.28
73.66
55.71
57.56
59.99
61.68
61.77
61.84
62.02
63.84
63.86
65.33
65.56
66.4
69.2
71.07
72.1
75.34
54.09
55.48
55.72
58.66
60.17
64.03
64.5
64.63
65.25
66.5
67.42
68.15
70.52
70.64
73.69
75.53
54.64
56.55
57.74
57.91
59.12
59.86
60.13
63.08
67.78
68.91
70.1
71.37
72.84
73.44
73.73
74.87
56.14
58.22
60.78
61.25
61.34
63.1
63.38
64.46
67.61
68.16
68.54
69.91
69.92
70.69
71.41
73.42
53.03
58.01
60.47
61.57
62.03
62.47
62.86
65.04
65.26
65.88
65.93
67.75
70.13
71.28
73.6
83.2
56.74
60.38
60.48
61.4
61.47
62.4
64.52
65.76
65.85
65.9
66.33
66.35
66.43
75.38
75.81
76.56
52.79
55.66
58.29
59.64
60.42
60.94
65.43
65.9
66.13
68.2
68.69
69.32
71.8
71.84
76.14
82.21
59.18
59.59
60.76
61.35
61.69
63.71
64.65
65.35
66.11
66.95
69.12
69.24
69.85
70.04
74.31
76.92
54.93
57.58
61.71
64.3
64.38
65.06
65.29
67.81
68.15
68.49
69.32
69.58
70.06
71.29
75.59
76.76
57.53
59.3
59.52
60.2
61.95
62.72
62.96
67.2
67.53
70.4
70.91
71.05
71.66
74.37
75.62
79.61
57.89
58.62
62.15
62.38
63.12
63.43
64.95
66.28
66.41
67.54
68.98
69.87
69.89
77.16
77.5
83.07
56.65
59.43
61.99
63.93
64.67
65.95
66.15
67.65
67.97
70.76
71.51
71.86
72.09
72.72
74.18
74.7
57.69
61.06
61.17
61.46
61.98
62.59
63.48
65.1
67.43
67.48
69.44
72.74
73.18
78.12
80.49
81.9
58.28
62.62
63.83
64.08
65.27
67.29
68.5
68.66
68.83
69.26
69.49
70.48
70.72
73.82
73.98
76.16
58.96
60.81
60.95
64.58
65.72
65.92
66.08
66.85
68.18
69.56
69.72
70.52
72.22
74.83
76.82
82.74
55.82
59.53
60.04
62.21
65.38
66.26
66.35
66.39
67.58
71.85
74.4
74.81
75.38
75.39
78.63
81.51
55.72
58.54
65.05
66
66.12
66.66
67.29
69.58
70.23
70.93
71.51
71.7
71.78
74.39
74.92
82.86
62.19
63.71
65.9
66.56
66.86
67.55
67.85
68.2
68.36
68.84
69.67
69.77
70.19
73.31
74.62
81.17
60.26
62.23
64.71
65.23
65.25
65.89
66.33
68.94
70.25
70.71
70.73
73.24
73.74
75.03
78.82
80.47
53.4
62.68
65.42
65.96
66.13
68.5
68.76
69.87
70.54
71.44
72.59
73.37
73.59
74.37
81.41
84.39
58.95
63.58
64.31
65.55
66.75
68.17
68.42
70.68
71.36
71.66
72.07
72.75
74.05
74.6
78.77
82.18
60.57
62.23
64.21
66.74
67.05
67.97
69.24
70.79
71.05
71.26
73.7
75.03
75.47
78.26
79.46
80.52
60.91
63.79
64.33
65.33
67.67
68.26
70.3
71.43
73.09
73.36
73.56
74.12
76.02
77.18
77.82
79.91
57.32
60.42
63.37
66.02
67.84
68.89
69.38
70.3
73.01
74.35
74.39
74.88
78.16
81.91
82.57
82.9
54.32
60.39
61.65
62.84
64.77
67.28
73.33
74.14
75.31
75.42
75.89
77.39
77.64
78.49
79.82
89.67
63.37
63.62
65.69
66.86
67.77
69.47
70.75
71.1
73.31
74.45
75.02
77.15
77.2
77.46
78.17
86.33
63.7
64.26
66.24
66.92
67.45
68.43
69.55
69.69
71.69
72.6
75.28
79.53
79.6
80.24
82.08
87.22
65.24
65.69
66.18
68.23
69.02
69.05
70.25
71.02
71.14
71.25
74.03
74.56
81.08
81.5
85.33
85.65
59.33
59.43
60.78
69.71
71.45
71.46
71.52
71.87
72.23
72.43
75.17
78.73
79.22
80.61
81.43
95.51
59.75
59.99
64.76
66.58
68.44
72.29
72.6
73.19
73.66
75.31
75.42
77.86
78.15
78.81
84.05
91.09
60.54
64.74
65.1
66.61
70.14
71.47
71.53
71.56
73.31
73.92
74.11
77.91
83.04
83.41
84.39
90.95
56.33
66.25
69.15
70.49
71.96
73.35
73.57
73.74
74.18
74.85
76.76
77.71
79.35
79.47
80.93
85.67
59.31
59.52
62.87
69.01
69.32
70.43
72.01
73.89
74.48
75.74
77.69
80.87
81.04
82.57
87.66
90.46
63.16
64.16
64.3
68.16
69.36
71.01
72.24
73.59
74.84
75.18
75.6
79.05
81.71
83.18
87.87
89.39
62.66
62.81
64.32
65.53
71.08
71.11
73.21
74.36
74.41
74.65
78.97
83.38
85.76
86.09
86.31
90.45
63.09
66.25
68.25
68.57
69.49
74.08
75.69
75.84
75.88
77.85
78.62
79.36
79.61
82.21
82.99
90.67
59.4
60.44
68.18
70.57
70.82
73.18
73.22
74.47
77.47
79.16
79.9
80.97
81.98
82.61
87.95
88.94
65.55
66.24
69.99
70.62
71.7
73.46
74.12
74.48
75.03
77.03
77.61
80.11
81.69
82.58
85.62
87.3
59.59
65.82
67.69
67.91
71.38
73.59
73.73
76.97
77.38
78.18
79.69
80.77
82.41
82.78
86.84
92.45
59.36
64.66
67.92
68.57
69.64
73.12
73.23
77.87
79.22
79.45
79.94
80.66
82.82
85.13
87.88
91.8
60.82
62.57
67.08
68.72
69.96
73.9
74.73
74.96
76.38
79.48
80.28
80.4
83.58
84.09
88.4
96.48
61.84
68.04
68.99
72.55
72.8
74.54
75.69
75.8
76.21
76.4
79.48
82.08
82.1
82.2
85.51
88.19
64.63
68.75
70.63
72.8
73.33
73.97
74.37
75.59
75.8
76.46
79.25
79.9
80.52
82.22
87.48
89.36
65.74
67.4
68.4
69.43
69.52
69.97
72.25
75.41
78.38
80.39
82.04
82.23
85.99
87.26
89.86
92.57
65.34
69.35
70.21
71.65
73.32
74.8
75.36
75.36
77.38
80.61
81.98
83.55
84.53
85.08
85.72
85.76
70.42
70.8
70.9
71.22
73.52
73.63
74.47
74.54
74.7
77.39
81.49
83.02
83.76
84.35
86.46
90.1
67.18
69.55
71.07
72.21
72.73
73.58
76.61
78.11
79.34
79.35
80.12
80.98
81.43
82.16
84.28
93.34
64.07
67.79
68.92
70.05
70.93
71.59
77.7
78.14
79.33
79.48
80.54
83.32
84.97
86.11
87.78
91.92
62.24
67.4
68.2
70.46
70.64
71.15
72.86
78.07
79.95
80.25
82.45
84.18
87.15
89.61
89.62
91.45
64.97
70.75
72.18
72.27
73.93
75.25
77.03
77.62
77.84
79.74
80.62
82.46
82.57
82.88
88.81
88.89
51.41
66.63
70.93
71.53
73.9
75.24
76.27
80.6
83.1
83.52
84.65
84.97
85.76
85.84
86.56
87.59
66.44
68.21
72.15
74.37
75.04
76.45
77.56
77.95
78.01
78.91
79.02
80.29
83.28
83.87
87.24
89.97
64.35
67.92
70.97
71.49
73.45
76.23
77.25
77.63
80.01
81.52
82.22
82.6
83.11
83.42
86.49
92.87
68.18
69.41
72.01
73.86
75.08
75.86
76.02
76.44
77.29
80.77
81.6
81.74
83.27
85.02
86.07
90.95
70.78
73.81
74.97
75.57
75.7
76.71
77.01
77.07
77.31
77.75
78.07
81.09
82.86
85.4
86.63
87.31
61.35
71.95
73.75
76.62
77.01
77.29
77.43
78.09
78.71
79
80.28
83.42
84.15
84.48
84.99
89.6
56.95
67.1
67.85
76.26
76.75
77.04
77.9
77.91
79.88
80.86
81.52
86.73
88.16
88.23
88.4
91.11
61.49
69.52
71.6
73.14
74.48
74.77
77.96
78.81
78.95
81.48
81.92
82.42
85.1
87.91
90.97
92.78
61.94
62.86
70.87
75.21
76.38
77.93
79.3
79.79
80.82
83.89
84.95
85.09
86.57
86.64
88.46
92.48
67.58
70.1
70.54
72.64
74.33
74.86
77.24
79.11
79.89
81.34
83.03
85.52
87.48
87.5
90.03
92.56
67.25
67.47
70.1
75.09
76.19
77.95
78.74
79.35
80.64
80.78
82.35
83.09
85.24
88.18
89.39
95.37
68.78
69.97
73.68
74.68
74.96
76.76
78.6
79.88
80.27
81.09
81.66
82.89
82.94
86.77
89.12
100.19
64.82
71.67
73.95
74.43
76.69
78.76
79.75
80.84
81.26
81.74
81.92
83.83
84.11
87.46
93.45
94.03
73.43
73.5
74.31
74.63
75.07
79.08
80.17
80.92
81.82
82
84.04
84.65
85.61
85.9
90.42
93
68.93
70.99
72.18
73.17
74.51
76.12
78.61
78.74
80.26
81.96
82.59
88.05
89.41
93.5
94.83
94.92
71.99
73.85
74.35
76.04
78.03
79.08
80.05
80.31
80.8
82.78
83.99
85.96
87.01
87.56
88.6
88.97
67.82
73.93
75.39
77.45
77.72
78.37
78.66
78.79
80.57
80.92
82.34
86.87
88.75
88.86
89.14
96.28
65.82
68.93
71.08
73.89
75.1
77.79
79.66
82.11
82.25
84.59
85.31
88.09
88.63
93.75
94.11
94.95
69.94
72.29
75.1
76.08
77.76
79.65
80.66
81.71
82.07
83.69
84.89
84.97
87.73
88.02
90.31
94.95
71.55
72.57
73.8
74.22
77.58
78.38
80.71
82.12
83.42
85.25
85.46
85.88
87.55
90.59
91.18
91.56
69.78
71.5
73.73
78.62
79.88
81.38
81.88
82.76
83.83
84.35
84.86
85.79
87.71
88.68
88.77
90.91
67.42
77.31
77.53
78.48
78.63
79.92
80.41
80.69
81.84
83.91
84.11
85
87.34
90.84
92.46
92.72
67.23
69.67
69.71
74.19
80.8
81.75
81.79
81.95
82.24
84.77
85.34
89.14
92.19
92.87
93.28
97.19
70.85
72.03
75.09
77.29
79.94
79.96
80.6
81.8
82.3
83.7
84.64
85.36
88.21
92.77
94.68
96.28
68.47
71.23
72.72
74.36
78.3
80.5
81.04
82.25
83.19
83.38
83.5
84.57
88.22
88.47
98.66
108.01
71.27
73.96
75.15
76.14
78.13
79.44
79.62
80.63
80.85
82.18
86.35
86.76
89.73
92.44
93.59
101.1
69.36
69.52
76.73
77.58
79.31
79.69
82.93
84.54
85.23
85.26
86.89
87.06
88.87
89.21
90.86
97.04
66.49
72.53
79.97
80.46
80.59
80.67
82.84
83.46
84.55
85.15
85.41
86.12
88.02
88.22
88.54
97.85
65.04
71.08
75.95
77.04
78.84
78.92
79.93
80.21
80.38
84.27
87.37
88.29
89.38
96.91
97.49
101.86
70.3
75.84
77.36
78.19
78.47
81.03
83.31
84.48
84.63
85.76
87.45
87.59
88.06
88.61
89.4
94.84
69.7
75.44
76.18
76.43
77.65
82.15
82.28
83.09
83.09
83.47
84.23
87.48
88.23
91.61
93.99
100.67
68.12
71.12
73.02
73.33
74.26
77.56
79.32
82.97
83.08
83.51
86.43
88.45
93.64
102
102.83
105.14
71.94
73.35
76.23
76.8
78.51
78.52
81.65
82.28
83.42
84.83
85.23
90.58
93.08
94.93
97.26
100.25
66.68
71.14
73.28
73.51
82.48
85.89
85.96
87.25
87.47
88.5
91.61
92.37
92.69
93.41
93.68
95.45
67.69
72.12
74.58
74.79
76.11
76.15
83.73
85.54
89.41
90.87
91.42
91.81
92.03
95.14
99.48
103.59
64.92
73.95
75.57
78.09
80.98
82.75
84.02
84.02
85.71
86.64
87.83
91.24
94.57
98.05
98.19
104.62
67.77
75.67
75.88
78.02
78.29
80.85
82.02
83.86
83.87
86.99
91.93
94.35
95.78
97.27
98.44
102.58
77.22
79.29
79.68
79.89
81.07
81.28
82.52
87.96
88.76
91.17
91.74
91.87
92.65
93.59
93.98
94.84
67.1
76.3
76.97
77.21
79.16
81.88
85.58
85.63
90.14
90.28
93.38
94.03
94.39
94.81
95.21
109.6
75.44
75.9
78.83
79.35
82.28
82.47
85.03
85.25
86.07
87.04
89.29
91.26
97.47
97.96
100.06
100.87
69.76
78.51
79.08
82.85
84.22
84.83
85.73
85.75
86.23
86.91
88.17
92.78
93.74
93.74
97.32
106.41
75.31
76.39
78.99
81.9
82.86
83.68
85.55
86.03
86.93
86.94
88.91
89.62
91.87
95.74
98.26
107.05
68.66
79.37
79.65
81.41
83.31
84.71
86.47
87.52
87.65
87.93
91.07
91.11
91.99
94.84
100.98
102.53
67.75
74.69
76.4
77.37
85.26
85.59
85.63
86.11
86.12
87.12
88.89
93.97
96.25
99.73
102.55
108.98
69.89
77.9
79
81.31
82.09
86.38
86.68
90.09
90.27
90.63
91.48
91.85
92.06
94.34
100.49
100.99
71.37
78.9
81.15
81.25
83.07
85.37
85.84
86.09
86.4
88.34
90.59
91.64
93.99
96.28
102.12
103.75
75.48
76.5
78.79
80.38
80.6
84.84
86.51
88.52
89.69
90.34
91.93
92.18
92.23
94.54
95.14
116.26
71.79
71.82
76.75
80.78
82.36
83.19
84.31
89.96
90.34
91.25
95.68
95.99
99.49
100.68
101.84
103.49
69.4
79.41
79.42
80.63
82.5
84.2
85.49
87.32
88.97
89.75
91.3
94.24
99.39
101.34
101.59
107.92
72.92
78.86
81.22
82.05
82.2
83.55
84.45
86.83
89.01
92.33
93.14
97.12
97.17
98.79
99.09
110.64
71.97
78.79
80.95
83.75
84.2
84.28
86.4
86.63
87.1
87.82
97.57
98.89
99.26
102.37
102.58
107.74
78.5
80.58
80.98
83.31
83.83
84.44
84.97
87.3
88.97
89.48
94.52
97.93
98.65
102.41
103.13
110.07
75.52
78.83
81.44
82.06
84.53
85.11
86.37
88.48
90.82
96.86
97.61
98.09
99.42
99.73
102.6
103.7
79.22
82.36
82.83
85.74
86.47
87.3
87.31
87.61
90.66
91.83
95.9
96.97
97.97
99.26
99.69
100.15
76.31
84.27
86
86.85
86.92
87.64
87.94
88.36
89.95
92.1
92.72
95.5
96.39
99.62
101.58
105.22
68.88
79.32
82.37
82.87
83.5
84.91
90.17
91.5
92.7
95.57
95.77
96.25
97.29
99.14
106.12
111.05
75.79
79.76
80.48
80.64
84.72
86.21
88.52
91.08
92.25
94.35
95.03
95.19
103.84
106.26
111.71
113.55
75.09
75.66
78.9
83.43
86.24
90.72
91.72
93.29
93.65
94.17
95.22
101.02
101.54
106.75
107.29
108.34
79.54
83.55
84.16
85.73
88.75
89.42
90.18
92.34
92.6
92.64
94.88
95.38
96.26
98.27
110.67
111.53
74.45
77.76
86.03
86.99
87.25
87.29
87.31
89.55
93.16
95.67
98.98
101.15
101.97
102.16
107.25
111.89
73.01
78.09
84.98
85.25
85.63
87.91
91.03
92.09
94.22
96.41
96.42
103.37
104.15
104.86
107.83
111.33
78.23
82.12
83.62
87.48
87.77
89.84
92.63
94.07
95.6
95.61
96.53
98.43
99.71
104.52
105.78
106.63
72.48
76.24
82.5
82.72
89.47
91.3
91.69
92.86
93.82
94.45
98.07
99.17
100.96
108.4
108.87
119.76
82.84
86.86
88.4
89.46
89.91
92.63
92.86
93.88
95.24
95.67
97.2
98.79
99.5
101.04
101.41
104.8
81.38
86.21
86.41
88.34
89.07
89.5
93.83
94.24
95.18
95.99
96.87
97.24
100.94
103.38
105.71
107.43
78.48
83.14
84.99
85.82
86.5
86.55
89.73
90.75
91.01
96.29
100.33
101.55
105.99
106.23
110.52
115.45
72.52
88.03
91.37
92.07
92.62
93.35
93.35
94.16
94.28
94.32
95.67
100.33
103.32
103.36
103.75
107.04
84.24
84.37
87.81
89.86
91.24
92.69
93.3
93.59
97.29
98.86
100.47
101.7
102.53
104.59
105.7
108.87
77.93
82.97
90.86
91.14
92.78
93.74
96.85
96.89
97
97.15
98.06
98.13
100.46
104.96
108.48
111.17
84
86.59
86.95
91.31
91.35
93.63
93.76
96.11
96.22
96.28
101.45
101.71
102.68
102.83
103.7
114.98
81.08
83.56
85.18
85.27
88.49
92.02
93.41
93.66
98.44
98.67
103.37
104.1
107.5
110.92
110.95
111.63
82.69
82.85
84.81
85.2
86.32
94.76
97.36
98.07
98.14
98.85
100.08
102.51
105.18
106.79
114.49
116.39
83.72
91
92.91
92.94
93.45
95.24
95.25
96.01
96.19
97
97.5
99.03
101.6
103.86
105.45
116.77
82.83
85.68
88.16
88.97
90.65
93.21
94.33
94.98
95.14
101.9
102.06
103.51
104.6
106.59
108.25
117.13
86.37
87.09
87.42
89.95
90.1
90.84
91.48
95.11
96.48
97.12
99.11
100.87
102.17
105.46
114.92
128.18
83.43
86.15
89.9
89.92
90.46
91.44
92.36
95.54
95.78
99.41
102.45
104.59
105.69
106.46
111.48
117.73
88.93
90.44
91.54
92.82
93.45
94.53
94.69
96.49
98.67
99.47
100.61
100.72
101.92
102.94
112.06
113.93
83.38
87.75
91.06
93.03
94.83
94.84
94.92
95.42
96.28
100.41
101.79
103.53
104.98
108.75
113.54
113.63
77.5
92.99
93.36
93.41
97.51
98.08
98.44
99.48
99.63
99.78
102.51
102.82
102.92
104.52
104.8
110.63
87.72
90.66
92.1
92.13
93.69
93.77
94.25
95.81
96.81
100.74
101.03
103.9
106.28
107.74
109.31
124.43
78.41
80.63
86.09
86.37
89.31
95.73
97.83
101.16
101.65
106.06
106.83
109.76
111.92
113.01
113.55
117.85
87.26
88.4
90.31
95.27
97.16
97.77
98.77
99.27
100.58
102.13
103.13
103.14
104.69
105.2
107.85
116.18
85.05
90
92.08
92.12
94.66
97.23
98.79
100.43
100.78
100.96
102.95
104.28
104.51
110.44
111.33
113.24
90.81
91.63
92.97
93.64
94.34
95.29
97.93
97.96
99
103.02
103.26
105.8
106.14
106.83
109.73
115.83
82.25
87.46
89.54
92.19
93.07
93.18
94.94
98.51
101.68
102.53
102.9
107.71
110.88
113.1
115
124.35
84.3
90.15
92.41
94.36
95.28
97.03
97.32
98.38
98.58
105.28
106.45
106.48
107.43
107.7
113.65
118.41
84.96
87.63
88.01
92.46
93.73
94.65
95.09
98.15
99.03
99.91
103.31
106.72
106.93
116.88
120.06
131
82.02
88.21
91.46
92.29
96.38
96.85
99.2
101.94
103.76
104.35
105.61
106.02
107.46
107.91
117.2
124.86
87.01
92.13
93.77
94.52
94.59
95.63
98.07
98.18
99.13
102.72
106.12
106.85
110.62
112.32
115.68
118.73
86.8
90.32
92.95
93.12
96.85
100.12
100.21
100.75
100.8
101.48
103.58
104.51
110.28
113.37
117.55
119.97
88.17
92.47
94.49
94.62
94.9
95.44
97.68
98.6
101.91
103.03
104.54
110.46
110.86
111.57
113.64
126.62
89.69
94.87
96.57
96.63
97.73
99.18
99.6
102.58
102.9
103.39
104.13
105.44
108.76
108.8
111.59
119.71
83.19
84.14
94.8
95.81
96.97
102.46
102.89
105.07
105.22
105.77
108.26
109.01
109.05
109.66
111.72
119.96
91.73
92.67
95.39
95.44
95.58
96.46
97.81
98.42
99.27
99.5
107.06
108.86
110.44
113.88
124.1
130.23
93.36
95.63
96.1
96.21
98.72
99.72
102.32
103.88
103.88
104.09
108.47
108.93
109.45
109.9
112.83
115.44
84.43
85.96
98.65
102.13
102.51
103.28
103.81
105.94
106.18
108.02
109.11
109.74
110.02
110.77
111.16
113.22
82.37
85.2
85.24
91.18
96.04
96.36
96.36
97.78
101.61
106.38
115.87
118.75
121.66
122.74
122.76
134.71
94.06
94.92
97.16
99.75
101.53
101.57
101.81
102.5
103
103.13
105.92
107.17
112.15
112.21
112.62
125.93
82.82
91.27
93.86
96.72
98.89
99.48
101.82
103.83
105.01
108.15
111.44
112.99
115.52
116.74
117.8
120.15
85.09
86.89
91.44
91.6
93.63
96.95
105.16
106.49
108.61
108.62
112.45
113.35
118.84
119.28
120.96
128.14
91.93
96.67
97.26
98.22
99.21
100.93
102.19
102.63
104.74
105.15
107.52
108.31
108.65
111.35
127.24
128.58
88.29
90.11
95.18
95.31
95.9
101.15
102.22
102.86
103.73
105.75
110.86
114.25
117.4
119.8
121.73
131.13
83.46
85.96
89.73
93.58
94.09
98.24
98.73
105.42
106.09
106.6
115.13
117.53
123.11
124.93
129.31
130.24
84.81
93.89
95.23
96.69
99.5
101.6
106.09
106.61
107.58
109.56
111.77
112.59
115.25
119.79
123.24
126.09
88.12
96.42
97.24
97.26
99.8
101.07
101.79
103.5
104.06
105.67
107.91
115.05
120.67
121.31
122.03
132.35
87.96
95.57
96.61
96.65
99.86
100.56
102.27
102.97
106.35
107.27
115.07
115.97
120.13
123.17
134.65
135.39
86.14
93.27
99.19
100.58
105.53
106.78
108.8
108.87
109.21
109.57
110.9
111.35
114.08
123.37
126.04
128.81
90.67
90.74
99.17
100.2
107.67
108.1
108.7
109.39
110.73
110.96
113.55
113.93
115.29
117.12
124.26
130
89.13
98.99
99.49
103.47
106.16
107.24
107.67
110.17
112.52
113.36
113.6
114.94
118.58
119.18
119.55
124.54
93.5
98.5
101.84
103.98
104.61
105.62
106
106.2
109.01
109.76
111.35
114.19
114.23
123
125.79
133.26
94.39
100.85
103.28
103.29
103.93
104.64
105.75
107.84
112.34
114.3
114.34
114.9
115.53
115.91
117.13
134.3
93.31
99.21
101.34
101.42
102.13
104.52
107.5
108.41
111.08
111.35
113.2
118.19
118.4
122.36
124.82
127.87
91.27
98.6
101.05
103.46
104.57
106.31
106.56
106.8
108.02
113.77
115.25
117.86
118.47
124.37
124.63
129.27
89.2
101.84
102.27
102.95
106.22
108.46
108.67
108.86
111.12
113.42
114.93
115.21
121.76
123.43
124.19
129.27
84.59
101.89
103.73
106.19
107.32
108.28
109.24
111.97
114.52
114.72
115.58
116.43
117.58
118.85
125.51
125.97
92.09
92.38
98.71
102.23
108.05
108.83
111.99
113.04
113.43
115.24
115.27
116.56
117.6
119.78
121.58
138.07
91.87
95.83
98.71
99.28
99.86
103.25
103.71
108.44
108.98
110.97
116.76
120.84
128.06
128.06
132.11
139.38
88.68
100.91
100.95
103.75
104.32
107.14
108.62
112.37
113.28
115.02
116.56
117.55
121.5
121.65
123.56
135.4
94.33
95.08
97.35
101.71
103.52
106.66
107.58
109.15
112.31
117.4
118.07
119.21
123.69
126.96
133.3
136.35
92.58
99.78
103.41
103.47
105.89
106.26
109.19
110.52
111.42
115.74
116.1
117.69
119.05
125.24
132.42
136.28
92.29
99.11
104.29
104.34
106.81
107.21
107.88
110.64
115.9
116.81
118.68
119.01
120.29
127.06
130.55
132.67
99.61
103.49
104.2
105.29
105.55
106.18
109.5
111.42
112.36
114.09
115.91
116.21
120.34
122.45
128.51
138.55
95.69
103.65
105.33
107.35
109.12
109.45
110.51
111.23
116.06
117.1
118.47
118.98
119.18
120.42
125.75
127.06
92.18
97.87
101.57
102.1
110.09
110.62
112.27
113.99
114.03
114.54
116.04
119.36
119.81
123.39
134.16
134.27
101.68
105.24
105.56
107.04
107.8
107.96
108.13
109.56
110.4
114.24
116.12
116.18
120.45
123.32
140.59
142.55
102.33
105.45
106.48
107.21
107.35
110.68
112.05
116.92
117.7
118.76
119.96
120.69
121.2
125.9
125.93
127.65
85.88
102.98
106.41
108.29
112.2
112.83
115.46
115.61
117.5
119.88
121.52
123.86
126.1
130.58
130.94
132.41
98.09
98.79
99.88
102.6
106.7
110.34
113.71
115.57
117.73
122.83
123.17
129.4
129.75
130.3
131.57
134.9
105.8
106.38
110.14
111.75
112.82
113.97
114.83
117.17
118.47
119.19
119.69
120.05
121.57
127.39
128.9
143.33
97.37
100.67
103.22
106.17
106.61
109.07
112.85
114.39
117.3
122.28
126.18
129.52
129.93
138.08
138.95
147.65
99.16
101.12
104.94
105.52
110.96
114.14
118.09
120.16
121.88
122.29
123.12
127.69
129.85
129.9
133.98
137.75
96.22
103.01
106.32
116.76
116.99
117.61
118.09
118.4
118.42
119.8
121.04
123.45
125.5
130.49
135.2
138.77
100.5
104.79
109.6
112.17
113.42
113.5
118.32
121.21
121.32
124.67
127.08
130.48
131.06
131.94
132.1
141.3
101.46
104.46
107.28
109.99
112.71
120.9
121.48
122.91
123.28
125.72
126.94
127.91
128.28
128.5
132.02
143.93
102.2
105.2
105.42
105.86
106.96
118.4
119.66
121.16
122.32
123.72
124.75
131.3
136.19
136.34
137.95
140.56
99.71
100.9
113.51
113.74
114.11
115.9
115.96
115.97
116.1
118.49
129.47
132.47
132.77
138.53
142.41
143.09
109.33
110.76
115.45
116.1
116.22
117.22
118.15
120.25
120.31
122.39
123.81
127.58
127.84
131.66
132.05
136.23
91.01
102.64
107.73
109.86
113.82
113.93
116.48
121.54
121.54
123.48
128.2
128.37
138.31
139.36
142.6
147.48
101.5
103.25
103.8
106.47
113.01
115.82
119.02
120.84
121.93
126.19
126.54
126.77
128.38
137.76
141.6
153.64
97.86
101.56
109.69
115.27
116.8
117.69
118.58
121.9
123.86
123.94
130.36
130.62
133.18
136.74
139.68
142.93
104.6
110.33
112.7
112.99
117.03
118.2
119.3
119.37
120.14
121.66
124.72
128.45
129.31
137.96
138.43
149.22
104.27
109.02
109.86
116.28
118.44
118.58
119.45
121.11
121.34
127.44
127.57
127.58
135.72
136.5
139.85
148.23
100.7
102.1
107.19
118.93
119.34
121.92
122.37
123.66
124.02
124.26
125.73
127.07
134.03
137.35
146.63
147.78
106.39
110.65
114.03
114.83
118.67
122.25
122.81
123.82
125.06
125.38
128.07
128.14
131.32
132.86
133.88
145.53
106.69
111.16
113.54
117.25
120.02
120.35
122.93
123.92
125.62
126.18
126.32
127.14
133.39
133.52
136.75
140.11
109.91
110.19
111.13
111.38
114.93
115.06
119.23
124.35
125.29
126.64
128.1
132.45
134.3
142.25
145.28
147.67
104.5
109.41
109.67
109.71
115.74
116.79
118.17
121.62
122.84
123.01
125.34
130.21
133
145.77
149.33
169.42
107.5
113.02
113.47
117.72
118.06
120.3
121.97
121.97
122.18
127.13
129.39
134.2
134.32
136.3
141.73
147.14
100.45
111.87
118.57
119.13
119.52
121.57
123.06
124.68
125
126.88
132.07
132.13
138.49
139.89
147.59
147.83
107.14
110.37
114.07
120.63
122.1
123.14
123.94
124.02
126.03
126.78
129.86
132.97
134.85
135.22
145.21
154.8
101.18
108.56
111.42
119.48
119.98
122.8
123.58
124.02
124.73
125.87
134.44
137.92
139.92
141.24
147.68
152.4
97.75
110.83
111.28
114.33
117.81
118.28
123.32
124.43
133.35
135.31
138.12
138.16
138.97
140.54
142.58
151.37
107.84
111.77
117.93
121.99
122.1
125.14
125.25
126.51
128.5
130.18
131.52
132.78
134.56
135.44
141.09
143.91
110.3
111.15
115.71
116.6
119.23
121.11
121.79
123.94
127.55
130.71
133.48
135.42
136.81
138.55
140.68
154.56
104.51
107.14
109.35
110.55
114.43
115.29
127.11
127.85
128.32
129.45
130.34
135.67
144
147.55
150.89
156.07
95.76
107.13
114.16
116.2
117.86
118.47
125.06
125.36
127.39
132.52
133.79
134.44
141.61
142.76
153.84
160.55
101.83
111.68
117.52
117.91
118.52
120.62
121.4
124.08
126.76
127.35
129.6
137.84
138.61
143.36
145.34
165.34
102.24
107.72
114.19
114.7
117.77
118.28
126.98
127.93
128.13
132.29
138.24
139.73
141.29
141.47
143.75
155.19
109.75
112.86
113.07
115.54
117.6
118.29
121.35
125.22
127.6
131.18
134.75
135.09
139.25
145.57
148.35
154.62
108.47
113.31
117.37
119.37
124.04
124.48
125.51
127.01
128.67
131.44
131.58
132.36
137.2
141.35
142.8
149.83
110.12
111.92
113.8
117.29
117.97
121.28
123.3
126.98
131.83
133.73
134.37
138.54
140.16
141.87
145.19
148.69
110.71
113.45
115.59
119.98
123.52
123.66
125.95
127.03
127.84
131.31
134.63
135.3
141.4
142.58
144.36
147.07
116.33
116.92
117.16
120.2
120.35
120.35
122.36
122.62
124.4
129.84
130.7
132.92
142.06
153.94
155.26
157.64
114.57
117.56
120.82
121.16
125.87
129.46
129.87
130.59
131.8
133.21
134.89
135.21
138.01
139.18
141.12
151.11
100.89
112.49
116.61
122.01
124.69
126.84
128.12
130.15
131.28
134.44
142.33
142.9
144.21
145
151.08
152.06
103.92
111.12
117.1
121.1
126.2
129.01
131
135.42
135.56
136.96
138.08
139.02
144.25
145.58
147.82
149.58
109.78
115.17
118.1
122.17
124.6
126.23
128.03
129.14
129.7
132.01
132.77
140.16
141.98
146.13
150.84
165.5
116.59
116.7
122.84
122.85
124.82
125.44
125.89
128.64
129.86
133.69
135.04
136.97
138.31
152.05
153.01
153.09
103.22
118.27
121.22
122.64
122.69
122.99
124.11
124.21
129.94
136.44
140.6
145.75
146.58
152.57
152.6
156.64
105.11
114.43
116.02
117.03
123.2
123.7
127.5
131.21
134.58
135.55
136.7
140.07
146.46
155.66
156.68
164.78
119.22
127.66
127.94
128.19
129.37
130.19
130.66
134.85
134.95
135.09
135.31
138.11
139.15
141.76
142.96
143.47
114.39
120.24
120.73
121.56
123.18
126.7
127.2
131.45
134.21
134.82
139.59
145.59
145.95
148.21
151.49
154.54
116.32
118.3
127.99
129.37
129.55
129.85
131.55
131.89
132.97
134.19
138.65
140.89
141.18
141.8
143.85
158.53
116.9
122.09
122.43
123.85
126
129.2
130.75
132.68
135.15
136.94
137.37
138.72
143.75
148.03
148.9
160.79
114.95
119.06
119.17
126.27
126.36
127.75
128.02
131.94
137.82
139.08
139.62
142.05
145.13
147.76
153.71
156.75
109.43
111.9
123.61
125.61
127.71
129.68
131.4
134.31
135.97
136.62
138.34
142.57
143.76
148.69
157.79
160.66
112.42
115.17
116.58
117.29
128.12
136.94
137.71
138.95
140.61
141.1
143.04
144.81
145.96
146.87
147.03
159.67
120.07
123.39
125.69
128.18
130.12
130.52
132.58
132.97
135.19
135.29
136.96
141.99
144.11
145.53
149.28
164.35
116.1
120.93
124.94
127.96
128.25
129.29
130.04
130.22
131.28
134.86
143.75
145.04
145.54
148.1
159.72
162.58
104.52
105.72
111.41
129.16
129.46
133.16
137.02
141.86
142.5
145.7
145.85
147.21
148.13
152.45
157.48
159.44
111.66
113.44
116.61
126.47
130.13
133.14
133.45
134.05
134.73
138.04
139.9
145.21
152.77
154.1
165.58
169.37
119.51
119.58
123.81
127.12
129.43
130.62
135.97
141.51
144.02
144.64
145.74
146.16
148.92
154.44
155.82
165.81
118.69
120.76
122.81
125.81
130.4
133.79
136.61
140.48
142.75
143.42
148.99
150.72
153.51
154.84
158.12
164.06
122.76
125.77
127.95
129.85
135.16
139.77
140.17
140.8
141.19
141.34
142.05
143.74
147.48
153
157.39
161.39
110.99
125.15
125.89
125.91
134.46
135.56
138.33
138.83
139.52
144.66
147.2
153.8
156.03
157.86
161.83
163.8
126.94
128.37
128.46
129.19
131.99
139.11
141.24
142.71
142.74
143.43
143.68
144.54
149.26
153.62
155.11
161.97
128.54
128.73
133.06
133.44
134.1
134.91
136.95
137.15
138.28
139.09
143.96
145.93
146.03
148.47
169.51
172.67
120.12
120.76
126.77
132.83
134.18
134.93
139.41
139.52
140.65
140.84
150.06
153.02
153.88
156.81
160.12
167.89
116.18
121.37
122.52
124.28
132.82
138.08
141.92
146.16
146.41
147.78
148.54
151.26
154.86
155.55
163.57
165.26
116.36
125.6
129.31
130.26
131.96
132.01
137.46
140.76
143.57
144.41
152.1
152.99
156.93
157.68
161.77
169.67
104.82
111.25
124.27
131.12
134.73
138.38
139.56
141.2
150.43
150.46
154.26
155.59
157.03
158.16
165.92
168.99
116.16
119.44
124.9
127.47
128.19
135.92
140.44
143.45
144.71
146.82
149.28
152.44
154.12
155.85
162.49
186.05
108.93
124.51
129.67
133.09
135.87
138.04
139.45
142.3
142.91
147.3
149.33
153.65
156.67
156.87
164.98
169.27
123.72
133.04
133.93
137.65
138.09
140.91
141.86
142.85
146.23
146.4
146.52
149.84
151.48
151.71
158.13
166.64
125.1
130.87
131.87
134.32
134.7
138.29
138.54
144.65
146.42
147.59
149.4
150.48
155.37
156.75
159.73
166.74
123.68
125.03
127.57
135.52
136.95
138.85
140.46
145.9
147.2
149.22
149.72
157.19
158.41
160.61
164.85
167.44
109.66
125.31
135.39
136.68
144.57
145.94
146.73
148.2
149.7
150.72
151.61
152.62
155.09
157.83
161.8
163.83
112.25
128.72
130.99
134.23
134.85
144.4
145.77
146.43
146.76
147.07
151.71
154.95
161
161.69
169.26
173.17
132.8
134.12
134.26
134.34
139.96
142.6
144.1
146.38
146.49
147.57
147.62
151.71
154.87
154.95
161.34
170.43
124.09
125.15
139.7
140.12
140.52
141.46
142.29
143.77
151.57
151.6
151.73
154.95
156.33
156.48
157.42
167.36
132.49
133.17
136.89
141.83
143.02
143.19
143.3
144.7
146.65
150.06
150.84
150.9
158.53
160.37
160.83
165.34
124.97
131.32
134.99
138.2
139.49
140.97
142.41
143.82
145.15
149.05
152.96
156.38
158.54
161.42
163.74
183.88
124.49
125.71
127.91
134.63
134.7
141.19
144.86
153.26
155.07
155.66
155.75
158.74
159.56
167.99
169.71
171.72
126.29
126.6
140.82
141.64
144.41
146.24
146.44
148.66
148.68
150.33
152
152.14
154.07
166.27
170.92
179.71
114.78
139.03
143.75
145.05
145.62
146.3
146.69
149.2
150
151.39
157.43
159.51
160.63
160.76
164.3
166.96
119.84
123.97
140.98
145.78
145.79
150.31
151.43
155
155.5
155.89
156.27
159.66
160.56
164.92
166.35
169.06
135.17
137.08
140.65
142.58
145.06
145.52
146.14
150.06
155.07
155.11
158.12
160.1
160.12
167.09
167.34
173.62
130.95
134.3
135.27
138.35
140.65
144.67
147.14
149.22
151.39
153
153.29
155.19
158.88
165.35
179.1
205.47
130.09
138.29
140.45
141.6
142.95
149.26
150.36
150.56
152.42
152.44
157.28
158.32
158.99
171.87
173.27
174.62
136.8
141.41
144.44
144.69
145.41
146.98
147.93
148.4
151.9
155.25
157.96
161.33
163.75
166.44
172.32
186.76
136.33
136.35
140.03
140.36
140.69
149.68
150.77
151
156.79
161.88
164.73
165.13
165.26
167.5
174.27
175.3
132.65
134.16
137.82
144.85
145.84
147.72
151.1
153.27
156.04
157.92
163.95
165.46
165.85
167.29
176.4
176.97
129.3
129.54
134.38
143.36
147.42
149.75
150.99
155.33
155.92
160.24
162.58
164.54
164.62
173.72
177
179.65
134.88
136.14
140.23
146.79
147.61
148.15
148.38
152.04
154.93
157.96
158.55
167.5
167.5
168.03
173.64
188.21
135.7
136.34
137.97
140.39
142.37
144.96
145.37
145.73
154.38
154.57
155.99
165.49
167.51
180.77
183.31
201.8
126.27
130.46
137.53
139.71
141.46
145.46
151.71
152.93
153.98
156.45
169.56
169.9
171.24
178.02
183.22
186.14
110.9
139.79
140.24
145.3
145.56
153.03
155.85
156.35
160.43
161.48
165.34
166.08
167.6
168.81
183.28
183.4
116.05
126.47
139.75
140.9
142.91
155.57
158.37
159.01
160.36
160.79
167.08
169.39
173.92
177.82
184.5
185.46
118.69
130.27
143.13
145
147.95
148.49
150.94
155.42
162.44
164.62
165.75
165.89
170.59
177.25
187.02
191.4
127.49
132.58
139.16
142.02
149.7
155.66
157.11
157.72
160.57
162.41
164.45
167.19
173.76
176.78
177.12
182.93
139.97
142.36
144
149.26
151.17
151.57
153.64
153.85
157.23
158.77
165.62
167.07
167.08
168.25
169.81
196.9
126.7
142.65
150.28
152.01
155.05
155.78
157.38
157.46
159.55
162.21
162.94
163.58
168.51
168.62
174.87
196.4
135.34
135.69
137.7
142.92
147.76
151.09
160.51
161.01
166.18
168.72
170.55
175.72
177.8
179.1
179.69
181.2
114.95
143.45
146.92
149.56
151.46
154.43
156.11
159
163.01
163.25
163.65
164.18
177.79
179.62
183.54
202.53
131.2
139.46
151.49
153.78
153.85
158.44
160.37
164.62
165.13
166.28
167.46
168.84
170.53
171.26
172.91
181.34
132.13
134.61
145.13
149.58
152.76
153.4
158.35
159.4
163.39
164.68
168.3
173.5
176.33
184.23
185.35
198.36
125.62
137.93
140.13
145.28
149.65
152.09
155.3
160.19
161.1
173.25
173.34
178.54
179.44
188.64
188.81
191.79
127.45
142.45
147.1
148.83
152.49
154.56
161.79
164.8
169.42
171.68
172.77
172.96
173.14
177.34
178.14
186.8
128.97
143.25
149.29
152.3
154.33
158.51
160.88
161.84
165.99
168.61
174.18
175.53
177.16
177.3
181.24
182.88
148.61
150.43
150.5
150.96
152.26
154.09
154.26
154.36
154.82
165.85
168.79
170.22
172.5
181.79
186.57
198.35
123.9
130.54
145.22
150.92
152.29
154.15
158.76
162.52
168.29
170.26
172.58
174.39
175.33
178.33
178.5
224.3
141.15
143.23
150.01
155.36
155.36
156.21
156.8
160.32
160.93
164.59
165.51
168.84
174.83
179.44
190.81
203.64
147.83
148.69
153.55
155.2
155.35
158.35
161.07
161.77
162.57
162.88
163.08
165.03
170.74
182.29
195.85
201.63
135.19
138.37
140.88
151.43
153.37
163.17
163.56
163.88
164.32
177.3
180.04
184.01
188.7
189.58
205.02
211.67
141.13
150.78
151.27
153.92
160.41
160.61
163.78
168.74
170.3
171.2
175.67
180.31
185.83
188.24
188.51
208.62
149.17
150.08
154.64
155.19
157.5
159.02
163.49
165.44
171.9
171.92
172.98
184.73
187.31
191.45
197.14
197.82
140.1
149.14
150.31
156.37
162.23
168.06
168.7
169.24
171.11
171.91
175.5
175.74
187.46
192.4
192.7
198.9
156.26
156.49
158.66
161.1
164.5
165.29
168.25
171.52
172.78
173.35
178.97
179.03
185.26
185.6
192.13
204.04
148.12
153.93
154.55
154.81
157.97
160.81
169.65
175.37
179.44
181.07
182.46
189.01
194.69
196.15
196.15
205.81
148.27
152.01
156.48
156.75
158.51
164.01
164.97
175.11
176.08
179.7
180.36
181.96
196.26
199.16
209.94
217.85
159.6
159.77
161.28
162.48
162.97
173.65
175.2
177.42
178.95
179.78
181.06
182.9
183.21
186.45
189.49
203.56
149.09
160.54
163.38
165.27
168.28
168.49
172.29
173.1
177.53
183.39
186.15
186.5
188.82
198.01
200.51
204.23
154.44
155.08
172.57
175.83
175.96
178.01
178.02
179.1
179.79
185.05
186.16
191.23
193.11
195
199.28
199.58
154.8
155.94
158.46
163.89
164.68
177.34
177.38
179.14
182.26
185.62
190.84
192.9
193.66
204.93
209.35
211.5
155.51
161.56
163.96
166.13
166.4
170.07
174.17
176.01
179.2
191.42
191.64
192.05
198.14
198.75
209.52
222.88
153.52
155.36
156.02
161.83
170.42
171.36
176.59
179.4
188.18
188.41
191.47
196.41
197.32
205.42
218.56
219.27
166.14
168.08
168.36
169.01
173.16
178.08
178.39
180.47
181.56
183.62
184.11
185.48
195.8
200.88
201.11
222.41
159.93
163.18
163.28
164.37
173.71
175.06
175.83
190.83
191.74
192.74
196.09
197.46
198.01
204.89
205.55
206.6
151.58
162.24
165.18
170
172.17
172.79
172.86
180.21
186.16
186.64
188.6
191.45
201.59
210
213.74
235.46
159.54
165.01
170.95
171.65
174.43
175.72
177.34
179.86
185.78
187.53
193.23
196.55
202.28
208.64
217.69
219.05
169.34
169.42
171.12
174.16
175.43
177.02
183.54
192.43
194.91
196.37
197.79
198.03
199.6
200.65
212.28
231.2
160.44
168.1
174.68
177.2
180.84
186.32
187.53
189.84
195.59
199.04
201.07
204.96
205.01
205.83
208.97
210.02
159.16
173.66
175.33
175.37
176.44
179.65
184.63
186.79
188.47
192.49
194.05
201.11
201.86
208.64
229.46
233.17
164.38
172.57
172.95
178.24
179.55
180.4
181.97
183.34
185.78
193.46
203.86
204.79
206.09
217.94
218.92
223.55
166.13
166.39
172.51
174.89
181.53
184.89
187.21
189.56
193.89
194.93
197.79
201.57
204.27
215.55
216.91
226.74
143.15
165.81
165.9
183.95
184.14
189.58
192.73
194.03
194.09
199.31
201.55
201.69
210.29
211.85
212.39
225.38
140.63
174.8
178.93
180.88
186.94
187.7
190.74
190.78
194.44
195.84
198.18
201.84
205.41
214.11
216.91
219.62
173.36
177.61
183.45
183.93
186.58
191.63
192.03
193.34
194.3
194.79
200.27
200.43
203.14
204.26
208.62
219.99
160.2
169.83
182.76
182.82
187.23
187.53
190.2
197.87
198.84
200.46
202.21
207.21
207.93
211.05
213.56
230.48
155.17
169.26
180.15
188.07
193.54
194.32
197.58
201.25
202.03
202.44
202.59
205.37
206.22
207.36
209.62
219.84
153.03
153.08
184.16
185.04
189.07
190.05
190.74
193.34
196.79
200.69
202.79
205.73
214.55
216.24
224.11
236.7
168.53
169.23
171.61
177.78
187.92
188.66
189.06
193.08
199.29
206.24
207.92
207.95
210.29
210.35
221.04
233.25
159.84
160.49
175.73
180.36
181.9
190.11
193.21
197
200.48
204.97
205.52
209.96
217.04
217.36
227.99
231.79
172.47
172.98
175.92
182
182.88
184.32
192.92
194.65
196.98
199.83
204.81
209.39
210.79
218.74
221.88
261.87
174.3
174.81
175.16
177.25
179.47
180.35
183.53
189.89
202.34
202.47
204.36
206.59
208.85
230.11
243.06
252.99
171.47
175.11
181.82
183.4
186.22
187.16
194.72
201.07
201.83
206.25
212.12
214.74
220.45
224.3
232.68
234.82
177.85
178.33
181.07
181.57
186.3
192.37
195.65
200.8
202.51
202.57
204.09
223.45
225.18
229.02
231.49
239.51
162.12
190.29
192.18
193.39
197.51
201.31
203.06
204.81
205.45
207.01
210.03
213.2
214.65
226.29
226.58
229.24
171.43
175.47
185.35
190.48
198.78
199.19
199.42
209.36
209.83
211.05
212.07
216.09
219.39
223.78
227.24
229.06
184.09
184.39
189.51
193.08
193.84
194.56
195.44
196.42
198.44
204.11
206.56
207.67
217.68
218.92
232.52
263.67
146.24
179.25
183.14
188.08
196.38
198.3
199.64
202.32
204.25
209.98
211.64
224.35
229.01
230.5
241.94
248.24
177.2
192.84
193.07
193.2
196.97
198.31
206.23
209.37
210.29
211.9
212.02
221.22
226.01
226.52
236.71
243.01
177.2
189.07
195.73
198.35
202.53
202.56
203.49
204.17
206.31
207.58
212.82
223.26
226.42
233.31
240.18
242.38
183.82
193.9
195.79
195.94
201.64
203
203.27
206.29
207.89
211.09
213.07
213.98
217.82
230.62
232.43
263.94
173.32
184.6
195.43
196.81
203.95
204.88
205.85
212.11
212.58
214.22
225.37
227.14
227.7
228.72
240.3
246.54
160.54
188.15
192.95
194.76
198.86
203.13
208.7
216.85
219.42
226.46
228.75
231.64
233.99
235
245.21
249.71
190.52
191.5
198.29
202.27
211.62
217.08
219.83
220.49
220.67
221.23
222.5
225.26
229.11
231.36
231.46
250.13
180.4
184.36
195.67
196.05
202.16
203.49
204.36
215.05
217.8
221.38
229.02
233.44
240.08
245.69
258.47
258.66
191.96
192.26
196.53
198.14
199.43
207.99
218.63
221.87
222.42
222.65
223.5
225.66
243.97
245.47
250.62
261.96
186.65
189.98
193.13
196.18
198.99
202.53
205.56
210.5
232.7
233.37
240.23
240.75
246.53
250.72
251.94
255.32
179.91
184.24
209.6
211.7
212.25
212.81
225.88
226.36
232.92
234.46
236.14
236.59
240.56
240.96
254.53
259.66
174.86
182.46
188.54
201.75
218.69
222.82
224.7
231.31
234.9
236.28
237.2
241.12
246.94
247.27
257.43
279.51
192.06
197.61
206.72
214.45
223.06
223.89
224.25
229.78
230.18
234.18
234.9
235.01
239.14
242.33
242.8
262.15
193.89
207.81
207.89
212.65
213.09
214.1
218.09
219.3
223.98
226.12
234.35
245.87
249.37
251.71
255.25
261.43
202.78
214.27
216.15
216.3
216.78
223.71
226.49
227.56
232.11
234.99
241.04
241.18
241.58
246.19
248.32
256.76
195.72
196.04
205.66
215.32
226.95
227.88
230.76
232.59
232.64
243.37
246.61
251.44
251.92
255.07
258.51
264.55
187.08
195.38
221.22
222.55
222.82
227.43
231.99
234.28
236.72
238.8
244.85
249.58
257.92
263.21
270.21
285.44
192.34
201.93
203.11
216.94
216.99
223.2
234.03
235.31
237.71
240.92
254
256.62
264.79
269.61
274.24
282.63
201.24
204.27
218.86
229.62
231.52
237.9
244.41
245.17
245.22
246.1
247.84
248.34
252.52
266.44
266.72
270.5
192.54
220.89
231.12
234.63
237.52
240.96
245.07
245.48
245.6
247.48
249.46
249.86
251.67
255.43
278.75
281.91
199.28
214.22
222
226.79
228.33
229.98
236.43
240.7
243.89
255.64
261.16
261.42
265.05
268.88
276.18
297.49
224.98
225.99
237.72
245.38
245.9
247
256.54
257.28
262.44
267.49
278.53
282.34
283.03
283.74
285.11
292.03
230.39
230.6
233.84
246.2
246.5
255.35
256.95
263.64
267.9
274.96
278.75
280.37
282.79
284.92
287.6
298.17
191.33
230.08
230.36
251.54
255.83
261.53
264.77
267.13
273.65
283.45
283.55
287.67
293.04
298.86
308.22
316.27
267.76
269.08
271.54
275.26
276.22
278.39
285.97
287.81
290.17
292.83
293.93
294.4
294.85
303.11
303.34
380.1
235.41
282.19
287.81
292.18
296.5
298.7
299.62
299.7
302.55
304.14
307.28
310.82
311.72
337.63
357.34
363.39
262.66
274.96
275.76
277.17
281.19
284.22
291.72
294.67
311.99
318.58
320.66
320.74
334.19
339.43
341.62
359.5
268.63
272.16
272.8
277.46
281.24
298.03
301.46
303.6
312.17
315.94
322.98
325.11
332.17
340.79
345.69
368.92
285.4
296.45
298.62
298.74
298.96
300.98
307.13
308.87
308.95
313.19
322.02
332.28
334.94
337.12
342.5
388.08
