8.09
9.97
10.04
10.16
10.17
10.42
10.81
11
11.02
11.07
11.49
11.77
11.78
12.16
12.63
12.63
9.71
10.57
10.86
11.11
11.51
11.72
11.82
11.87
12
12.31
12.34
12.37
12.4
12.66
13.36
13.51
10.67
10.8
11.21
11.93
12.48
12.63
12.65
12.81
12.89
12.9
13.19
13.89
13.98
14.43
14.82
15.68
10.53
12.2
12.21
13
13.17
13.24
13.28
13.73
13.95
14.05
14.17
14.21
14.72
15.4
15.94
16.44
11.1
12.36
12.49
12.66
13.31
13.53
13.58
13.6
13.84
14.16
14.39
14.45
14.75
14.89
15.5
16.45
11.64
13.14
13.51
13.67
13.74
13.74
13.96
14.28
14.5
14.52
14.75
15.01
15.02
15.85
15.98
17.24
12.53
13.55
13.56
14.04
14.22
14.46
14.66
14.71
14.98
15.08
15.88
16.11
16.15
16.6
16.6
17.07
10.95
13.12
13.94
14.25
14.64
14.77
14.97
15.1
15.12
15.14
15.33
16.1
16.76
17.18
17.49
18.58
13.46
13.81
14.28
15.08
15.64
15.82
16.04
16.19
17.08
17.1
17.25
17.33
17.81
18.65
18.75
19.91
14.22
15.5
15.69
15.75
16.05
16.34
16.81
16.86
17.43
17.55
17.89
18.11
18.25
18.58
18.74
19.2
14.86
14.89
16.23
16.84
17.06
17.15
17.27
17.42
17.75
17.86
18.06
18.31
18.64
18.79
19.34
20.21
15.12
16.06
16.43
16.8
16.9
17.59
17.91
18.23
18.36
18.45
18.87
19.33
19.9
20.72
21.48
22.07
16.96
17.33
17.48
18.25
18.27
18.34
18.66
19.14
19.9
19.94
20.49
20.57
20.85
21.76
21.96
22.32
17.15
17.62
18.66
18.82
19.01
19.06
19.2
19.32
19.45
19.51
20.07
20.38
21.2
21.41
21.76
24.06
16.16
16.75
19.04
19.46
19.65
19.88
19.88
19.91
20.66
20.72
20.83
21.77
22.61
23.29
24.54
26.12
18.07
18.11
18.64
18.95
19.89
20.42
21.11
21.81
21.94
22.79
22.82
22.85
23.17
23.24
23.37
23.76
18.84
19.06
19.72
20.03
20.13
20.31
21.09
21.25
21.49
21.9
22.15
22.31
23.13
23.37
23.63
23.94
17.54
18.61
19.48
20.27
21.31
21.71
21.71
21.86
21.91
21.92
22.16
22.65
23.49
23.59
24.76
25.31
18.44
20.31
20.46
20.75
20.9
21.31
21.44
21.59
21.73
21.88
22.05
22.16
23.34
24.32
24.44
30.25
19.06
20.66
20.88
20.97
21.73
21.77
22.91
23.49
23.52
23.89
24.31
24.49
24.76
24.86
25.31
25.34
17.89
19.87
20.94
21.77
21.93
22.94
22.95
23.37
23.39
23.59
23.77
23.97
25.47
25.57
25.66
26.34
20.38
20.62
21.9
22
22.17
22.21
22.24
23.06
23.13
24.54
24.88
25.17
25.29
25.51
25.86
25.99
20.12
21.32
21.38
21.64
21.9
21.94
22.36
22.36
23.84
24.86
25.75
25.87
25.88
26.73
26.85
27.8
20.55
21.14
22.25
22.73
22.83
23.17
23.19
23.27
23.31
23.73
24.44
24.5
25.22
25.73
28.95
31.47
18.82
18.98
22.38
22.8
23.37
23.51
23.52
23.75
23.99
25.27
25.34
25.65
25.66
27.36
28.08
29.16
19.6
20.84
21.39
21.69
23.02
24.27
24.47
24.79
25.04
25.09
25.14
25.37
25.75
26.1
27.65
28.84
21.51
22.88
23.46
23.46
23.9
24.11
24.14
24.54
24.6
24.89
25.22
25.29
25.48
26.62
27.05
27.85
21.54
21.85
21.92
22.63
23.05
24.13
24.33
24.42
24.65
26.09
26.81
26.91
27.12
27.51
27.81
28.55
20.14
23.42
24.04
24.11
24.14
24.42
24.57
24.67
24.84
24.93
26.22
26.55
26.92
27.26
27.56
28.08
20.67
21.08
21.21
21.52
23.68
23.89
24.76
25.53
26.69
26.73
27.01
27.02
27.39
28.03
29.4
29.71
22.5
23.56
24.24
24.54
25.28
25.37
25.46
25.49
25.99
26.5
27.59
27.62
27.9
28.35
29.88
30.6
19.76
23.27
24.09
24.18
25.28
25.51
25.77
25.81
26.37
26.71
26.93
27.18
28.12
29.64
30.05
34.45
22.85
23.28
23.57
24.87
25
25.05
26.19
26.45
26.58
27.18
27.19
27.34
29.31
30.37
30.92
31.25
21.35
24.42
25.16
25.99
26.2
26.26
26.48
26.89
26.96
26.99
27.36
27.53
28.59
28.6
29.22
29.97
19.98
23.57
24.56
24.59
24.84
25.7
25.98
26.3
26.42
27.34
29.51
30.59
30.63
31.45
31.62
32.56
24.29
24.51
24.58
24.84
25.62
25.64
26.47
27.45
27.67
28.59
29.24
29.76
30.38
30.55
31.62
32.15
23.7
24.04
25.31
25.46
25.93
26.8
28.01
28.97
29
29.62
30.33
30.6
30.64
31.22
31.26
32.79
23.43
23.8
25.38
25.48
25.97
26.88
26.99
28.74
29.69
30.04
30.78
31.41
31.78
32.4
33.78
33.91
23.51
23.92
25.98
26.08
27.11
27.9
28
28.99
30.51
30.76
31.58
31.85
31.96
32.27
32.52
34.4
22.97
23.79
26.64
27.01
27.96
28.24
29.44
29.53
30.07
30.75
30.9
30.93
32.68
33.64
34.32
35.73
20.64
27.02
28.27
28.38
28.39
29.17
29.3
29.44
29.64
30.95
31.29
31.66
32.24
32.43
32.71
35.92
23.19
26.46
27.25
27.45
29.15
29.21
29.83
30.61
30.67
30.72
31.37
31.4
31.56
31.67
33.59
33.99
26.91
27.4
27.43
27.45
27.84
28.45
28.71
28.73
28.75
30.65
31.4
31.8
31.83
32.11
32.47
37.21
21.11
27.36
28.05
28.06
28.32
29.16
29.18
29.47
29.49
30.88
31.66
31.9
33.33
33.7
33.92
34.52
26.7
27.14
28.34
28.52
28.6
29.65
29.97
30.89
31.5
31.56
31.59
32.37
32.62
33.94
35.67
37.7
25.73
27.88
28.13
28.18
28.48
28.62
29.71
29.84
30.81
30.93
31.12
32.38
34.86
35.83
36.26
38.11
26.84
26.98
28.59
29.84
30.72
30.75
31.11
31.22
31.55
31.96
32.41
33.64
34.34
34.55
35.14
35.59
27.11
27.27
27.66
29.22
29.6
29.84
30.97
31.71
31.77
32.48
32.75
33.17
34.49
35.42
36.43
41.41
29.06
29.07
29.39
29.64
29.76
31.58
32.57
32.72
32.85
32.98
33.46
34.18
34.68
35.56
35.82
38.29
25.41
27.03
30.37
30.89
30.92
31.78
31.95
32.15
32.92
33.05
33.31
33.74
34.29
36.67
39.01
40.78
27.76
29.12
30.96
31.36
32.09
32.21
32.83
33.35
34.52
34.53
35.15
35.75
35.89
37.09
37.34
41.87
26.97
29.64
30.67
32.19
32.3
33.03
33.04
33.04
33.13
34.11
34.99
35.55
36.27
37.7
39.4
40.22
28.35
30.36
31.8
32.04
32.54
32.61
32.77
34.04
34.24
34.72
34.87
35.35
35.48
36.38
38.75
39.4
29.76
29.91
31.98
32.35
32.51
33.01
33.92
33.98
34.03
34.44
34.52
35
35.5
36.87
37.3
38.78
30.85
31.58
31.66
31.75
32.02
32.34
32.39
32.66
33.38
34.77
35.16
35.94
35.95
37.76
38.73
41.99
29.5
30.83
31.71
32.22
32.49
32.88
33.22
33.29
33.84
34.57
36.17
36.64
36.64
38.33
38.58
38.62
28.26
28.91
30.47
31.08
32.53
32.76
33.07
35.12
35.88
37.06
37.24
37.92
38.06
38.65
41.39
45.37
31.12
32.03
32.49
33
34.34
36.36
36.56
36.8
37.11
37.45
37.54
39.15
39.16
39.21
39.51
42.22
29.96
30.25
32.65
35.31
35.55
37.21
37.74
39.09
39.32
39.51
40.05
40.94
41.57
41.8
42.83
46.04
32.63
33.77
34.25
34.94
37.45
37.61
38.05
38.12
38.19
39.4
40.05
40.78
40.89
42.17
42.9
43.14
34.43
35.58
35.58
35.6
37.56
37.84
38.74
38.8
38.99
39.65
39.73
40.41
40.67
41.09
41.09
43.31
31.47
33.33
34.94
35.64
37.17
38.25
38.61
38.91
39.21
39.39
39.43
39.8
40.47
43.23
45.32
45.59
34.65
35.08
35.15
35.97
36.01
36.36
37.63
38.06
38.83
39.95
41.09
41.29
41.91
41.95
43.86
44.59
32.47
32.88
34.33
34.39
35.93
36.05
36.39
37.37
38.19
40.33
41.5
41.61
43.1
43.59
48.62
50.05
32.23
34.15
34.54
35.39
35.62
36.08
37.44
37.84
38.18
39.21
40.82
41.75
43.55
45.09
45.14
50.57
32.73
36.89
37.66
37.9
38.23
38.27
39.57
40.35
41.53
41.59
42.44
42.75
43.3
43.73
44.08
44.11
33.41
36.25
37.43
38.64
38.88
38.9
39.01
39.63
39.76
41.08
42.53
43.09
44.16
44.25
44.62
44.94
34.26
35.14
36.73
36.83
38.53
39.15
39.28
39.56
39.85
40.55
40.59
42.7
43.43
45.03
45.17
50.62
28.92
35.53
35.83
39
40.23
40.42
40.67
41.57
41.96
42.36
42.54
42.97
43.11
43.41
43.63
46.21
31.15
32.74
38.42
38.63
39.09
39.66
40.37
40.48
41.11
43.16
43.25
43.68
43.93
44.15
45.56
47.54
37.1
37.17
37.63
38.12
38.5
38.86
39.28
39.75
40.82
43.14
43.36
43.39
43.9
43.98
45.27
45.7
35.5
36.83
38.03
39.09
39.73
40.49
40.67
41.07
42.07
42.17
42.52
42.74
42.9
43.29
46.77
49.71
36.13
37.06
37.61
38.65
39.28
39.33
39.6
40.09
40.26
41.95
42.66
42.69
43.16
45.67
49.38
50.17
38.45
39.04
39.25
39.68
40.36
41.06
41.22
41.49
41.88
42.33
42.44
43.54
43.56
43.98
47.26
48.47
36.63
37.37
37.67
38.73
40.87
41.16
42.68
42.7
42.85
43.12
43.25
44.81
44.98
45.7
46.77
49
28.92
35.34
39.05
40.62
41.23
42.91
42.92
43.48
43.77
43.96
44.94
45
46.32
46.32
47.5
48.58
37.44
37.89
38.25
40.42
40.58
41.71
42.47
42.77
42.79
44.21
44.35
45.16
45.88
45.89
48.48
49.35
36.5
38.54
38.59
38.77
39.49
40.4
41.94
44.01
44.44
45.11
45.17
45.42
45.74
46
47.06
51
35.86
37.1
41.02
41.17
41.91
43.29
43.35
43.59
43.61
44.14
44.49
45.1
45.19
45.66
45.69
48.08
36.33
38.18
39.14
41.75
41.94
42.83
42.94
43.88
44.02
44.2
44.4
44.62
44.65
44.68
47.52
49.1
34.09
36.85
38.26
39.75
41.16
42.56
43.08
43.38
43.89
43.99
44.2
44.84
47.21
48.23
48.6
50.74
36.3
36.54
37.83
40.91
42.13
42.19
42.35
42.59
43.44
44.42
44.81
44.89
47.54
47.92
48.38
50.3
36.32
36.79
38.02
38.69
40.04
40.32
40.99
42.08
42.97
42.98
44.9
45.77
51.92
52.21
54.22
54.38
34.06
37.47
39.66
41.59
42.33
43.83
44
44.29
44.69
44.82
44.92
45.45
46.17
49.5
49.88
50.37
34.68
37.35
39.47
39.73
40.53
41.09
42.06
42.73
44.61
44.81
46.82
47.02
47.19
49.31
49.77
57.8
37.21
39.4
39.52
40.16
42.17
42.43
42.8
43.48
44.22
45.2
45.44
45.83
46.63
51.32
51.64
51.8
38.75
41.36
41.47
42.04
43.27
43.33
43.6
43.7
44.28
45.44
46
46.79
46.98
47.53
48.01
49.11
37.19
37.59
39.71
41.59
42
42.66
43.77
43.92
44.6
45.88
47.16
48.81
48.88
49.37
49.93
51.16
32.73
37.61
38.68
41.57
42.83
43.49
44.2
44.38
44.6
46.23
46.3
46.54
47.93
50.4
52.68
55.82
38.91
39.99
40.54
41.04
42.4
42.56
42.98
43.69
45.01
46.11
46.92
47.09
47.92
48.54
51.73
51.94
36.62
38.49
38.84
40.27
41.81
43.77
44.22
45.54
45.64
46.04
46.58
48.87
49.15
50.5
50.5
59.62
39.55
42.28
43.21
43.32
43.35
43.55
44.65
44.89
45.76
46.2
47.16
47.5
48.69
48.93
49.68
50.86
39.67
41.33
41.73
41.79
43.04
43.92
44.32
45.51
45.91
46.64
47.27
47.83
49.72
50.88
53.63
53.81
38.81
41.78
43.02
43.23
43.47
44.11
44.3
44.64
45.36
45.85
46.83
46.87
47.08
49.15
52.46
61.14
38.87
39.85
40.14
43.99
44.93
45.68
46.13
46.81
46.94
47.05
47.77
48.83
48.94
49.24
51.07
52.06
38.86
41.59
42.27
42.42
42.51
43.62
45.89
47.57
47.76
47.9
48.05
48.21
49.17
49.18
51.82
53.23
37.54
39.7
39.96
44.25
45.51
45.79
46.68
46.86
47.97
48.71
48.75
48.77
49.46
49.49
51.25
52.35
38.89
40.09
42.01
43.42
45.26
45.28
46.48
46.78
46.92
47
47.8
48.68
49.61
49.88
52.52
52.8
40.86
43.6
44.17
44.2
45.08
45.57
45.72
46.21
46.63
47.95
48.17
48.46
49.95
50.82
51.48
52.93
39.26
40.76
41.71
41.84
42.91
45.06
45.35
47.47
47.79
48.16
48.91
49.89
50.05
53.4
53.69
57.07
40.19
43.67
44.75
45.19
45.64
45.83
45.89
46.91
47.35
48.31
48.78
48.96
50.14
51.2
52.01
52.81
41.7
41.97
43.57
43.57
43.7
43.97
45.3
45.77
46.78
48.02
50.08
51.35
51.96
52.99
53.27
53.96
39.6
42.17
42.45
42.66
43.32
45.57
46.58
47.75
47.82
48.84
49.79
50.79
50.85
52.02
53.56
55.26
39
40.57
40.96
44.05
44.14
44.45
45.78
46.87
47.08
47.14
50.24
51.43
52.08
52.76
55.92
56.78
40.39
42.03
43.58
43.88
45.1
46.66
47.8
47.87
48.73
49.41
49.52
50.31
50.9
51.06
51.27
51.6
38.51
42.75
42.76
44.79
46.3
46.41
46.48
46.65
47.08
49.22
50.34
51.1
51.15
52.59
53.46
53.79
41.22
41.55
43.83
44.44
44.48
45.23
45.35
46.52
47.48
47.62
48.57
48.71
49.63
50.48
56.21
64.27
41.06
41.24
42.6
45.93
46.18
46.6
46.74
47.13
47.54
47.73
48.34
48.74
50.58
54.06
56.89
60.76
41.61
42.35
44.1
47.04
48.73
48.94
49
49.08
49.3
49.45
49.81
50.08
51.31
51.61
55.7
57.86
35.47
41.43
42.6
46.04
47.14
47.64
48.24
49.02
51.61
51.78
52.04
52.07
53.91
55.42
55.72
56.64
40.99
42
43.72
43.81
44
44.84
47.73
47.87
49.64
49.84
52.75
53.15
53.25
53.68
58.01
62.54
41.65
43.21
44.73
45.45
47
47.09
48.65
48.83
50.38
50.43
51.12
51.95
53.25
54.11
55.06
55.52
44.48
46.18
46.22
46.57
47.34
47.65
48.27
48.37
49.33
50.65
50.71
51.17
51.96
53.05
56.38
57.22
40.92
43.18
44.75
45.14
45.17
46.1
46.69
49.39
50.93
50.99
54.84
55.11
55.65
55.78
57.42
63.68
46.08
46.15
46.32
46.74
48.62
48.75
48.76
50.55
50.6
51.31
51.68
52.44
53.07
53.81
54.33
59.2
42.87
43.47
44
47.49
49.3
49.42
49.98
50.54
50.61
51.92
53.51
53.73
54.1
54.75
55.21
59.61
40.82
43.47
45.2
46.79
47.72
48.77
49.37
51.44
51.82
52.01
52.88
54.22
55.16
57.01
57.08
58.77
45.2
46.29
47.29
47.53
48.69
48.98
49.27
50.4
51.67
52.19
53.28
54.37
54.76
54.79
55.76
56.8
45.08
45.15
47.11
47.95
48.91
48.96
49.52
50.24
50.41
54.1
54.61
54.98
55.25
56.36
57.17
58.15
43.05
45.21
47.83
48.3
48.51
50.9
52.28
52.51
52.85
54.02
54.04
55.73
55.85
57.03
57.19
58
45.81
47.15
48.6
48.84
50.1
50.6
52.4
52.8
52.83
53.75
53.85
54.51
55.18
56.19
58
62.65
47.63
47.73
48.38
48.62
50.97
51.54
51.86
53.46
54.32
55.68
56.18
56.24
58.26
58.79
59.29
59.38
44.47
47.69
48.09
49.09
50.98
51.42
51.86
51.91
52.21
52.29
55.07
57.83
57.84
58.23
62.57
68.44
46.75
48.03
48.8
50.71
51.15
52.62
52.95
53.22
54.04
54.23
55.82
56.55
57.05
57.49
61.09
66.05
44.59
45.12
45.34
50.17
52.24
53.14
53.31
54.17
54.21
55.72
58.38
59.17
59.3
59.32
60.19
63.39
48
48.83
49.98
50.91
51.49
51.83
52.46
52.78
54.14
56.76
56.79
58.52
58.64
60.89
62
62.61
46.27
49.02
49.63
50.02
51.81
52.08
52.77
54.6
54.91
55.07
55.54
56.43
59.16
63.12
64.12
65.58
47.64
50.67
50.95
51.34
52.04
52.48
53.65
54.71
56.26
57.61
58.25
59.91
60.94
61.52
62.51
69.78
43.49
49.18
51.48
52.89
53.07
55.2
56.22
56.23
56.48
56.74
58.96
58.96
59.56
63.77
64.3
66.34
43.72
48.6
49.6
51.73
51.98
55.18
57.11
57.26
57.8
59.06
59.43
59.81
63.56
63.9
65.31
66.67
52.21
52.53
53.88
54.42
55.24
55.3
55.8
56.37
57.23
57.71
57.95
58.5
58.87
60.6
60.89
68.83
51.76
52.17
52.63
53.16
54.33
54.34
54.7
55.6
56.83
57.25
57.32
59.31
63.67
64.92
67.11
78.4
48.59
53.56
53.84
54.08
55.36
56.39
56.59
57.07
57.73
58.01
58.26
60.42
61.29
63.93
69.43
70.76
49.07
50.08
50.74
54.41
56.1
57.7
58.97
59.2
59.56
60.42
60.58
62.27
62.45
62.77
63.92
67.41
50.89
53.03
54.24
54.26
55.48
56.01
56.37
57.32
59.11
59.18
60.51
62.92
64.14
64.19
65.07
67.26
47.16
49.77
52.07
53.09
53.59
55.75
58.74
58.75
58.78
60.35
61.49
63.64
65.57
66.98
69.71
71.76
51.38
52.3
52.4
53.87
55.81
56.31
56.38
56.63
60.53
62.77
63.22
63.26
63.53
65.5
67.97
72.4
54.51
54.6
56.21
56.34
56.51
57.66
57.75
59.74
59.8
60.79
61.57
62.38
65.06
65.44
67.47
68.3
49.03
54.62
56.97
57.41
58.07
58.36
59.81
60.32
60.71
61.95
62.96
63.4
64.53
65.58
65.75
69.44
51.92
54.01
56.04
57.3
58.11
58.57
59.29
59.68
59.72
60.54
61.29
62.14
65.52
66.72
67.37
71.2
51.59
52.22
52.82
53.61
55.88
56.41
58.51
61
62.15
63.94
64.27
64.65
65.9
66.98
69.56
70.85
51.05
54.05
55.17
56.76
59.7
59.78
60.16
60.22
60.56
61.22
62.12
62.64
64.44
64.89
68.79
69.51
55.4
55.96
56.79
57.82
60.27
60.56
60.64
60.7
61.27
62.98
63.3
63.75
64.45
65.64
65.99
67.38
51.26
54.4
54.92
56.76
58.39
59.64
60.15
62.54
62.97
62.98
63.95
64.35
64.56
66.34
66.6
74.03
51.28
52.56
52.68
55.29
57.73
57.75
60.33
61.62
61.95
62.87
63.66
65.36
67.5
69
70.42
74.16
47.99
53.89
54.59
56.65
57.43
57.44
60.55
62.73
63.49
64.62
64.71
64.85
66.57
67.51
71.65
72.05
53.93
56.12
56.66
56.8
56.94
58.41
59.36
60.03
61.84
62.43
62.71
63.96
65.33
67.87
68.93
75.55
53.2
54.6
56.28
57.59
57.82
60.45
60.54
60.82
60.85
63.05
64.71
65.41
68.76
69.73
71
73.81
44.25
52.88
55.12
56.4
56.41
57.49
60.81
61.15
64.42
65.85
66.69
67.7
67.82
69.49
75.86
76.84
48.26
53.73
55.98
56.67
58.98
59.26
60.98
62.58
63.01
65.07
65.78
65.95
66.82
71.3
72.27
74.08
48.8
52.06
56.04
56.92
57.89
60.77
60.89
61.11
62.96
65.21
65.81
66.32
68.37
71.88
73.77
82.79
47.63
55.45
56.48
57.65
62.39
62.86
64.72
65.08
66.09
66.11
66.21
66.89
67.02
67.26
69.08
72.24
54.06
56.24
56.59
58.41
58.82
59.58
61.45
62.72
64.96
65
66.22
67.02
68.03
68.92
71.36
76.14
54.43
55.76
57.95
58.13
59.83
60.18
60.92
61.46
62.14
64.8
66.28
66.44
69.44
71.18
73.78
75.54
55.1
57.08
59.34
60.92
61
61.67
63.02
63.38
63.5
64.74
66.68
67.73
67.92
68.77
69.3
69.85
52.05
58.45
58.61
58.64
60.46
61.24
61.41
61.68
63.19
64.26
65.22
65.57
66.15
72.63
72.66
78.47
56.47
56.56
57.98
58.12
58.23
59.65
60.38
61.97
62.71
64.57
66.35
67.51
68.43
70.34
77.55
79.83
57.78
58.89
59.21
59.85
59.89
62.64
62.9
63.41
63.64
64.33
65.49
67.26
72.07
72.12
73.65
75.95
49.26
55.59
58.04
60.72
61.1
61.41
62.92
63.36
67.89
69.61
69.69
69.84
70.95
72.01
73.36
77.16
51.68
59.64
59.9
61.7
63.31
65.41
65.61
65.64
66.4
67.04
67.54
68.09
68.28
69.13
73.44
75.37
56.09
57.5
57.86
59.8
60.34
61
62.07
62.82
64.05
64.38
69.03
72.48
72.93
74.12
74.74
81.08
54.1
56.48
61
61.14
62.82
64.04
64.68
65.36
66.41
69.86
70.65
71.39
72.16
72.27
73.61
75.66
57.71
58.12
60.64
61.17
62.17
62.24
64.83
65.07
66.33
67.14
69.36
70.98
72.37
73.08
73.74
76.78
55.12
57.64
60.35
60.89
61.1
63.19
66.68
66.81
67.74
68.74
68.86
69.17
71.25
74.19
75.53
76.57
62.62
62.65
64.29
64.58
65.16
65.63
65.66
65.82
66.9
67.18
67.2
68.13
69.49
69.98
71.19
74.21
56.69
57.5
57.56
59.47
62.49
62.66
63.26
65.92
67.54
71.03
71.19
73.29
73.6
75.88
76.21
76.58
58.06
59.18
59.57
60.05
63.72
64.18
64.42
65.63
68.64
69.15
69.35
70.17
70.46
73.23
75.56
81.67
56.14
58.52
58.72
59.6
60.18
64.39
64.96
65.29
67.78
68.48
70.35
70.36
71.68
76.68
77.6
82.66
57.33
60.4
62.19
62.38
64.62
64.83
65.33
65.79
66.64
67.8
68.25
68.43
74.14
75.4
75.84
76.17
51.8
58.56
61.75
62.23
62.83
65.2
66.37
67.86
69.3
69.37
70.56
72.03
72.09
74.06
74.12
79.55
57.57
57.95
57.99
60.54
61.78
61.88
64.81
66.43
68.65
69.1
70.52
72.61
74.9
76.75
78.5
81.2
52.99
59
60.5
61.97
64.84
67.05
67.31
68.13
69.26
69.33
70.43
72.01
72.15
73.5
74.7
78.3
58.7
59.77
61.8
63.66
63.88
65.9
65.91
66.85
67.91
68.04
69.71
70.45
70.66
72.49
74.88
82.1
57.62
60.1
61.81
64.99
65.28
66.26
66.99
67.36
67.66
69.83
70.3
70.9
71.56
73.43
73.83
77.58
59.83
61.98
62.31
62.8
63.81
63.94
65.93
68.65
68.87
69.05
71.22
71.24
72.61
72.75
73.38
78.21
59
59.47
59.95
61.88
63.35
65.06
65.06
67.12
67.84
69.11
70.13
70.66
72.91
75.7
79.83
81.5
57.31
57.46
58.28
63.91
63.99
65.48
67.88
68.65
69.05
69.12
69.64
71.01
75.82
76.41
76.52
78.91
57.3
60.09
64.37
65.68
67.38
68.45
68.85
69.61
69.81
70.06
70.21
71.75
72.1
72.49
72.49
73.38
58.89
59.72
61.77
64.06
65.09
65.9
66.13
68.37
69.55
70.12
71.47
72.91
72.92
73.29
74.46
83.83
55.39
60.31
61.37
63.35
63.96
67.14
68.3
68.43
68.53
69.67
73.67
74.89
75.96
76.14
77.61
81.89
56.66
58.02
61.12
64.49
65.84
66.09
66.21
68.09
68.32
69.57
71.39
72.75
74.8
76.59
81.66
86.03
60.43
64.8
65.68
66.46
67.12
67.86
67.92
68.29
68.97
69.62
69.91
71.02
74.03
74.58
74.71
79.07
58.02
63.22
64.06
64.23
64.47
66.14
66.15
66.19
70.47
71.57
71.97
74.34
74.79
77.48
79.09
79.67
57.72
62.36
62.62
63.64
63.91
64.93
68.47
68.96
69.02
72.42
73.66
73.97
75.67
78.02
79.52
80.13
58.37
61.89
64.73
64.99
65.33
66.94
67.17
69.03
70.86
71.11
71.61
72.28
73.64
76.42
84
87.81
59.44
59.87
63.77
64.33
68.63
69.71
69.71
69.74
71.54
72.67
72.91
73.24
73.29
74.76
77.39
87.73
62.02
63.04
63.13
63.89
65.71
68.54
68.95
69.4
70.82
71.16
72.52
73.9
74.22
75.9
81.37
87.06
57.9
63.27
63.32
66.32
67.39
67.87
68.6
69.19
71.07
71.42
72.01
72.97
73.74
78.32
82.51
89.69
60.4
62.34
62.68
64.18
65.47
69.18
69.77
70.25
72.1
73.06
74.55
74.7
76.01
80.05
80.73
81.83
56.94
57.77
61.69
65.59
69.86
69.94
70.31
70.41
70.48
74.07
74.75
78.64
80.7
81.55
82.83
85
63.67
63.93
64.62
64.67
68.26
69.05
69.23
71.2
71.77
73.39
73.88
76.49
77.73
78.44
83.85
84.27
63.27
64.69
64.77
66.71
68.44
69.07
71.03
72.62
72.68
74.29
75.12
75.47
76.8
77.22
81.27
84.08
59.37
63.28
63.63
65.44
66.01
67.07
70.44
70.93
73.59
74.83
76.82
77.45
80.03
81.66
82.91
90.79
62.51
63.44
65.44
67.09
67.15
67.75
69.58
70.43
70.82
71.43
73.16
75.48
82.81
85.55
87.14
87.51
63.33
64.2
65.33
66.2
66.68
71.75
72.04
73.11
74.27
75.34
75.4
76.15
76.79
81.94
82.38
85.25
60.7
63.9
64.5
68.26
68.8
69.18
71.05
71.85
74.05
74.43
75.03
76.04
80.69
81.81
82.2
89.79
66.61
66.63
69.41
69.48
69.84
70.68
70.74
70.88
71.66
72.36
73.13
74.09
78.35
81.84
83.39
83.8
64.8
66.79
67.34
70.27
70.73
72.58
73.67
73.84
74.15
74.18
74.49
75.85
76.19
77.42
77.52
83.98
58.25
65.3
67.93
68.11
69.98
70.6
71.64
71.88
72.28
72.53
75.47
75.6
79.52
80.53
84.38
93.3
65.08
66.24
66.32
66.42
68.15
69.72
69.9
72.67
73.94
75
75.14
77.01
80.99
83.05
84.28
86.12
66.32
67.21
67.74
68.43
69.03
71.19
73.22
74.04
74.77
74.85
76.18
78.47
78.72
79.17
81.54
82.95
57.39
65.55
66.66
66.86
70.95
71.97
74.08
74.58
74.76
75.11
77.97
78.51
80.39
82.35
82.59
84.5
58.9
65.64
68.63
69.14
69.41
69.82
69.86
73.18
73.91
74.31
77.55
81.01
82.28
83.19
83.84
87.88
55.31
65.05
67.38
68.87
68.9
69.99
70.94
71.54
71.88
77.8
79.86
80.2
80.3
87.36
90.35
91.13
58.5
62.46
66.04
68.46
69.78
69.86
70.34
73.81
74.78
77.9
81.07
82.74
83.12
84.17
84.4
89.51
64.71
68.49
70.2
71.56
71.74
72.02
72.44
72.61
72.66
73.39
76.35
77.55
79.11
81.15
86.02
91.35
65.62
66.97
68.43
69.71
69.75
72.21
72.96
73.32
74.53
76.85
77.64
78.42
80.74
81.51
85.06
88.69
62.74
62.88
64.85
66.06
70.65
71.91
74.74
74.88
77.25
78.28
80.83
82.15
82.41
83.99
84.13
86.81
63.26
64.69
67.89
68.51
69.88
70.31
71.48
72.96
73.12
79.21
80.13
82.14
82.26
85.18
87.88
89.76
63.28
67.78
69.39
70.86
71.56
72.74
73.33
74.05
74.7
76.66
79.97
81.11
82.43
83.5
83.55
83.93
60.22
64.83
67.43
68.97
70.79
71.98
72.04
76.8
78.39
78.91
79.12
81.61
82.35
82.87
86.83
86.9
62.76
66.27
66.7
68.31
70.88
72.09
73.03
74.65
74.99
75.84
79.23
81.56
84.74
85.34
85.96
92.81
63.4
68.33
70.5
72.87
73.76
74.24
74.47
76.18
76.19
76.79
76.86
77.43
80.27
80.71
83.8
92.11
61.04
68.29
69.61
70.27
71.7
73.4
73.72
74.48
76.9
77.44
78.72
78.95
81.33
84.14
85.03
95.2
63.69
65.14
66.4
66.57
68.97
71.07
72.56
77.26
78.89
80.94
81.14
82.52
83.91
84.35
84.76
92.65
65.86
69.58
69.78
71.44
73.07
73.27
74.13
74.44
75.19
78.39
78.93
81.49
81.57
81.86
85.04
87.41
59.51
69.56
72.84
73.29
73.52
74.78
75.55
75.75
76
77.9
80.03
80.67
81.29
82.73
83.96
88.57
65.37
67.54
67.68
73.06
75.57
76.24
76.87
78.37
78.63
79.37
80.17
80.24
80.66
80.89
82.14
83.52
57.97
65.89
68.03
69.69
73.06
73.14
74.8
75.53
80.82
81.03
81.52
82.66
83.55
84.45
87.88
89.44
66.98
67.36
69.74
70.45
73.41
73.55
73.74
74.8
78.07
78.59
81.16
82.83
83.85
84.92
86.37
86.57
63.4
68.28
68.76
68.94
69.07
69.93
71.42
74.13
76.2
77.91
79.13
82.24
83.66
90.37
94.96
95.82
66.51
66.89
68.5
70.39
73.01
76.03
76.84
77.48
78.3
78.53
78.96
80.25
82.65
84.98
85.49
90.64
64.98
66.85
68.42
72.41
75.5
76.86
77.09
77.97
78.36
78.47
78.75
79.4
81.54
82.15
85.98
98.87
68.17
68.19
69.38
70.61
72.06
72.59
76.42
76.53
79.18
79.22
80.12
84.18
84.44
86.88
87.2
91.79
58.32
68.6
72.64
72.86
75.14
75.75
79.01
79.25
79.86
80.35
80.87
82.21
83.35
84.83
89.65
90.22
65.07
65.38
66.09
68.33
72.97
74.84
75.27
77.54
77.73
81.09
81.48
84.16
89.22
89.34
91.89
92.53
63.54
71.86
72.46
73.5
73.86
75.03
78.97
79.47
80.08
82.21
82.25
82.81
83.88
83.92
84.64
96.8
68.76
68.98
70.22
72.04
73.75
75.26
78.12
78.54
78.63
79.65
82.24
82.43
86.29
88.06
89.08
94.77
66.18
67.06
68.39
68.51
69.04
72.03
77.18
78.65
82.34
83.35
84
86.92
89.13
89.57
93.15
93.33
64.4
68.37
70.29
73.9
74.13
75.02
77.16
77.9
78.53
79.06
82.32
84.68
85.45
92.13
92.57
97.19
65.8
68.38
69.57
73.52
74.11
79.53
79.56
79.9
80.16
80.69
81.71
81.73
83.35
87.86
90.22
101.81
66.74
71.29
71.54
71.69
77.77
78.7
79.44
80.11
81.95
83.53
83.64
84.65
85.12
87.62
88.71
90.49
69.01
69.15
73.14
73.49
75.6
77.2
79.37
79.98
80.54
81.38
81.55
82.57
85.34
86.73
93.33
95.4
63.44
70.24
72.38
72.78
76.02
78.33
79.67
80.81
81.02
82.5
84.59
87.4
88.86
89.61
89.72
89.75
63.73
68.14
72.55
76.36
76.43
77.03
77.07
77.73
77.94
80.83
85.17
87.58
89.43
89.86
95.09
96.14
69.44
71.99
72.27
73.14
73.94
76.74
78.4
79.52
84.19
84.3
85.81
86.55
87.81
87.9
89.96
91.33
72.79
73.96
73.99
75.89
78.27
80.14
80.76
81.23
81.5
82.03
82.86
82.87
83.46
83.66
84.77
97.82
68.07
71.93
72.27
72.78
73.8
77.48
78.34
78.85
80.65
83.41
83.85
88.69
90.31
90.95
93.63
93.86
68.55
70.92
73.75
76.25
77.74
77.83
78.43
81.09
83.34
85
85.61
85.66
87.16
88.88
91.86
96.24
67.28
69.92
72.89
74.91
77.77
78.39
79.77
80.79
80.88
84.19
86.86
87.04
87.89
89.57
93.37
106.42
59.04
65.17
75.26
77.28
77.41
79.15
82.78
82.84
83.78
84.23
87.29
87.47
90.38
92.27
95.83
101.12
73.57
74.45
78.36
79.53
80.61
80.79
81.11
81.34
82.19
82.23
82.82
84.25
86.38
89.49
90.4
94.25
71.97
72.1
72.65
74.78
80
81.38
82.85
83.54
83.57
84.94
86.21
86.5
88.23
88.28
92.18
93.02
72.49
73.19
75.99
76.27
80.14
80.36
80.57
80.92
82.32
82.67
82.95
83.78
89.92
94.35
94.59
101.95
66.03
72.95
77.09
79.36
79.91
81.7
81.81
81.88
82.18
84.47
84.77
88.7
91.67
92.9
93.93
95.15
70.12
70.32
70.74
76.51
77.11
81.81
83.44
84.99
86.11
86.32
88.13
89.63
90.03
91.02
93.86
96.47
68.44
75.45
75.71
75.88
78.63
83.93
85.22
86.73
87.02
87.5
87.54
87.6
88.5
88.68
90.89
91.45
71.99
74.07
75.95
76.86
78.72
79.72
81.32
82.1
83.38
85.05
89.3
90.11
90.23
91.9
92.67
97.89
71.05
74.25
74.35
78.51
78.86
80.02
81.14
81.21
83.8
85.05
86.05
86.2
91.41
95.36
97.87
98.58
70.49
72.12
74.92
76.77
77.31
77.4
79.8
80.64
82.15
88.36
88.7
88.78
94.78
95.36
95.4
107.21
72.59
75.46
76.48
77.77
78.61
79.42
80.93
82.8
87.98
89.53
90.04
90.82
91.42
92.02
93.95
104.93
70.18
70.25
77.03
78.61
79.43
80.99
84.11
84.33
88.57
88.82
89.16
91.57
91.67
94.24
95.49
101.35
75.18
78.66
79.29
79.35
80
80.69
86.53
86.66
87.49
89.48
89.82
90.65
91.99
92.44
92.66
94.42
72.68
77.15
78.42
78.94
80.92
81.15
81.4
81.56
83.6
83.78
90.37
90.9
92.35
93.18
103.92
105.32
68.76
73.47
74.39
78.25
81.06
82.08
85.38
85.55
87.7
87.96
91.53
94.37
94.94
95.73
95.88
98.68
66.28
75.45
76.9
77.01
78.74
82.94
83.71
84.77
89.19
90.53
90.62
93.95
94.31
95.04
95.45
101.49
75.73
75.78
76.99
77.5
82.97
85
86.7
88.23
88.79
89.39
89.97
90.83
91.04
92.21
93.85
94.81
70.54
74.2
76.75
78.39
83.72
84.67
85.96
86.18
87.09
88.62
89.71
90
90.53
90.84
96.56
106.35
73.21
73.94
78.59
80.26
82.67
82.83
83.77
85.31
87.07
87.65
90.42
93.11
94.97
95.11
95.67
97.78
71.94
75.92
79.12
80.25
81
82.52
84.67
86.42
88.89
89.6
90.5
91.04
91.64
97.57
97.59
98.61
71.91
73.77
78.62
79.29
81.62
84.46
85.4
87.21
88.26
88.31
90.29
90.97
91.17
93.81
96.94
105.97
70.09
77.49
81.34
81.36
81.43
84.92
84.96
85.22
85.34
86.25
87.63
92.3
92.77
94.22
95.73
109.26
73.21
73.83
75.03
80.52
83.62
84.15
84.18
85.82
88.03
88.13
91.01
94.76
94.98
95.12
99.47
101.9
69.8
74.7
75.61
75.71
77.31
82.15
84.44
87.51
88.4
88.86
90.89
94.61
97.55
101.85
102.02
103.18
74.96
76.57
79.11
80.65
85.16
85.84
86.52
87.64
88.49
88.56
89.47
93.47
94.24
94.35
95.21
99.03
76.23
79.66
80.06
82.76
83.43
84.57
87.34
87.57
88.6
89.03
90.71
91.41
91.73
93.69
97.17
98.81
70.02
74.44
78.72
79.65
80.01
81.61
82.13
82.8
86.45
88.01
95.98
96.61
99.29
100.41
101.8
105.21
73.8
76.85
78.94
79.3
79.33
83.43
84.63
88.01
88.32
88.43
88.81
92.38
99.03
100.19
102.89
108.32
70.28
73.66
74.19
76.43
81.64
81.69
88.91
91.99
93.83
93.91
94.2
95.34
96.51
99.72
102.15
102.31
75.59
76.63
81.89
85.38
86.16
86.83
87.87
89.27
89.46
90.56
90.73
92.15
92.21
96.72
99.34
99.65
78.4
80.34
80.54
82.88
83.46
83.61
85.4
86.61
89.41
90.65
91.49
94.49
95.57
97.04
98.2
103.72
69.91
75.19
79.8
80.55
81.53
85.94
87.24
87.41
87.47
92.93
95.1
97.04
97.52
97.88
103.36
107.01
77.69
79.87
80.7
82.06
83.29
87.73
88.21
88.88
89.68
92.03
92.64
92.99
94.46
94.91
102.51
106.62
74.94
76.6
84.12
84.29
86.02
87.66
89.2
90.27
90.28
91.03
92.03
94.76
97.63
98.32
98.72
99.03
81.87
83.79
84.57
84.67
84.92
87.55
87.62
88.02
88.22
89.63
90.5
93.33
93.42
93.59
103.45
105.48
73.18
80.7
81.73
82.46
83.72
83.93
85.81
88.27
89.55
90.48
92.34
95.33
97.79
99.68
99.7
117.04
75
75.76
81.72
81.81
86.54
87.36
88.43
90.42
91.24
91.36
92.14
96.36
96.77
98.45
102.33
108.7
78.08
79.88
80.2
81.05
82.17
83.98
86.25
92.71
92.98
94.33
96.32
96.43
97.94
98.37
104.79
106.06
74.06
77.69
80.8
83
85.18
88.9
89.83
90.31
90.61
91.4
92.97
96.75
99.58
100.91
101.46
109.88
74.16
76.88
77.25
77.86
86.46
88.49
91.52
91.94
93.44
95.19
96.79
98.39
98.64
100.24
103.95
107
69.5
77.73
79.89
83.82
84.07
84.7
86.3
89.35
90.96
93.94
94.38
95.68
97.24
100.43
109.56
122.1
73.69
80.36
83.81
87.19
87.27
89.17
90.34
91.15
91.5
91.8
92.98
96.6
97.13
98.96
103.28
106.64
77.39
78.79
80.84
83.56
87.01
87.39
88.35
89.2
90.57
94.86
96.1
97.74
99.28
103.53
103.91
109.11
80.67
82.78
86.24
87.03
88.16
90.02
91.63
91.66
91.97
93.92
94.4
95.11
95.9
99.48
99.52
100.08
76.53
78.32
81.1
83.79
87.42
89.06
89.12
91.66
93.66
93.74
94.32
96.43
97.56
101.42
106.4
109.35
84.07
84.86
86.72
86.82
86.97
86.98
89.19
90.17
90.34
91.62
92.96
93.15
94.53
97.18
99.76
114.79
74.93
79.44
80.33
82.56
82.96
84.92
86.29
88.97
89.09
93.59
97.8
99.62
100.24
102.62
107.49
121.45
77.6
81.94
82.4
84.06
88.43
90.76
91.95
92.24
92.75
92.97
94.59
96.22
98.83
99.98
102.12
107.18
71.27
79.7
82.1
83.64
85.52
86.83
86.92
87.87
91.28
93.3
94.38
95.64
106.37
109.3
112.21
113.22
66.9
77.41
77.5
80.81
85.16
88.79
89.07
90.57
95.77
97.91
99.3
101.26
103.07
106.52
107.58
112.12
73.32
80.49
80.71
80.93
82.27
92.07
93.01
93.32
95.32
98.78
100.22
100.37
100.56
104.27
105.79
109.11
71.5
83.87
86.14
87.92
89.1
91.45
93.15
93.46
93.57
95.41
96.83
96.96
99.99
100.87
105.67
106.5
77.75
79.57
80.29
85.39
92.74
93.13
93.32
94.19
96.65
98.09
98.14
98.89
99.84
100.46
101.01
106.18
79.57
85.45
87.71
88.05
88.69
88.79
89.09
90.35
90.66
94.64
95.18
95.66
101.16
106.15
106.98
109.59
80.08
87.14
88.55
89.38
90.92
91.7
92.24
93.17
94.71
95.44
96.2
96.34
97.41
98.26
99.56
115.36
78.05
80.98
85.52
86.24
89.33
89.45
90.14
93.42
93.87
95.55
95.72
96.68
102.82
105.25
112.98
113.74
80.23
82.98
84.82
86.49
90.68
91.86
93.58
93.68
94.51
95.51
96.08
96.2
98.55
103.2
110.43
119.01
77.83
78.43
82.81
84.47
84.52
87.4
88.76
94.22
98.71
101.62
101.62
103.04
104.2
105.47
114.96
115.04
68.07
73.57
85.51
88.82
88.96
94.4
97.57
99.12
99.9
101.75
105.05
105.11
105.66
107.37
108.67
111.71
81.79
81.93
88.55
88.94
89.72
90.25
95.98
96.24
96.58
98.2
98.92
100.18
101.18
102.5
110.46
119.92
77.73
85.87
87.9
92.36
95.6
95.94
96.28
96.31
98.09
99.83
100.25
100.76
100.96
107.76
112.44
113.64
83.79
87.62
88.21
88.39
90.94
93.02
94.2
94.98
95.31
96.45
101.69
103.8
104.16
106.29
118.56
121.94
79.78
89.31
90.36
92.63
93.57
94.84
97.1
99.93
100.69
100.79
101.24
103.42
105.21
105.23
108.57
113.05
83.81
84.22
89.97
90.88
94.48
96.23
97.41
97.44
97.8
100.76
100.8
101.5
105.94
106.13
108.33
121.77
85.27
87.21
87.37
92.52
93.89
94.53
96.74
97.69
98.4
100.78
101.45
102.52
104.05
105.78
109.54
125.21
77.07
80.83
86.46
91.5
92.87
93.89
95.04
99.21
101.44
105.31
107.55
107.58
115.16
117.22
118.07
119.28
79.34
89.56
93.08
93.8
95.59
95.88
99.63
101.65
102.18
102.58
103.34
106.3
107.15
108.39
109.57
120.54
82.6
90.76
93.82
96.35
96.65
99.48
99.83
100.09
101.97
103.17
103.46
104.34
104.69
110.43
110.56
113.36
80.39
89.07
90.06
93.54
94.63
95.05
97.02
98.03
100.19
101.08
106.44
107.03
110.66
111.74
115.49
129.35
86.79
91.1
91.17
97.13
97.5
97.64
99.18
100.73
103.07
103.67
104.09
105.42
105.55
106
113.78
119.07
87.19
90.73
91.48
96.35
97.98
98.67
100.38
100.92
101.18
102.49
104.13
107.58
109.26
111.43
111.51
112.71
80.86
89.16
91.31
96.32
97.84
97.87
98.32
98.54
98.58
100.91
102.66
111.33
113.16
113.71
114.73
118.88
87.11
91.53
92.02
94.05
94.38
95.41
97.6
98.5
100.35
102.4
103.12
111.07
111.55
111.98
118.17
131.52
88.76
91.12
92.23
96.98
97.76
99.93
101.7
101.93
103.24
106.87
108.39
110.1
112.2
112.23
112.61
113.87
83.28
92.66
95.76
96.63
98.05
98.17
99.11
99.47
100.94
101.19
105.41
106.46
112.99
115.66
121.79
123.84
87.88
89.3
95.34
97.3
98.97
100.14
103.06
105.32
105.52
106.61
108.13
108.49
109.02
109.06
110.42
117.72
90.25
90.64
92.51
97.16
97.18
99.15
99.53
102.8
103.19
103.22
103.87
106.74
113.03
114.91
117.9
123.28
94.14
96.11
97.55
98.82
101.17
101.57
102.67
102.76
104.54
104.7
105.62
106.32
106.58
109.44
111.43
118.72
93.93
94.72
96.36
97.6
99.06
99.46
101.74
103.59
104.85
105.05
105.77
106.18
107.22
112.54
115.62
121.77
86.86
93
94.95
96.26
96.83
98.42
99.33
103.99
106.5
107.22
109.11
109.44
114.35
115.55
116.45
123.55
89.09
92.35
92.93
94.18
95.25
98.38
99.24
104.38
105.86
108.39
110.52
111.58
113.45
116.38
118.36
127.64
79.59
90.28
94.74
96.19
99.67
102.99
103.45
103.55
104.64
104.73
106.78
112.36
114.66
116.04
123.24
125.62
82.13
91.52
99.42
99.9
100.3
103.86
104.93
105.32
106.2
106.55
112.29
114.44
115.26
115.98
116.17
117.92
93.29
99.22
99.35
101.25
101.26
101.96
102.67
102.79
106.22
106.48
107.45
107.49
107.68
108
115.29
135.07
95.7
97.7
99.72
99.87
100.41
100.96
101.67
103.36
105.16
105.81
108.2
111.83
112.9
113.25
118.65
123.44
85.54
89.38
93.39
95.1
100.3
101.67
102.87
108.04
109.55
111.19
111.27
112.97
115.73
118.42
119.3
127.32
86.17
93.82
99.52
100.58
101.9
103.39
105.04
105.07
106.4
106.53
107.23
110.49
112.63
113.68
113.97
137.32
91.25
92.2
94.97
97.28
99.44
101.37
102.52
106.41
106.42
106.57
112.17
115.63
115.99
120.24
122.4
134.38
88.03
90.73
98.84
100.08
101.54
102.1
102.58
107.92
109.3
109.55
110.48
111.62
118.54
122.3
122.36
130.85
93.84
95.34
95.7
97.78
101.19
104.05
106.17
106.49
111.58
112.05
113.02
113.51
116.54
118.02
119.7
123.17
91.93
92.75
103.19
103.33
104.09
105.1
105.58
106.16
107.63
107.68
112.17
115.53
116.57
118.09
118.96
120.6
84.63
95.3
96.17
99.72
101.12
102.13
104.97
107.09
107.1
107.57
111.77
112.36
116.88
117.94
131.63
133.86
97.86
98.86
99.29
100.24
103.91
104.39
104.72
106.02
110.06
110.74
111.82
112.17
114.79
115.92
120.59
122.56
97.07
100.32
100.55
101.24
101.32
102.2
105.12
106.54
106.93
107.41
111.66
112.29
114.94
120.82
120.87
124.73
90.42
91.34
98.99
99.51
101.73
101.83
102.33
107.38
108.8
112.17
112.41
115.54
119.77
121.26
123.9
127.41
89.78
96.54
103.33
105.43
106.76
107.98
109.74
110.1
110.56
110.6
111.16
112.44
114.45
114.71
116.61
118.13
91.4
95.28
98.58
100.82
105.07
105.85
106.17
106.7
108.64
109.47
115.2
116.57
118.57
119.25
121.14
122.63
96.46
97.74
100.57
101.06
104.01
104.3
107.02
109.23
109.8
110.44
111.7
114.86
120.01
120.3
123.18
125.39
90.56
95.17
99.33
100.68
106.03
106.39
107
111.2
111.89
112.35
115.71
118.44
118.77
120.44
123.1
125.47
93.6
96.87
97.86
102.57
103.56
105.45
105.47
109.25
109.41
113.75
116.05
116.12
117.34
117.44
125.65
133.6
97.85
98.03
98.43
102.83
104.47
105.93
107.17
108.08
111.47
113.01
113.4
117.52
117.77
119.93
122.36
127.07
100.5
102.66
102.9
104.24
105.42
107.8
109.35
110.87
110.89
111.4
112.62
112.68
117.94
118.67
119.07
119.59
91.77
97.03
101.56
101.59
104.17
107.31
108.64
111.83
112.32
114.59
116.05
116.18
116.39
117.62
120.44
129.13
96.74
101.98
105.75
108.05
108.31
109.62
110.32
111.17
112.24
113.47
115.11
116.46
117.12
118.26
119.06
123.11
102.17
102.63
102.68
104.04
104.28
105.23
106.21
109.73
113.3
114.59
116.11
117.79
120.27
123.17
123.79
124.53
90.95
102.33
102.59
104.33
104.39
106.03
107.99
108.78
112.69
114.34
117.06
121.13
122.05
125.81
126.54
127.05
93.98
102.47
102.61
105.05
107.43
107.89
108.24
110.45
112.14
112.82
113.69
116
118.16
123.53
131.36
131.78
86.99
99.77
103.46
104.1
104.36
104.68
108.52
109.33
110.69
113.92
116.28
117.62
120.84
129.84
131.1
137.86
96.61
99.23
101.98
103.83
107.93
108.97
111.91
112.22
112.92
115.15
116.41
116.95
121.62
125.2
125.93
131.8
100.29
101.06
106.91
110.24
110.33
110.33
111.06
111.49
112.66
113.85
114.19
116
117.91
118.2
124.59
132.98
87.26
96.22
106.58
108.49
109.5
110.76
111.99
113.66
114.07
117.76
122.44
122.69
123.77
124.36
124.72
125.99
95.54
98.92
107.69
107.81
108.47
110.26
110.27
112.04
113.15
113.31
113.59
115.67
117.03
122.17
130.26
145.03
94.43
98.42
101.68
106.48
109.12
109.76
111.24
111.93
112.67
113.11
116.01
120.52
123.15
128.47
130.56
134.23
93.55
105.68
106.04
106.79
112.4
114.44
114.87
115.39
115.47
116.73
118.3
119.83
121.15
121.26
123.29
126.14
96.56
98.41
100.42
105.42
109.32
111.48
111.58
113.23
118.19
120.5
121.81
123.12
123.39
124.61
126.13
128.49
97.85
101.73
105.59
105.76
106.42
107.93
108.27
109.48
112.32
115.21
115.21
125.89
127.42
128.91
137.1
141.57
95.85
103.96
104.02
106.34
106.83
108.27
108.59
112.48
116.6
119.35
121.3
122.67
124.68
131.64
132.42
134.51
88.4
103.49
106.21
107.11
109.47
110.31
114.34
115.81
117.27
117.36
117.5
123.28
124.7
127.05
132.35
135.34
104.71
106.17
106.85
107.34
109.43
111.82
113.75
115.39
116.24
116.89
119.75
120.05
123.49
126.83
134.68
136.25
91.55
98.8
106.61
108.66
109.1
110.29
118.39
119.76
120.58
121.36
121.61
122.59
126.17
127.31
133.51
139.68
99.2
101.07
107.06
111.43
112.32
112.54
113.63
114.05
118.22
119.99
122.51
124.12
124.86
127.15
131.59
137.72
95.05
102.64
108.68
109.23
110.49
115.43
116.58
117.54
119.31
119.83
119.89
125.08
126.06
129.67
129.83
144.6
102.82
105.22
107.85
107.96
110.76
113.41
116.67
117.59
119.3
122.07
122.39
123.37
127.65
129.42
130.9
132.97
87.96
108.47
110.16
110.34
114.71
116.83
117.44
118.05
120.78
121.47
122.56
123.22
123.87
128.63
130.97
134.94
100.36
100.45
102.54
102.64
108.48
110.7
112.48
117.63
117.96
121.46
122.01
123.41
126.94
127.12
149.72
151.61
96.16
99.85
100.31
111.29
112.66
113.33
114.22
116.42
118.5
122.47
127.96
128.69
129.05
133.32
133.55
139.27
92.35
103.25
112.67
112.99
113.03
114.15
114.48
115.39
117.11
119.77
121.14
124.93
130.84
131.19
131.87
141.96
98.57
99.3
107
111.36
113.87
114.19
115.34
117.44
118.02
120.2
121.71
121.99
125.28
125.38
140.38
150.57
99.14
103.74
108.3
109.73
110.24
110.85
112.67
117.9
121.31
123.27
126.17
126.89
132.4
132.91
133.9
140.39
102.02
104.37
108.77
113.01
113.85
114.31
115.81
117.12
118.14
120.24
120.81
120.9
122.16
140.28
140.5
142.37
107.27
109.11
111.94
113.76
115.77
116.03
117.36
118.77
118.95
119.43
121.16
121.87
127.1
128.07
134.87
135.85
100.69
101.52
105.53
107.21
111.26
113.02
116.78
120.78
121.93
122.92
124.03
124.47
126.23
127.82
140.15
155.13
97.15
102.79
109.06
110.03
112.7
115.2
120.17
120.24
121.72
124.73
125
127.21
130.65
135.91
137.25
143.88
99.94
100.2
107.89
114.6
114.69
115.01
120.19
120.27
120.51
124.49
124.55
130
131.03
134.25
137.27
144.66
101.33
106.11
106.42
108.89
111.4
113.83
115.89
116.62
125.51
130.98
131.01
131.85
133.19
137.02
137.33
139.03
97.73
113.06
113.18
113.3
113.99
117.16
118.91
119.73
121.11
123.67
124.85
127.72
130.26
133.28
140.48
142.07
97.79
107.69
108.72
114.51
115.88
116.06
116.39
120.57
121.05
123.25
124.09
125.19
133.48
133.69
142.5
152.88
102.16
104.52
105.62
105.89
108.43
111.47
116.63
116.77
123.49
125.98
126.19
128.39
139.65
140.47
145.44
153.6
108.28
108.58
108.88
114.72
120.93
121.05
121.25
122.65
122.73
124.53
124.71
126.88
129.54
130.89
138.85
140.02
104.39
105.4
105.83
106.04
110.85
114.48
119.01
124.71
125.45
128.13
131.24
137.67
138.78
141.29
142.21
146.85
104.31
111.6
113.36
115.33
115.36
116.41
118.77
122
124.88
126.49
129.01
129.13
134.99
137.79
141.03
149.07
100.25
108.76
109.53
113.21
117.75
119.58
121.1
122.65
124.77
125.57
133.73
134.43
136.63
137.35
140.74
144.63
115.08
115.46
117.19
117.81
119.27
119.5
121.59
123.89
123.97
124.67
125.99
129.52
129.94
130.34
136.04
143.01
102.42
104.09
109.93
115.54
118.9
119.09
123.8
125.55
127.3
128.23
128.88
130.39
134.79
136.16
140.52
147.9
107.84
113.03
115.93
118.11
119.46
120.02
123.91
124.26
125.13
125.53
128.19
128.56
132.77
134.57
140.49
153.71
108.87
110.31
112.2
112.52
121.2
123.39
123.92
125.24
125.9
130.7
131.11
132.34
134.16
138.75
143.72
146.15
100.95
119.44
120.4
122.68
123.18
124.2
124.34
125.26
126.52
127.31
127.54
133.34
134.25
135.23
135.74
145.24
105.86
112.18
114.3
118.52
121.42
122.71
123.83
126.63
129.17
130.92
131.57
132.13
136.64
137.06
139.56
156.07
112.3
112.79
116.09
116.79
118.98
123.26
124.67
126.92
127.35
128.55
129.66
130.85
136.97
139.47
146.33
150.67
110.36
113.28
118.34
122.79
122.98
124.78
125.28
125.93
126.95
127.04
130.55
131.32
136.34
138.91
139.18
150.14
109.3
110.09
112.01
120.99
121.18
123.25
123.54
125.88
128.34
129.63
132.64
134.55
141.19
143.79
144.67
144.81
111.77
115.4
120.99
122.33
122.55
123.81
124.64
127.28
127.62
129.5
131.69
134.51
137.21
138.17
142.26
142.73
111.29
113.88
119.71
119.82
121.44
121.85
122.34
123.58
123.92
124.1
124.7
127.88
146.19
147.22
147.22
159.54
103.56
111.34
115.11
121.05
122.28
128.88
128.95
130.13
130.89
134.66
134.74
135.32
137.31
140.66
141.09
145.39
111.27
113.06
115.26
117.07
125.75
126.66
127.49
128.63
129
134.23
137.88
138.18
139.93
153.4
153.76
163.92
107.01
112.78
123.87
126.16
128.97
131.28
132.43
133.03
133.59
134.92
136.42
138.53
139.03
139.45
144.57
156.85
112.5
116.31
117.62
129.69
130.71
132.46
133.68
134.54
135.26
136.27
137.02
138.14
139.52
140.99
141.1
146.73
118.61
122.23
124.91
125.02
129.12
130.18
130.23
130.97
131.24
131.39
133.98
134.68
135.61
148.59
148.74
150.25
110.23
121.1
121.57
123.78
124.52
126.17
128.42
128.65
132.54
137.12
141.62
142.78
145.74
152.48
156.25
159.78
112.26
113.56
114.28
116.24
119.31
128.13
130.16
131.32
138.55
140.12
144.44
147.34
147.93
152.76
161.77
162.49
120.39
124.57
124.97
128.93
129.84
133.68
135.08
136.02
139.17
140.28
140.36
140.9
144.07
148.28
148.85
153.41
122.98
124.88
126.8
128.85
132.8
134.7
136.17
137.3
139.29
140.9
142.71
143.99
145.47
146.59
146.97
148.16
117.33
120.39
124.35
130.78
131.79
131.81
136.87
138.89
141.4
141.76
143.01
146.4
149.51
149.94
151.37
159.77
110.1
118.29
121.84
127.29
128.23
131.07
134.09
134.92
137.19
138.3
147.84
152.71
153.43
156.69
162.96
170.08
106.5
113.98
120.2
123.36
132.08
132.08
133.36
137.91
140.77
141.34
152.04
152.2
152.6
152.62
163.29
172.08
101.78
114.13
124.44
128.37
129.37
133.22
136.46
136.72
138.07
147.5
148.17
150.5
150.51
152.4
153.59
188.6
123.36
129.08
130.33
131.85
132.66
135.58
136.75
138.02
138.38
140.31
140.48
141.89
143.07
152.43
158.53
168.22
117.19
118.76
128.62
129.09
130.29
136.22
136.89
140.08
140.15
142.91
144.6
151.59
154.79
158.64
160.89
163.51
119.93
121.5
123.78
127.31
127.75
127.83
134.64
135.46
137.62
142.03
144.28
152.59
158.81
159.64
162.17
180.76
121.09
124.08
131.05
134.94
136.84
137.61
137.68
139.23
139.88
140.16
145.65
146.77
147.97
148.28
149.08
178.03
120.91
124.83
130.58
133.11
135.43
135.71
137.03
138.3
140.85
145.78
145.89
146.48
152.41
153.04
156.68
168.34
115.38
126.02
126.51
127.49
132.62
135.34
140.92
145.25
145.94
146.71
146.8
149.02
152.35
154.57
157.93
164.23
125.82
128.93
130.12
130.77
134.08
138.75
139.1
140.06
141.62
143.74
145.77
146.12
153.28
155.89
156.61
166.44
117.3
133.14
133.48
134.57
134.68
136.47
137.04
138.81
138.98
142.79
147.05
149.56
150.52
151.62
163.64
167.99
127.15
128.21
128.92
129.16
130
134.6
134.95
141.54
145.6
150.71
151.47
152.44
155.5
158.63
158.67
163.8
116.53
125.88
130.05
133.45
139.39
140.25
142.06
143.04
147.27
148.6
148.61
151.34
152.04
157.21
160.9
161.77
131.02
133.58
134.55
135.13
135.67
137.53
139.53
140.87
141.94
142.69
143.2
148.16
152.81
155.34
158.12
170.55
102.75
119.05
129.4
134.46
134.96
139.46
141.78
145.62
146.07
147.96
151.32
154.28
158.8
162.8
163.42
187.27
129.62
130.12
132.72
133.41
134.94
134.95
140.56
141.62
145.18
148.31
149.25
154.13
154.43
155.63
157.77
177.49
130.61
132.07
133.98
135.18
137.4
139.54
140.85
142.46
143.25
143.73
147.22
152.39
153.6
156.15
164.32
168
126.9
127.26
131.45
139.76
139.96
140.5
141.05
141.48
143.22
145.78
149.18
149.39
152.54
162.02
162.2
169.84
121.71
129.77
132.51
132.77
133.55
135.51
137.33
145.64
148.36
150.6
150.65
151.29
151.76
154.67
170.88
175.6
123.6
123.96
127.04
138.93
139.18
141.69
144.31
146.95
151.16
152.52
152.8
154.48
154.88
158.52
162.14
164.94
121.93
126.5
128.14
136.39
139.83
141.4
144.4
146.37
147.63
149.62
151.33
155.35
158.23
158.99
162.45
170.5
131.77
133.02
133.34
137.19
138.33
139.72
139.89
141.3
149.06
152.09
152.12
152.56
155.11
158.13
162.45
166.01
126.93
130.78
138.38
138.42
140.84
141.18
141.77
142.5
142.64
145.49
146.43
147.75
152.33
158.51
173.72
180.51
126.73
129.82
131.15
133.67
134.31
135.04
139.34
140.28
146.65
149.2
149.93
157.48
169.4
170.34
171.98
173.16
120.45
124.61
132.08
135.87
137.11
137.59
140.48
148.07
149.24
150.82
152.09
159.73
161.26
167.31
169.51
182.14
125.93
129.4
132.93
133.77
134.07
140.87
141.44
143.02
150.33
152.18
154
159.77
161.86
162.46
169.46
187.69
125.17
126.73
128.91
139.67
139.99
143.85
143.92
144.06
144.68
147.49
153.91
156.32
160.46
170.25
176.99
186.94
132.16
132.56
136.77
137.66
140.49
145.08
147.58
148.01
150.91
151.16
157.25
160.4
162.75
164.86
165.01
182
123.72
131.22
139.46
144.36
147.38
148.99
152.28
152.48
155.19
155.27
158.48
159.16
159.5
160.16
163.62
166.22
129.25
129.59
130.38
131.83
140.94
141.78
141.86
151.81
154.17
155.19
158.52
164.02
167.76
169.3
173.43
180.7
118.22
124.18
128.67
137.07
137.82
145.76
147.23
148.67
150.82
157.63
160.59
166.3
167.02
171.44
173.43
191.06
122.96
134.12
140.54
142.2
146.32
149.83
151.83
151.93
153.15
154.62
155.18
158.46
163.07
165.14
165.64
178.23
133.76
138.28
143.75
144.02
146.95
148.17
153.33
153.67
154.01
155.86
156.05
157.56
159.61
166.18
168.77
169.94
130.51
132.44
138.66
139.54
140
140.33
145.54
149.58
151.06
151.4
159.87
161.53
171.01
173.43
182.2
183.5
120.02
125.27
134.8
140.21
141.79
147.52
147.58
149.18
157.05
160.53
163.31
167.8
171.96
177.14
177.44
183.14
126.33
127.86
128.83
129.25
134.29
146.22
149.91
154.17
156.55
162.86
163.16
166.39
172.91
174.84
174.96
196.55
137.23
142.06
144.88
146.85
148.08
148.48
152.09
152.12
157.36
158.46
159.51
161.68
163.97
164.3
168.5
172.68
128.37
130.82
135.57
141.68
149.99
151.03
151.17
151.9
154.06
159.42
160.42
161.35
171.62
172.72
179.38
179.85
127.63
136.65
140.22
150.89
153.83
156.29
157.1
158.55
162.56
162.81
164.13
164.35
168.42
168.81
171.46
177.97
134.49
143.29
143.34
148.59
152.45
153.08
154.12
154.4
155.47
160.31
160.55
169.68
171.19
174.67
176.48
182.66
131.09
147.3
147.4
148.35
151.31
153.34
153.88
158
158.45
160.18
162.46
167.33
176.86
187.93
188.8
189.46
138.81
145.69
146.01
152.4
153.01
155.9
157.87
158.32
162.28
162.54
167.04
173.32
173.61
175.21
176.54
183.95
140.83
145.23
148.76
150.52
152.18
152.69
155.38
164.7
166.3
166.78
170.5
170.74
178.38
178.73
181.84
187.06
132.8
143
148.35
152.67
153.44
154.39
162.04
162.55
164.88
171.18
173.57
174.13
175.28
176.72
176.91
188.85
136.56
140.53
147.48
147.88
149.61
155.08
155.09
163.02
167.88
169.05
170.18
173.77
180.14
181.17
192.42
199.79
131.33
145.72
150.13
158.03
158.67
159.19
159.63
161.4
164.06
169.7
171.6
172.61
175.17
178.92
189.24
192.32
135.32
146.35
146.66
148.76
156.02
157.39
157.4
159.77
171.05
171.84
173.23
173.44
178.5
181.43
184.12
199.13
130.13
130.81
148.73
154.96
156.61
160.32
163.05
164.14
165.6
175.31
179.11
181.95
182.73
183.73
184.19
187.7
138.89
145.32
150.38
152.97
156.95
160.2
161.59
165.25
169.41
170.65
173.59
174.42
175.65
180.72
181.6
194.79
138.06
149.17
149.67
154.41
159.69
161.36
161.85
164.82
171.79
172.29
173.33
176.23
181.94
192.09
193.18
203.52
145.36
148.72
149.55
154.15
154.5
160.51
163.56
166.1
173.09
175
179.02
182.42
183.89
184.9
186.87
196.7
133.27
150.17
160.12
165.82
166.01
166.18
167.88
172.49
172.67
173.14
173.37
173.42
186.47
186.75
188.57
192.15
143.51
144.24
145.66
152.65
157.32
162.91
165.01
168.44
172.04
173.35
181.92
182.81
187.23
187.74
204.41
209.59
145.83
147.03
153.29
156.19
156.57
161.4
161.51
172.42
177.1
181.05
184.06
185.71
186.21
196.56
197.06
212.25
129.73
138.63
153.29
155.05
162.87
169.99
175.82
177.26
180.65
181.72
184.36
187.04
189.06
189.07
199.03
204.27
138.42
143.74
151.09
157.96
160.34
161.9
164.65
176.17
177.06
177.72
179.63
187.84
188.76
195.58
207.77
209.82
148.17
157.89
165.79
167.97
171.78
172.69
172.94
174.25
177.42
180.23
180.29
180.96
181.08
186.23
189.65
204.53
146.97
147.06
162.6
170.45
172
172.71
176
178.11
180.3
184.2
185.99
188.34
189.76
197.62
200.27
202.73
144.93
148.12
150.37
151.68
164.58
170.2
174.29
178
183.43
184.76
185.64
189.03
190.8
198.77
213.51
227.46
150.36
150.71
151.98
163.09
165.08
168.78
174.27
174.57
175.82
184.16
187.57
190.64
198.77
203.74
206.68
211.47
143.73
148.85
159.26
172.7
176.8
178.56
181.65
181.97
182.38
183.02
185.49
188.89
189.11
189.71
192.21
204.06
148.69
149.96
160.52
167.41
167.49
168.14
168.93
181.85
182.03
182.53
188.48
189.34
198.68
200.03
200.21
212.61
153.51
153.66
158.78
167.86
168.62
171.11
171.52
171.76
183.95
185.99
187.89
190.51
192.33
193.32
202.27
219.93
151.37
152.54
166.3
167.83
174.82
176.52
178.84
183.79
185.92
186.25
187.82
188.08
188.5
193.54
199.6
226.72
149.35
150.29
165.22
170.62
173.99
174.03
179.46
179.86
180.18
192
195.29
195.95
197.82
202.18
206.28
211.01
162.26
165.13
167.23
170.35
174.54
174.87
176.8
177.78
184.82
187.92
189.33
189.51
192.84
199.78
200.96
217.52
149.45
155.95
160.6
166.66
167.15
174.34
176.3
180.51
187.75
192.99
195.58
198.07
199.92
204.66
206.2
216.6
148.49
152.63
163.73
164.25
171
180.38
184.11
184.25
184.88
186.07
186.46
201.37
202.7
204.97
205.28
212.59
154.86
163.28
167.6
169.19
169.82
169.91
176.46
179.71
189.48
190.57
194.81
198.79
200.88
201.97
208.64
216.21
131.36
161.94
167.25
167.25
171.63
179.27
180.55
186.46
193.12
193.29
193.34
200.55
202.71
206.59
208.23
213.46
151
151.19
157.88
171.21
171.38
175.14
181.93
183.12
185.19
189.98
196.58
196.61
199.04
201.48
216.01
233.77
153.4
167.18
172.27
178.11
179.04
179.3
180.74
182.34
185.78
188.64
189.67
192.94
195.55
206.02
218.65
232.17
165.29
165.76
166.15
172.12
176.99
178.76
178.9
178.92
183.49
189.09
197.73
201
201.4
207.21
219.43
230.22
151.43
175.16
175.37
176.42
179.42
181.8
185.65
186.25
187.64
192.58
197.49
199.04
201.21
205.84
214.22
219.7
151.59
158.45
177.49
178.09
179.14
179.16
188.08
189.58
190.18
194.39
196.76
197.16
201.51
211.44
220.63
224.21
165.93
170.72
178.57
179.53
185.54
189.66
189.8
191.05
196.23
197.18
199.68
200.04
204.71
205.64
217.36
219.03
164.64
168.98
180.71
181.31
182.15
182.47
186.5
189.36
192.19
197.09
199.98
202.51
209.15
213.7
220.04
222.75
159.01
164.72
167.29
181.48
183.44
184.28
185.57
187.07
188.98
191.2
193.94
208.82
215.62
216.3
238.66
251.34
176.9
178.3
182.77
184.74
188.84
190.4
191.05
193.69
195.66
198.75
200.4
210.82
215.32
218.72
226.06
235.04
156.19
189.51
189.66
191.34
194.54
195.11
196.42
196.89
199.55
199.85
202.78
210.44
214.34
216.62
217.67
244.57
163.24
187.1
187.55
187.55
188.61
191.26
197.39
198.84
200.62
201.05
206.59
207.86
212.74
223.14
223.79
250.34
162.9
168.61
177.86
182.61
189.11
193.26
199.3
205.95
214.04
214.91
221.19
221.61
222.28
224.01
227.34
232.11
182.16
184.74
186.03
190.59
191.8
194.61
201.06
202.21
203.16
203.45
214.09
217.38
218.01
225.02
225.96
234.77
166.78
170.71
185.82
188.08
198.3
200.25
201.89
203.24
204.2
204.43
211.68
216
218.76
221.85
234.9
254.16
166.21
172.68
179.85
181.81
189.43
203.63
203.76
208.83
213.93
214.47
216.91
218.37
220.42
236.8
242.27
245.17
177.83
181.18
187.23
195.76
200.31
201.97
204.65
207.67
213.32
216.9
218.17
219.1
222.29
225.37
229.15
231.37
183.28
186.81
189.35
197.93
202.13
206.93
210.63
210.96
212.08
212.36
221.37
222.92
223.73
228.03
228.28
232.29
182.06
184.39
189.56
192.61
200.9
202.78
202.82
203.63
210.88
217.3
221.17
225.67
226.1
227.65
233.31
253.53
169.08
193.34
195.53
198.63
202.22
203.83
207.26
215.45
219.78
226.37
227.96
230.83
232.5
237.91
254.05
257.5
188.09
199.97
200.43
201.15
203.41
205.49
209.95
210.03
216.47
222.53
235.51
243.94
248.46
261.82
264.59
288.51
202.64
208.31
212.03
212.8
215.58
218.65
218.95
220.43
221.2
222.51
244.34
249.5
258.03
261.78
270.74
288.04
185.24
198.24
207.45
226.59
230.23
231.49
232.91
236.64
237.17
238
238.77
242.39
249.5
258.62
260.36
266.87
174.93
207.36
212.73
222.8
226.45
227.88
228.58
239.01
244.36
247.7
267.06
269.47
269.82
274.28
275.12
298.36
217.12
219.66
224.2
226.55
227.88
235.32
236.86
241.93
250.78
251.71
253.02
253.18
262.02
269.21
279.58
315.2
204.72
211.38
218.83
236.4
240.45
248.47
256.48
257.17
258.31
259.66
269.7
272.51
275.91
288.7
292.92
303.22
210.83
240.18
242.51
244.77
246.78
249.12
259.11
261.77
268.26
268.5
269.79
283.62
288.02
292.57
293.89
304.72
225.93
226.24
240.35
248.92
254.81
255.06
256.36
259.24
261.77
263.91
273.23
273.59
278.03
289
312.71
317.81
222.9
242.33
245.01
246.68
251.28
255.76
259.41
259.87
269.67
270.01
271.07
274.43
278.48
289.03
289.1
318.15
221.63
239.14
249.35
251.3
251.9
258.71
260.79
261.88
263.53
267.77
277.28
281.31
282.47
285.03
296.1
300.83
227.98
233.72
235.19
235.69
244.47
259.61
271.45
279.64
284.9
287.02
291.48
298.19
298.52
302.42
304.28
314.22
221.38
240.91
242.43
248.17
255.46
259.72
272.19
278.24
279.34
288.92
291.45
293.99
298.12
300.48
308.43
343.37
231.97
246.03
246.06
247.25
253.43
261.58
266.99
267.84
275.28
277.7
294.99
298.33
301.57
302.66
307.08
360.72
242.36
262.38
271.43
274.23
283.64
288.28
288.51
289.16
294.17
294.52
295.13
308.29
313.42
314.96
317.97
345.09
244.27
259.58
280.25
287.4
290.85
295.59
297.58
300.84
301.71
304.79
314.84
329.87
335.55
336.38
340.87
357.14
294.46
297.02
298
308.82
314.33
322.66
324.3
327.5
327.97
335.78
339.7
343.26
349.67
361.88
369.67
370.45
301.5
303.01
303.6
304.91
308.05
319.03
319.85
321.84
322.04
327.48
331.04
344.77
356.63
358.44
365.03
433.31
279.02
328.78
329.86
333.46
334.8
337.09
337.15
342.21
342.44
345.24
358.32
358.87
360.19
390.13
392.24
436.54
294.34
308.45
314.45
344.97
348.19
348.82
350.66
353.05
354.51
355.01
372.19
374.07
381.31
383.22
397.42
461.51
336.46
343.3
345.21
346.94
350.01
354.39
358.69
359.36
365.32
366.41
366.58
366.69
400.85
436.17
450.28
475
