5.89
6.08
6.41
7.24
13.88
14.68
14.7
18.65
18.79
22.72
24.99
25.29
20.83
22.61
24.16
24.87
19.9
22.43
23.82
26.91
23.54
24.61
24.83
25.24
27.8
28.4
31.41
36.65
25.09
34.96
35.78
38.17
31.62
33.45
35.26
37.75
30.59
33.95
37.66
37.86
37.82
39.29
39.3
40.75
35.04
36.73
39.42
46.33
38.5
39
40.25
46.12
37.98
40.3
43.82
44
35.49
37.47
40.63
53.06
39.59
40.89
46.2
48.84
41.77
41.83
44.24
49.06
41.68
44.43
46.63
50.84
41.73
42.49
49.34
51.52
43.04
46.84
47.14
50.44
43.83
45.86
47.5
51.28
43.3
48.07
49.16
51.64
45.01
46.45
50.66
54.48
48.47
49.78
50.34
50.97
45.84
46.84
52.4
55.55
45.88
48.82
52.16
55.55
45.2
50.57
53.25
55.94
45.19
49.69
54.97
55.34
45.9
50.79
56.47
57.38
40.11
49.54
59.4
61.83
48.5
55.53
55.85
59.2
49.97
56.92
57.01
63.71
49.7
54.14
56.46
67.38
52
54.2
61.03
62.61
54.58
54.86
60.08
61.21
54.31
55.52
60.53
67.5
56.24
58.48
61.55
63.81
57.35
57.95
61.38
66.92
57.41
61.18
64.83
74.42
61.96
63.97
67.48
67.79
62.79
64.89
65.87
69.99
60.99
61.72
65.96
74.91
63.86
72.17
73.24
79.37
67.88
71.39
72.92
80.62
69.13
72.28
73.25
78.34
67.45
74.34
74.35
78.98
68.71
75.85
76.67
81.55
69.94
74.23
77.56
81.29
66.22
73.61
82.47
82.92
74.25
76.68
77.11
77.84
71.92
73.58
74.2
89.69
55.77
78.04
88.47
91.45
73.93
77.25
83.79
84.17
70.3
78.91
86.07
88.08
72.42
72.65
87.05
92.66
77.45
77.89
81.31
88.23
76.05
77.79
84.34
90.52
66.5
82.21
89.37
91.14
78.46
83.11
84.52
88.58
61.36
90.91
91
94.37
75.08
83.77
88.97
90.59
80.94
85.03
86.74
89.16
82.13
82.26
88.39
89.93
79.71
83.13
85.68
96.82
68.97
84.53
85.55
112.15
79.79
84.78
93.36
98.14
81.51
85.82
92.44
99.57
85.53
86.31
88.37
104.11
75.07
92.48
97.35
100.96
77.8
93.08
100.5
102.29
89.24
94.28
96.08
97.39
88.54
94.05
94.06
101.58
86.17
95.72
98.78
108.43
86.67
91.63
100.32
110.57
88.16
95.06
101.98
104.33
88.49
99.55
99.85
109.91
95.64
96.14
97.92
110.99
94.11
99.9
102.31
111.5
91.97
95.63
103.37
118.48
95.72
97.26
111.85
113.99
98.61
108.25
112.08
114.1
101.77
106.02
109.23
118.09
99.97
102.08
107.98
125.23
102.76
108.58
109.05
120.17
105.02
112.47
113.72
117.33
112.09
114.39
114.82
124.62
105.34
121.76
124.26
127.79
111.32
116.53
119.79
134.74
107.11
115.66
124.47
135.48
113.43
117.96
119.38
132.52
115.51
118.84
118.86
139.69
109.8
126.23
126.54
133.6
114.83
114.98
135.41
139.81
105.79
121.48
122.08
157.54
123.36
127.39
128.05
136.41
119.86
129.53
132.2
138.72
118.43
121.84
137.5
145.84
119.03
132.19
138.26
141.88
120.94
134.15
137.74
158.54
125.65
136.09
146.43
149.09
107.75
127.09
158.48
168.99
119.03
133.26
147.89
162.49
131.53
139.91
149.25
149.99
130.16
139.66
149.91
154.68
122.51
136.87
145.09
180.73
142.56
143.89
148.97
157.15
130.94
145.78
151.08
166.75
133.16
154.79
158.15
174.17
133.72
145.98
161.83
188.76
143.81
144.89
168.9
178.34
145.52
163.32
167.61
173.72
157.61
161.31
166.53
172.9
139.51
144.63
182.77
204.75
156.27
157.83
168.66
189.93
150.07
170.62
182.85
192.29
150.27
176.13
185.17
186.06
160.69
180.14
182.04
184.9
156.94
176.25
194.39
200.94
175.54
181.55
189.36
189.54
166.9
178.66
196.35
203.54
177.18
191.48
203.95
211.98
193.39
210.85
214.15
222.86
187.97
206.21
231.55
239.38
185.14
223.17
239.6
254.2
226.4
245.86
262.66
281.85
241.69
256.83
257.87
277.01
266.38
267.22
285.7
304.33
345.36
359.3
386.45
449.49
