1.56
1.73
1.85
1.95
2.28
2.34
2.73
2.88
3.96
4.19
4.78
5.65
7.04
7.12
8.05
8.25
1.82
3.98
5.39
5.48
5.6
5.67
6.02
7.05
7.16
9.72
9.87
10.52
12.18
17.83
18.4
20.49
2.12
4.24
4.25
4.36
4.81
6.44
6.73
7.46
9.31
10.56
10.74
12.74
15.13
19.94
21.06
27.03
4.64
5.75
6.82
7.37
7.41
8.31
8.87
9.52
10.37
13.49
13.69
14.33
14.66
15.73
16.55
18.23
4.7
5.01
5.67
7.58
9.5
10.92
11.98
12.01
13.13
13.52
19.6
21.38
22.49
23.28
25.47
30.45
1.2
1.25
6.17
7.4
9.24
11.38
12.16
12.52
14.03
14.18
17.7
20.61
23
25.64
30.61
35.5
4.78
6.07
6.78
7.63
7.77
10.52
11.81
12.76
13.11
13.99
16.89
21.46
24.83
25.34
36.44
44.01
4.3
6.51
10.12
11.56
11.62
11.91
12.24
12.45
15.39
17.22
22.4
23.12
24.96
25.62
27.34
27.52
5.99
9.28
9.38
9.68
10.67
11.83
13.47
14.92
15.59
16.11
20.67
21.66
24.04
25.91
27.52
28.78
3.62
4.01
7.05
7.52
11.06
12.8
13.72
14.11
15.7
17.33
17.5
22.48
22.53
28.05
31.78
39.95
5.19
6.46
11.14
11.17
11.46
11.66
12.73
12.74
16.46
17.14
18.67
20.68
23.27
25.75
28.52
40.75
4.27
5.32
8.93
10.5
10.84
11.95
12.08
12.37
13.57
18.29
18.71
20.48
25.53
25.9
34.45
40.78
1.94
7.99
8.07
8.78
12.03
13.15
13.89
16.25
17.49
18.47
19.19
19.72
22.19
24.61
30.52
44.43
3.44
4.09
5.9
9.77
10.55
11.64
12.12
12.86
16.77
17.26
20.81
21.09
21.94
26.57
34.59
50.68
5.89
8.77
8.95
11.43
14.48
14.88
15.28
18.08
19.33
19.84
19.96
21.91
23.16
26.47
32.16
40.63
2.76
3.57
6.53
7.01
11.31
13.07
15.44
15.98
18.55
20.6
22.73
26.69
27.61
28.1
28.35
53.4
4.5
5.14
11.08
11.73
14.04
14.42
17.02
18.19
20.25
20.26
20.38
25.5
26.67
30.23
31.43
43.17
6.21
6.52
8.86
10.38
10.42
11.77
13.57
14.96
15.79
18.73
21.72
24.47
34.34
34.73
40.08
42.07
7.98
8.14
8.99
9.32
11.29
11.64
14.2
14.22
14.76
20.88
22.45
23.69
34.72
36.18
36.99
48.35
3.43
5.48
5.98
10.86
12.09
15.1
17.61
18.44
22.57
23.96
29
30.83
31.48
32.52
35.08
38.1
7.25
8.48
9.57
11.46
12.95
12.99
13.13
13.99
14.68
20.35
22.4
27.12
33.41
34.44
34.44
60.11
6.08
7.12
8.61
9.23
11.09
11.34
14.23
22.74
22.76
24.2
24.34
25.23
35.67
36.82
39.24
42.5
1.71
9.91
9.93
11.65
13.68
18.57
19.48
21.28
22.34
27.26
28.43
29.08
31.82
35.88
43.9
49.14
6.69
7.12
8.2
10.53
14.88
15.59
15.99
19.12
22.13
27.87
30.57
35.99
37.39
38.98
41.56
43.85
7.52
7.61
7.85
9.48
10.03
10.56
12.55
18.84
21.23
23.67
23.87
30.81
36.92
40.97
50.39
67.45
3.46
12.46
12.87
13.23
15.94
17.26
24.27
26
27.26
28.34
28.57
30.38
34.55
35.98
36.61
43.87
6.5
8.47
9.81
14.75
15.34
17.65
18.62
19.15
20.28
26.08
26.46
28.45
30.15
32.38
57.21
65.73
3.53
5.53
10.47
13.26
16.13
16.62
16.64
18.04
21.19
28.01
30.43
35.5
37.54
42.86
48.59
57.5
4.34
9.95
12.88
15.14
15.3
16.13
18.4
18.93
20.57
23.02
30.83
37.62
43.64
43.75
45.42
51.39
10.7
11.97
14.24
15.12
19.5
20.54
23.03
24.96
27.01
27.72
27.72
29.46
29.52
37.84
38.47
49.62
6.3
13.18
13.59
14.42
15.53
18.61
20.64
22.91
26.2
27.29
29.98
30.28
32.44
44.68
47.19
47.25
8.83
12.98
13.17
15.62
16.23
20.98
22.1
22.76
23.27
24.36
30.24
32.15
36.32
37.52
39
78.07
6.45
10.48
10.5
11.74
15.76
16.57
21.85
27.21
34.56
35.37
36.76
37.49
37.76
40.4
42.59
54.15
8.77
15.51
17
18.23
22.28
22.72
22.74
25.89
28.88
29.94
31.5
31.7
32.45
35.16
42.41
61.31
6.38
8.25
8.9
10.86
15.85
17.61
20.87
20.9
26.09
26.73
38.08
39.16
46.1
48.63
57.38
65.01
7.63
9.52
11.75
17.61
18.08
19.79
25.66
28.2
33.24
33.28
35.55
37.67
37.77
42.27
46.27
57.14
1.89
9.59
11.63
11.68
11.96
12.88
15.6
27.94
30.84
30.86
32.97
41.56
48.05
57.1
58.53
59.14
9.83
10.04
13.63
19.13
22.48
22.98
23.17
23.66
28.83
33.83
35.23
38.56
39.73
39.91
52.6
52.61
8.18
11.23
11.46
12.77
15.99
21.15
22.48
23.73
27.59
27.95
35.74
36.16
38.09
46.51
49.44
78.74
7.94
11.48
11.71
17.86
18.2
21
21.33
21.69
23.03
28.88
36.21
36.96
38.52
47.04
51.12
77.05
1.24
9.84
12.49
12.64
22.9
23.69
24.04
24.45
29.02
37.15
38.75
38.79
44.92
47.57
48.59
58.07
5.44
13.53
14.29
16.16
19.56
20.2
21.11
24.14
24.38
28.93
30.55
32.58
48.44
49.9
52.09
74.74
4.79
15.29
15.76
18.5
18.58
20.74
20.84
25.95
30.64
33.78
38.49
39.38
41.74
44.88
51.88
56.97
5.25
5.73
17.05
17.33
19.73
24.02
24.77
26.06
26.48
34.37
38.78
42.55
47.61
49.98
52.27
57.52
9.81
11.01
11.43
12.55
15.15
15.22
20.72
24.62
26.6
31.1
31.34
44.55
54.57
58.08
60.72
71.85
7.72
13.89
17.18
18.76
19.52
24.4
25.62
25.87
29.19
35.72
37.18
42.14
44.87
48.31
53.96
57.01
7.57
8.16
8.4
12.69
14.2
14.81
18.96
30.64
32.83
32.92
35.04
43.63
49.39
50.52
54
93.97
8.63
15.53
16.36
17.56
18.15
20.15
20.29
21.74
24.06
27.84
36.31
41.71
47.16
60.18
69.13
69.68
9.87
13.94
15.62
20.22
20.37
20.39
22.88
22.89
23.87
26.77
30.14
41.63
48.56
55.76
56.71
84.98
7.97
8.18
20.48
21.07
22.23
25.05
25.48
26.99
28.09
31.93
34.91
35.12
37.14
39.74
57.74
92.72
9.3
9.68
11.76
16.01
21.16
22.3
27.04
29.74
30.81
37.35
37.63
42.8
45.59
47.86
52.13
75.57
8.44
14.24
19.08
20.16
23.42
23.62
25.86
27.2
29.04
29.43
36.04
41.87
42.27
50.72
54
74.57
9.71
15.03
15.75
17.75
25.71
29.6
31.47
31.89
32
34.79
36.15
45.01
45.97
47.09
49.85
56.03
2.74
10.03
12.62
23.79
26.88
28.4
28.78
30.48
31.46
33.49
35.34
44.54
48.61
49.17
51.12
69.04
10.7
12.18
12.94
22.51
26.79
28.53
29.53
31.19
32.42
32.49
36.86
43.61
49.51
52.41
55.47
56.49
4.75
14.52
14.61
14.78
19.08
21.36
23.22
24.16
36.58
39.19
39.62
41.06
46.74
50.13
62.79
84.95
5.75
14.97
19.32
20.16
20.69
22.06
28.03
29.08
29.55
30.82
34.86
43.65
45.5
51.74
53.83
87.56
12.01
12.26
16.93
18.56
20.76
26.12
31.71
34.11
35.18
35.47
40.65
41.38
51.11
53.47
53.48
56.37
10.95
13.24
20.13
22.61
24.08
25.28
26.43
32.95
35.87
35.9
39.84
43.88
44.08
55.15
56.81
66.12
5.76
11.17
12.39
13.94
23.34
25.37
26.87
31.15
36.14
40.78
40.82
41.56
46.45
46.48
65.63
86.13
6.48
20.47
21.67
24.05
26.73
27.37
27.97
31.02
31.88
37.29
40.6
42.28
42.55
51.19
56.75
67.77
7.66
14.06
17.86
18.63
19.87
21.97
24.7
27.96
37.44
40.43
40.97
51
52.57
59.1
60.29
61.97
10.35
17.27
18.01
18.3
20.61
23.97
28.71
31.29
34.29
34.66
36.01
41.76
46.88
55.62
65.54
75.25
10.18
11.89
18.06
19.53
21.32
26.88
28.69
30.98
35.5
43.86
45.52
47.36
50.63
54.4
54.67
60.58
6.37
10.42
10.96
15.66
20.73
29.95
31.61
37.06
40.24
41.95
45.66
47.92
49.94
51.81
52.25
69.79
8.44
22.83
27.64
28.11
28.93
33.4
34.66
35.53
35.87
38.63
39.39
39.81
41.69
42.17
48.03
61.17
2.3
13.63
15.16
18.49
20.83
22.08
22.78
22.84
24.37
33.82
34.83
37.47
40.6
54.36
64.42
143.54
10.19
10.92
11.57
14.52
19.5
21.42
31.74
34.37
35.74
46.07
46.14
49.5
49.88
54.36
58.21
81.3
6.09
11.12
16.3
16.92
18.39
22.08
32.3
34.81
37.03
42.14
50.17
50.34
52.71
54.63
69
70.15
5.9
8.29
13.98
18.7
19.21
27.62
27.86
30.88
37.09
40.44
40.7
45.58
49.04
64.03
66.88
90.22
5.32
7.61
9.5
18.84
21.71
24.18
24.9
28.29
30.63
32.76
37.12
37.36
44.09
45.81
60.89
163.46
15.45
17.27
19.52
25.29
26.89
30.5
30.8
30.91
32.04
33.25
33.39
40.8
42.61
54.11
73.98
86.52
15.34
18.58
19.66
23.13
27.5
31.6
33.66
33.95
34.77
37.17
41.02
44.41
46.27
51.92
72.43
81.6
11.16
11.84
12.83
13.94
26.34
27.46
32.4
35.54
38.12
42.79
43.52
46.08
54.27
60.63
72.71
87.44
16.02
17.73
22.2
24.77
25.12
26.99
27.12
29.38
33.68
39.21
44.57
56.57
60.98
63.88
63.98
71.88
17.33
17.64
20.1
23.45
31.09
32.75
38.1
38.18
38.57
42.37
44.51
45.46
53.15
53.55
63.93
64.62
9.75
24.29
24.97
25.15
29.55
30.29
32.7
33.76
36.38
42.59
45.06
45.57
51.36
59.65
60.98
74.95
2.55
6.62
9.72
15.32
25.9
28.3
31.89
34.83
35.09
44.05
44.69
49.73
52.39
60.61
82.22
113.32
3.77
9.03
10.76
12.77
19.79
24.67
26.59
29.31
30.17
40.56
47.45
52.13
55.71
71.7
94.16
109.51
18.56
23.73
25.63
26.43
28.83
30.89
33.98
35.23
35.75
39.4
40.49
45.84
56.09
62.01
79.2
79.94
10.41
15.24
17.63
19.15
25.02
33.71
34.05
35.15
37.73
42.62
48.5
49.01
60.8
63.77
75.75
96.63
6.68
16.97
17.89
20.72
23.75
27.12
27.84
28.92
30.13
30.72
48.29
52.45
63.1
64.06
69.84
137.68
10.84
15.73
19.5
24.55
24.82
26.99
36.53
37.55
43.48
46.37
55.24
58.93
64.18
67.15
70.1
73.72
15.3
15.89
16.16
21.74
22.69
25.5
33.05
33.47
34.49
35.86
38.26
43.38
50.44
64.89
75.02
151.66
4.1
5.7
9.03
10.82
23.1
31.67
37.82
41.84
46.16
50.2
50.75
53.12
62.61
66.4
72.18
113.54
12.85
15.23
15.53
22.41
26.82
27.44
28.69
32.58
40.27
40.94
54.68
55.92
66.24
71.8
84.67
85.29
21.19
24.54
26.54
26.59
27.93
30.33
32.08
38.1
42.48
45.59
50.68
51.3
57.51
62.04
63.02
84.1
5.95
7.89
15.17
16.46
23.67
31.4
36.42
37.98
45.06
47.58
50.37
56.01
60.63
64.22
75.99
110.3
8.91
12.53
18.62
20.68
22.84
25.33
26.33
34.85
42.33
49.46
51.83
54.8
58.43
63.63
94.55
101.33
10.99
16.01
16.52
18.85
26.48
31.32
33.46
34.62
36.43
43.47
45.27
48.08
50.11
59.59
61.79
153.55
9.61
14.47
21.13
23.56
25.96
29.29
35.18
37.4
37.41
38.6
44.57
46.8
50.65
80.1
86.53
106.02
17.48
22.53
27.69
28.94
29.13
31.22
31.55
32.71
37.88
47.7
53.42
56.36
58.62
66.21
67.67
83.69
17.35
17.66
17.67
19.9
22.29
28.09
31.53
33.57
36.87
37.84
39.92
45.85
65.49
91.08
94.26
95.95
7.05
14.49
23.05
23.84
27.62
31.65
32.7
33.3
44.66
61.12
61.28
62.1
63.03
63.37
68.74
77.43
10.39
14.27
14.58
21.66
21.85
23.16
31.55
34.53
40.78
49.26
49.99
59.87
65.61
78
81.27
106.85
10.2
16.95
19.27
22.69
26.63
32.53
35.05
38.84
49.52
50.68
52.6
56.04
61.67
74.35
78.62
79.33
10.63
13.43
23.32
27.07
28.61
30.16
32.45
38.01
46.82
49.65
54.94
56.62
69.08
73.94
74.74
78.52
12.08
23.81
26.15
29.28
32.09
32.82
38.19
40.15
45.3
46.25
48.16
55.93
60.65
65.87
66.82
85.79
16.41
19.03
19.68
22.84
25.84
32.16
37.68
38.81
48.87
50.01
53.55
56.31
59.67
68.79
76.62
89.75
12.9
12.94
17.14
25.22
30.56
33.78
34.13
37.83
41.91
48.78
49.09
50.09
55.08
62.34
95.67
109.78
10.38
10.79
18.05
20.75
28.3
29.16
33.25
35.73
38.73
43.33
48.77
50.05
80.26
81.87
83.83
106.31
11.55
12.09
19.87
27.96
31.78
38.58
39.87
41.09
41.22
51.53
54.13
57.44
60.31
74.44
78.47
79.73
8.23
18.72
28.64
29.56
30.01
30.26
35.68
39.24
43.57
44.38
52
57.31
65.51
71.23
72.31
94.15
4.95
23.6
28.72
29.12
29.31
32.9
34.61
37.74
47.96
54.42
55.58
56.49
66.94
72.51
74.25
75.12
2.18
10.53
12.82
15.87
22.54
37.97
38.35
44.66
45.89
48.5
50.9
55.76
64.5
88.21
96.91
99.3
5
25.38
26.85
28.81
28.82
28.88
29.8
30.69
33.12
39.24
41.49
65.92
80.02
80.6
82.83
108.87
15.15
16.46
24.66
32.87
37.04
37.58
44.92
45.27
48.19
51.11
51.61
53.86
54.18
54.63
63.54
105.78
11.54
17.33
21.68
21.94
28.92
30.4
34.92
37.96
45.9
46.99
47.01
55.56
77.97
79.77
83.3
96.24
5.17
19.57
23.59
26.44
32.15
33.04
35.12
39.2
47.65
48.53
49.55
51.56
53.39
65.71
89.48
118.44
20.39
26.73
27.49
27.53
31.16
31.4
33.83
33.92
42.12
45.53
51.42
61.13
65.14
83.59
86.72
92.97
12.62
27.4
27.81
36.54
36.93
38.27
41.33
41.72
45.08
46.03
46.4
47.42
65.32
79.9
83.75
86.02
6.97
10.75
15.95
19.54
20.23
24
29.61
47.73
48.12
53.42
68.15
68.61
73.98
85.77
89.14
102.85
4.52
11.93
13.47
19.02
21.53
24.04
29.6
33.67
41.62
42.45
53.74
58.38
60.18
66.97
94.19
207.09
18.1
18.62
21.57
22.25
32.78
39.8
41.77
46.17
46.6
52.29
61.47
65.46
68.74
68.74
85.69
93.26
21.97
23.68
26.56
26.73
33.86
34.2
35.05
36.24
48.29
49.1
55.11
63.12
69.47
80.93
84.95
95.82
10.53
18.75
23.7
31.95
34.44
34.49
35.51
46.52
50.22
53.87
59.52
67.62
71.92
76.21
77.37
92.56
7.73
9.75
16.52
23.6
28.06
28.41
42.92
47.02
48.21
54.53
58.38
60.17
85.78
89.88
92.79
93.5
15.57
17.57
22.21
25.72
34.04
34.11
43.07
45.76
51.09
60.17
61.47
68.23
69.84
70.07
75.22
95.29
4.84
28.83
32.07
32.76
37.27
37.61
39.75
41.29
47.51
49.61
55.16
62.41
64.18
68.54
92.01
102.74
1.82
16.59
17.12
26.67
27.42
27.65
30.92
35.08
40.84
55.04
62.42
65.12
74.87
85.57
87.79
144.1
14.22
14.85
27.32
34.34
34.56
36.3
39.54
41.39
43.53
43.53
51.89
61.05
62.79
68.55
93.85
135.25
10.86
11.16
17.29
21.17
30.78
41.14
44.08
47
48.54
59.35
67.49
67.88
70.35
71.58
78.12
119.16
18.22
23.9
35.7
37.05
38.85
40.35
41.45
45.14
45.74
46.27
63.4
64.86
69.97
71.52
79.09
84.58
5.1
6.8
18.56
18.97
30.48
44.31
44.33
44.6
45.33
53.97
63.19
68.54
73.77
94.43
97.13
99
10.46
22.38
30.17
33.48
39
42.76
51.01
51.8
52.17
56.04
58.91
64.57
64.68
70.9
79.94
92.71
11.96
13.39
33.81
35.3
40.51
41.37
42.69
44.67
44.88
47.12
52.9
58.89
74.07
75.04
96.05
114.92
7.28
8.54
21.18
27.55
37.04
38.43
39.99
42.11
52.47
54.52
57.83
67.79
70.01
74.91
76.45
157.59
3.87
17.44
23.01
27.39
39.38
39.95
40.68
41.49
45.4
47.7
58.25
63.5
70.01
79.54
118.89
121.54
10.03
17.09
18.57
20.76
25.76
31.58
33.85
39.34
47.46
62.26
66.09
77.17
81.96
100.18
101.29
105.4
13.61
20.27
25.21
30.69
31.39
32.64
33.01
37.92
54.93
56.17
60.14
78.37
83.91
89.92
99.24
99.38
18.38
28.04
35.27
36.58
42
43.99
48.49
56.23
57.26
59.17
61.39
67.08
71.42
72.04
73.97
77.91
6.39
13.61
19.18
25.74
27.29
31.05
46.58
53.06
55.74
59.37
64.44
71.64
72.95
92.08
100.62
116.04
17.44
18.03
23.26
31.7
39
39.67
41.82
42.76
47.77
50.79
57.07
69.48
76.69
87.52
105.43
107.71
20.35
20.8
30.2
32.64
34.37
38.23
41.52
42.81
45.02
57.15
63.11
63.21
88.14
88.18
95.85
99.41
9.34
9.89
11.68
20.8
23.22
40.78
41.75
42.09
49.85
52.22
62.81
77.18
82.78
84.42
107.84
148.02
11.23
26.32
27.95
30.03
31.41
31.9
37.64
39.64
40.45
43.93
49.6
88.08
91.16
91.38
91.52
132.57
14.53
21.6
21.9
27.82
36.82
39.45
40.19
53.94
55.82
59.35
65.23
75.4
80.74
80.94
95.86
98.22
16.27
17.91
20.62
32.4
38.53
39.39
40.34
41.7
54.51
57.18
66.08
69.89
75.93
85.93
87.81
126.52
7.78
11.54
21.79
22.66
28.68
28.79
32.24
39.14
45.11
52.79
66.31
72.72
79.34
85.41
125.91
156.47
5.24
15.94
16.34
20.57
22.61
23.76
27.35
31.07
47.79
49.4
65.72
69.91
70.5
111.58
116.14
194.46
9.71
24.18
24.29
25.3
28.05
33.56
40.23
43.31
54.27
61.99
63.6
86.17
93.53
94.42
103.53
107.28
25.35
31.24
33.95
34.44
35.35
36.35
36.61
37.92
43.54
44.67
45.92
49.82
64.92
76.3
128.55
176.13
11.2
12.65
22.97
23.24
31.57
45.3
45.58
46.66
54.33
60.31
61.3
74.76
81.57
105.89
108.08
122.41
14.27
36.71
37.86
38.03
38.24
38.83
46.62
52.68
53.21
54.7
57.46
72.69
84.45
90.71
93.99
113.24
5.73
6.12
10.85
25.17
30.62
40.3
40.83
44.57
48.83
63.31
63.34
72.03
82.03
117.86
123.76
153.07
3
16.74
19.05
19.92
20.83
21.77
21.91
26.44
46.35
54.93
57.59
66.27
77.86
106.14
130.87
240.22
16.84
20.87
25.82
28.6
33.1
34.86
36.22
36.52
63.19
68.07
70.56
75.61
80.97
109.13
110.76
120.75
12.74
24.78
29.31
30.63
36.37
37.71
41.99
49.94
53.98
59.5
59.64
69.02
83.06
101.34
107.35
139.43
11.42
14.43
14.55
14.74
28.89
34.57
43.37
49.5
65.67
67.56
70.16
72.23
75.69
78.03
117.99
179.03
15.34
22.18
27.05
34.82
39.92
45.08
46.36
50.04
53.42
62.14
64.16
72.91
81.37
83.28
118.74
124.92
17.92
29.6
29.75
30.06
32.33
34.06
38.74
40.84
43.73
44.3
55.18
56.2
63.61
65.82
78.18
288.61
11.91
12.03
14.47
25.92
35.95
37.78
39.7
40.27
61.57
62.17
70.97
80.87
91.42
94.43
127.38
151.89
16.44
26.68
28.63
29.56
33.82
39.31
50.2
51.53
58.5
67.87
71.87
83.31
91.14
101.93
105.88
111.58
13.31
24.63
25.59
29.61
32.29
47.5
49.85
50.54
67.92
72.76
76.85
81.89
83.3
93.04
95.58
125.71
3.27
7.69
15.74
35.55
36.9
41.24
53.26
56.12
66.85
73.45
75.68
82.98
84.41
86.79
116.81
134.54
13.77
21.57
21.97
25.12
36.91
47.75
52.51
53.8
63
64.02
64.85
68.68
80.69
94.17
122.15
140.71
10.16
18.72
23.86
25.07
27.05
27.41
28.84
41.72
43.79
70.29
91.06
94.75
95.3
106.2
132.81
141.63
13.02
26.57
33.78
33.82
37.7
50.44
54.54
54.55
54.88
59.07
76.63
79.44
87.09
98.35
105.68
115.46
12.94
16.15
18.9
20.07
23.85
28.42
32.23
39.99
62.86
65
69.55
73.65
84.6
84.7
148.42
220.08
13.84
26.89
29.99
36.95
46.09
51.33
53.29
55.12
65.56
71.55
74.8
77.13
97.72
98.76
100.06
102.55
6.52
11.65
18.86
19.3
20.13
27.72
42.51
51.3
52.03
55.27
85.1
89.23
93.59
102.37
102.4
224.32
21.14
21.44
25.04
26.45
45.41
45.76
49.2
55.17
67.07
68.57
75.54
76.18
89.35
103.22
118.13
119.29
30.99
32.2
35.1
36.42
38.22
40.53
41.38
51.37
63.44
66.18
68.33
71.37
76.49
80.72
85.15
191.09
13.28
14.77
27.62
28.12
41.74
42.4
42.53
46.02
50.86
61.08
61.48
66.89
86.04
103
104.35
219.72
20.3
22.26
23.23
39.33
39.52
45.49
47.06
53.57
68.81
68.86
72.99
83.95
85.72
90.68
125.13
130.52
14.19
18.12
22.76
23.08
26.39
32.23
36.71
44.1
51.59
55.42
56.31
68.35
94.57
120.8
142.41
212.13
21.51
23.96
24.81
28.68
29.71
30.39
34.79
36.56
74.54
78.3
83.61
88.08
96.89
109.68
125.92
132.88
18.96
26.29
27.95
32.72
34.84
42.04
45.49
49.63
50.61
53.97
56.43
67.5
106.04
110.28
118.18
181.01
26.72
28.54
34.35
38.12
38.48
47.72
52.23
54.35
56.32
58.02
59.14
67.17
75.67
97.79
140.82
146.98
9.17
11.14
12.92
13
19.67
45.49
67.13
71.11
72.24
72.25
78.06
79.18
83.51
111.72
124.7
153.31
30.02
36.12
36.71
37.61
43.24
48.33
51.57
53.9
61.97
70.03
70.06
75.29
86.26
92.37
94.33
138.7
10.11
19.64
28.63
37.21
38.26
39.17
48.42
52.78
53.56
72.4
76.27
88.09
89.37
116.53
125.63
131.25
17.05
30.67
36.6
37.37
42.21
42.66
50.86
57.51
60.91
61.56
72.39
73.57
76.63
107.2
119.5
146.5
10.66
15.36
23.19
30.73
45.34
52.25
52.49
57.35
63.47
66.72
77.95
80.09
86.4
93.25
135.84
145.7
24.38
29.6
32.22
33.03
43.93
44.25
47.7
48.38
48.97
68.9
73.43
76.93
78.47
85.81
139.44
169.42
13.71
22.59
29.12
29.35
38.42
47.75
51.52
51.74
53.68
65.15
69.26
76.6
81.66
117.01
133.82
164.55
11.02
15.39
21.29
22.03
26.32
29.43
37.59
46.27
57.29
71.35
75.09
91.75
101.23
121.54
123.94
202.5
14.68
15.79
20.7
35.21
44.17
48.22
50.96
57.39
67.53
74.15
82.89
83.92
88.79
107.16
125.81
137.77
23.72
24.88
30.94
32.03
50.02
57.34
68.36
70.97
72.2
73.56
75.92
82.92
87.16
90.68
95.57
121.8
7.45
19.98
20.35
33.37
36.81
39.61
44.85
62.9
70.88
75.24
84.15
87.63
98.81
113
116.37
152.85
24.37
26.05
33.11
39.08
44.11
48.01
49.97
59.39
67.34
69.47
73.42
85.63
86.45
100.7
121.15
144.64
4.57
11.08
36.47
38.54
44.02
49.9
56
60.89
62.5
69.55
71.11
88.22
94.47
102.29
137.81
149.81
17.48
25.37
32.36
36.85
38.43
44.3
57.52
59.76
61.79
62.58
64.64
78.23
95.24
118.54
119.87
166.4
29.27
33.79
42.28
43.25
47.95
52.73
57.35
61.67
71.65
71.79
72.8
87
88.65
96.15
113.06
114.83
28.71
28.81
41.36
44.9
45.16
48.52
56.3
60.91
70.34
80.26
82.61
91.07
94.15
98.46
106.18
110.77
17.71
22.13
32.4
34.3
48.37
48.57
53.11
54.13
55.72
70.71
78.68
83.95
102.6
106.76
112.52
170.63
18.42
20.7
21.56
23.54
27.22
36.31
41.69
44.45
46.19
48.97
100.17
103.03
105.03
127.34
135.56
194.08
10.61
39.37
41.06
44.13
46.06
47.43
67.79
71.79
72.8
72.97
75.32
98.32
99.29
102.64
106.01
107.18
13.72
30.9
31.37
42.21
43.95
51.4
52.31
55.51
66.48
74.34
83.5
90.74
93.29
110.66
111.05
153.51
23.61
24.23
24.78
28.35
30.37
35.51
45.67
51.61
61.93
70.66
79.85
89.36
100.71
110.1
148.15
200.25
23.38
28.72
30.72
43.16
46.14
52.68
58.02
58.12
58.91
69.68
85.04
98.93
101.55
105.63
116.33
149.6
19.01
22.63
29.22
42.48
50.02
52.93
58.68
59.14
67.88
70.07
79.64
86.84
87.5
110.93
136.44
156.09
14.65
25.24
30.71
31.84
38.15
42.42
51.4
57.04
78.04
81.21
85.66
87.32
98.61
103.31
139.04
164.95
30.12
44.73
47.37
47.46
47.54
48.93
58.58
60.93
63.63
75.43
79.16
88.29
90.58
95.95
108.18
148.25
20.1
30.16
44.62
44.92
45.53
49.73
49.91
60.43
68.17
70.64
73
74.09
84.33
103.21
130.28
190.57
17.07
17.09
39.91
41.36
43.16
43.51
47.65
51.56
62.84
73.05
73.76
86.6
94.69
123.5
151.62
173.11
19.37
28.33
30.12
43.03
45.85
46.17
52.74
56.51
62.38
68.06
71.96
102.12
114.16
124.36
130.42
150.7
23.15
36.64
39.64
40.71
43.75
53.21
59.92
63.52
68.49
71.68
78.45
79.94
85.76
114.44
146.5
150.88
20.61
26.25
34.7
36.64
51.86
54.74
59.83
59.89
71.85
82.7
82.7
87.54
106.86
111.45
134.22
137.76
12.22
16.63
19.73
24.96
37.83
41.84
44.15
52.23
62.34
73.2
76.41
100.31
118.21
126.07
154.92
199.14
5.86
21.75
29.35
31.94
33.09
41.93
48.87
62.67
70.27
71.55
84.11
98.03
120
127.19
146.53
171.12
17.02
22.66
33.02
44.21
45.57
48.21
63.63
64.21
68.45
71.73
74.06
76.26
89.39
111.74
127.56
208.06
21.68
42.8
44.96
47.65
58.82
58.85
60.49
64.02
66.99
69.8
70.66
82.06
86.04
103.28
118.49
169.26
24.2
32.78
54.11
56.7
59.58
60.68
68.52
70.56
73.2
77
81.6
88.27
89.24
100.56
118.77
125
21.09
27.24
32.76
45.71
47.46
52.96
62.19
62.94
69.27
83.01
83.74
94.3
100.17
117.09
117.8
164.63
28.14
45.69
47.85
48.88
53.57
61.59
67.32
70.01
79.37
87.23
92.37
93.63
94.05
99.41
102.18
112.25
23.77
28.41
28.41
29.68
31.14
36.25
53.3
53.94
60.38
68.32
82.18
92.49
109.1
137.31
166.26
184.62
12.86
35.87
37.09
37.5
40.12
46.12
50.52
52.16
55.59
58.82
62.12
62.64
110.06
138.98
187
198.26
21.88
27.29
36.15
45.61
54.47
56.68
63.06
66.64
81.1
87.9
96.49
105.23
109.27
110.01
111.22
112.71
16.53
23.77
33.82
43.8
46.53
58.5
58.5
73.3
73.83
74.29
87.66
94.82
97.63
101.75
106.12
197.05
4.56
21.9
22.52
25.75
40.77
42.79
50.57
64.16
68.4
93.97
102.12
102.63
123.59
125.42
132.55
166.4
7.75
18.52
19.4
27.04
33.18
36.64
58.16
65.46
72.47
85.64
89.93
114.81
126.85
138.15
139.66
155.46
27.43
29.96
35.64
37.51
43.73
55.48
64.36
73.03
76.33
85.47
86.12
89.69
95.48
102.86
109.76
185.49
8.55
26.93
34.13
38.92
41.16
44.34
44.53
50.75
54.25
56.97
62.99
65.85
98.47
181.01
184.81
206.15
26.31
30.21
37.37
38.21
42.14
53.9
57.97
59.58
63.7
72.04
73.94
97.42
108.69
116.67
160.09
168.29
16.99
19.6
34.75
48.89
61.55
70.9
72.27
74.62
81.68
94.13
97.21
99.19
99.52
104.85
110.56
134.81
20
42.12
47.54
61.24
63.58
68.58
69.13
74.79
75.83
76.12
80.96
81.03
81.57
86.94
99.78
198.17
6.23
18.84
28.41
39.74
49.68
65.64
66.06
67.71
71.06
77.78
95.21
108.91
114.14
123.14
129.24
166.47
18.37
33.31
37.69
40.28
46.25
51.27
63.39
66.42
76.86
79.17
84.18
89.61
98.28
114.39
131.45
197.84
14.92
19.1
28.86
37.77
49.19
57.98
67.76
77.44
78.33
95.02
97.14
101.91
103.56
117.96
124.63
158.27
30.99
35.06
41.5
41.76
45.38
48.96
55.98
56.95
60.63
78.27
103.29
104.38
104.95
114.1
126.52
188.59
8.9
30.63
38.87
42.47
45.23
50.6
57.36
60.52
64.36
67.38
88.7
111.81
136.12
137.27
151.32
154.33
17.67
24.19
35.87
44.95
47.39
54.28
57.96
68.28
73.08
75.08
89.98
99.31
130.13
131.03
140.24
156.73
8.85
15.14
19.79
31.23
50.78
51.75
70.14
70.69
86.76
94.37
99.2
105.49
117.34
135.71
144.59
154.81
20.35
25.74
40.92
41.35
47.12
48.62
50.48
60.31
69.44
72.68
91.17
123.64
132.05
132.96
145
161.65
17.27
30.43
30.7
31.06
39.85
43.76
45.43
50.99
67.97
69.16
71.84
79.15
92.03
144.34
195.19
254.44
24.43
32.89
39.59
41.21
46.9
48.54
53.26
66.5
68.81
81.27
82.33
82.46
126.98
129.03
151.24
188.88
32.62
44.13
55.75
58.01
60.24
63.52
65.44
69.75
72.27
78.14
94.68
97.11
100.25
102.27
127.07
163.76
12.2
17.57
40.35
41.08
42.01
47.73
65.39
65.59
66.14
69.12
69.78
92.38
95.54
96.35
186.44
285.3
19.99
20.38
29.26
30.01
58.17
63.76
68.34
72.79
78.85
89.95
96.15
99.26
100.37
122.08
138.51
207.48
14.15
24.59
43.43
53.74
58.5
63.44
65.86
76.98
77.86
78.37
78.53
79.75
100.48
125
133.64
228.19
11.23
12.39
18.92
29.13
32.01
40.89
67.56
76.08
92.77
108.92
109.96
117.22
121.14
148.82
161.61
161.87
26.62
33.34
39.23
50.4
56.68
58.39
63.52
80.98
85.23
92.91
101.29
104.03
118.85
127.78
132.74
139.23
36.06
36.35
39.24
42.17
43.28
58.17
71.74
88.61
90.28
90.75
108.04
114.58
116.42
118.37
124.98
132.6
20.76
30.17
31.37
36.37
39.41
52.01
56.15
57.53
59.52
75.86
86.93
90.13
91.55
158.24
181.84
254.6
36.91
41.71
45.52
46.91
48.29
50.2
50.67
50.92
63.48
66.45
80.09
100.7
139.9
143.06
146.74
213.75
6.58
17.01
29.41
39.97
44.59
56.48
60.86
70.1
73.32
102.02
102.18
115.94
124.25
129.19
134.5
225.6
27.9
35.31
41.31
41.34
43.39
51.92
55.42
60.66
61.5
104.1
111.33
126.38
126.58
134.27
142.48
168.94
5.79
21.26
34.03
44.54
77.44
77.62
79.38
81.27
84.76
91.52
93.98
123.07
126.71
129.89
135.91
139.09
16.44
18.92
31.42
33.04
40.05
67.49
69.73
74.52
75.01
93.15
94.81
100.48
104.68
156.41
175.87
195.95
23.32
30.04
35.37
36.7
53.26
53.82
61.54
83.46
84.16
99.07
102.38
109.5
131.44
141.93
144.42
160.42
47.36
48.81
49.2
56.84
62.32
63.94
68.72
73.36
75.13
85.87
97.34
104.25
107.94
109.29
114.18
186.79
34.33
37.61
47.56
52.06
54.65
59.95
61.75
64.85
72.33
88.99
91.65
98.52
111.98
132.65
148.99
195.67
40.36
42.35
44.72
52.28
62.59
62.7
62.81
62.97
65.04
71.9
78.46
86.21
102.61
109.63
183.66
228.17
19.5
33.58
43.16
45.97
59.93
63.34
70.16
83.64
87.95
90.93
93.55
94.68
101.07
147.72
154.47
167.44
31.74
38.6
44.33
46.59
52.56
54.92
62.41
68.93
77.79
103.97
107.69
111.46
113.77
125.92
134.98
181.55
44.87
45.14
47.41
55.18
57.7
57.77
70.23
70.94
71.55
78.16
89.46
97.25
133.63
142.44
149
155.59
17.68
32.63
59.36
62.8
67.89
77.45
80.03
82.56
85.91
96.04
96.51
100.46
110.2
117.96
131.12
157.26
8.22
47.83
50.79
57.25
60.95
66.51
69.79
77.23
77.84
83.78
99.76
105.44
109.61
144.78
154.14
168.77
37.89
42.8
42.96
47.82
54.8
61.27
64.04
76.18
88.48
93.27
112.02
123.72
125.12
125.48
142.2
146.4
25.13
25.86
48.91
54.85
58.95
78.82
81.57
86.69
87.5
90.03
91.24
119.67
121.45
125.81
134.11
154.2
30.84
33.25
35.05
36.27
38.2
41.32
44.47
64.83
77.31
101.89
118.35
118.6
122.64
147.7
151.41
224.43
18.77
36.96
40.25
66.05
69.3
80.64
88.65
93.29
99.91
104.39
104.99
105.37
106.86
113.27
118.08
144.03
18.11
43.13
47.3
57
57.45
62.26
69.17
91.04
91.64
97.62
102.84
118.94
119.88
127.93
133.59
154.9
28.11
31.86
39.91
42.8
44.96
55.31
61.98
64.47
82.27
91.21
106.5
119.44
139.04
152.12
170.09
175.96
17.32
33.66
43.72
53.74
61.21
65.17
68.25
68.5
90.79
97.53
101.49
118.22
122.24
131.09
160.08
173.89
18.19
21.61
31.34
48.62
50.11
52.95
59.09
60.83
61.34
107.16
107.91
109.93
111.38
143.58
213.04
217.53
11.17
28.62
42.12
51.81
58.74
79.04
86.79
93.88
97.68
104.32
107.71
117.93
128.7
129.87
138.26
138.57
13.06
22.09
33.9
39.33
46.39
77.34
79.86
81.34
83.07
88.22
110.09
120.89
121.7
143.97
148.97
207.46
9.98
42.04
45.48
61.89
64.7
71.45
78.84
78.94
86
88.34
91.79
102.45
116.3
157.94
159.06
168.83
20.79
31.45
35.59
38.39
57.86
58.1
59.3
84.69
95.75
103.31
120.44
121.05
129.94
132.64
143.27
201.43
25.23
32.71
38.46
50.92
73.15
74.9
76.64
78.96
82.22
84.17
86.4
100.55
104.35
109.74
157.44
270.15
35.2
36.23
49.96
52.3
53.52
56.34
60.37
81.45
82.13
86.18
98.73
132.03
140.82
144.21
146.57
195.84
4.32
15.71
26.36
40.51
41.53
54.29
64.83
66.89
67.94
67.95
85.61
88.34
99.97
191.72
201.88
335.22
30.3
39.71
44.2
54.88
59.62
70.19
81.42
92.8
99.23
104.72
107.64
122.86
131.66
134.52
136.03
149.5
18.19
27.85
36.19
36.79
70.05
90.1
90.54
96.23
96.72
103.77
106.99
131.72
137.71
138.65
141.78
143.12
21.81
22.56
42.7
45.81
48.68
58.03
60.85
84.01
86.5
94.06
114.05
118.51
119.61
139.41
173.78
242.7
13.57
29.16
34.15
38.17
56.48
72.09
79.78
87.93
90.66
108.72
121.75
129.91
135.43
143.68
159.69
173.12
16.91
16.97
35.74
52.93
54.52
61.19
62.68
72.75
77.74
90.57
96.94
103.98
105.43
159.4
184.02
287.12
28.37
29.57
32.33
36.3
37.15
45.7
54
57.48
81.2
87.17
108.37
127.91
131.02
135.27
242.56
247.52
22.83
27.11
49.27
53.02
62.28
72.12
73.05
73.08
77.1
84.18
94.98
119.74
140.54
144.4
163.72
232.07
17.28
24.69
40.79
49.62
54.65
59.17
62.89
74.01
78.65
91.9
97.84
117.88
125.19
184.08
189.88
225.39
12.77
52.44
53.88
58.52
62.48
63.47
69.51
73.25
79.02
88.08
100.9
102.96
144.92
174.67
176.92
186.14
11.26
28.32
50.31
51.27
67.86
70.55
70.86
79.75
80.27
90.78
100.38
100.83
120.49
136.79
180.91
261.09
21.46
26.38
35.67
52.19
68.82
70.01
75.57
80.76
86.96
100.84
102.16
114.8
117.51
137.32
145.58
265.85
10.91
17.93
36.98
58.9
62.58
64.11
69.87
76.28
83.4
86.26
97.49
112.76
119.94
123.82
191.09
289.96
32.18
37.93
54.07
59.18
59.37
63.02
67.68
80.07
83.87
85.63
91.9
94.32
113.7
114.65
228.28
241.41
31.68
33.06
42.64
49.12
53.62
60.17
64.67
70.2
76.88
95.25
99.54
121.42
126.97
143.98
156.69
290.64
19.79
32.72
33.7
61.53
73.94
74.99
76.15
81.44
81.94
84.81
113.36
116.97
130.18
153.63
173.1
216.85
10.7
48.31
53.56
53.85
58.84
68.71
82.51
89.9
91.61
100.58
106.1
123.54
125.47
130.6
175.23
206.63
8.67
33.44
36.16
40.31
45.88
50.64
59.47
59.5
84.05
84.38
90.4
114.21
124.95
204.1
242.45
249.33
15.43
40.55
46.9
49.19
61.75
78.23
86.74
87.6
102.79
104.97
119.86
124.32
134.69
141.4
167.92
177.95
22.19
44.98
48.8
58.94
58.95
63.64
69
73.65
86.07
110.23
113.95
121.32
128.26
139
139.17
262.58
15.46
26.3
32.58
52.78
56.99
60.81
65.7
94.58
98.64
100.23
127.98
129.69
135.36
139.57
171.68
234.65
18.27
21.86
39.37
40.06
46.5
54.25
81.92
90.6
105.7
106.25
115.09
126.35
153.24
156.76
162.38
229.71
23.38
32.54
32.58
40.82
49.07
75.45
82.18
89.9
99.43
106.89
121.23
134.11
159.9
163.5
168.79
170.92
34.44
34.83
50.14
74.71
78.5
81.14
82.17
86.15
87.89
91.65
91.75
93.17
98.58
137.11
178.73
260.22
10.66
10.69
45.4
49.09
63.25
64.26
68.09
70.41
83.17
98.97
99.84
131.14
133.25
178.09
226.24
230.52
7.2
17.08
39.4
52.17
54.22
55.3
58.92
60.61
64.37
67.45
120.64
123.49
174.66
186.78
220.45
268.64
38.36
43.72
45.45
48.51
72.26
79.95
88.99
92.08
93.39
98.16
98.17
108.98
129.02
159.19
181.29
194.39
20.82
26.03
42.93
53.38
56.35
63.18
67.42
88.12
90.91
110.76
115.96
129.7
138.64
154.62
160.31
252.83
34.06
42.67
46.05
47.76
49.01
63.93
90.02
93.94
97.28
101.56
108.32
140.27
147.89
164.98
171.05
175.35
19.82
40.63
45.54
58.52
67.4
85.69
86.47
88.5
90.75
90.96
103.31
123.2
142.47
161.77
175.88
193.46
27.94
30.82
41.67
53.45
53.93
62.67
68.73
71.09
77.84
82.02
131.63
139.5
151.2
159.82
198.38
226.52
30.3
32.15
52.52
64.83
72.1
84.09
92.97
104.91
109.91
114.53
116.07
121.68
122.72
129.53
167.38
189.08
34.92
60.47
65.07
72.01
75.61
86.49
90.99
92.25
104.66
104.93
104.97
109.11
110.44
149.19
160.59
183.28
24.32
32.55
33.01
43.85
46.05
63.18
65.82
87.3
89.86
101.38
105.87
111.64
140.49
152.5
200.57
307.83
18.3
22.83
35.81
36.24
78.86
79.28
96.27
101.32
104.47
115.34
118.82
121.62
145.1
145.29
183.57
203.16
16.38
38.92
45.68
53.62
54.82
62.19
77.55
86.32
109.09
111.27
126.68
128.45
147.3
158.33
172.86
217.57
30.95
34.27
39.14
45.3
57.53
61.98
75.96
103.04
104.84
115.74
121.2
140.03
142.98
158.3
173.54
205.1
12.81
27.58
30.08
32.51
55.92
59.98
88.56
89.66
90.86
97.39
135.47
141.54
149.38
159.49
179.89
268.14
22.85
34.61
42.16
55.99
64.32
78.39
89.63
96.22
96.76
110.27
112.1
124.27
129.47
130.9
206.42
226.31
30.59
56.58
59.16
59.99
70.44
73.13
78.73
79.65
84.49
100.56
105.62
108.33
113.53
169.91
173.88
258.54
35.53
38.58
38.84
49.27
57.06
57.4
59.11
74.48
84.95
93.42
104.07
129.08
139.22
179.77
210.62
273.28
25.84
26.45
50.31
56.54
62.95
64.65
66.05
86.19
92.53
100.6
113.95
118.39
125.91
152.67
178.84
309.53
36.12
38.58
39.64
59.52
63.64
77.89
79.12
94.17
105.32
121.32
124.78
128.99
141.05
143.38
191.15
193.18
13.7
41.54
50.7
67.53
69.93
72.27
80.36
87.1
87.51
91.78
93.14
121.95
156.87
158.9
161.89
282.83
47.26
48.26
54.82
55.42
64.39
65.27
85.05
86.25
88.35
94.41
95.42
118.92
127.64
138.67
216.99
270.92
26.18
29.83
63.06
64.26
76.95
84.42
96.15
96.32
97.52
101.76
109.57
112.52
124.43
172.86
197.81
209.67
33.61
38.08
43.58
44.72
55.65
57.26
68.05
75.89
91.39
125.67
140.81
150.79
156.9
173.4
199.75
223.51
25.8
26.13
41.88
45.98
48.03
66.76
71.68
98.76
104.27
122.2
138.81
140.43
143.04
146.1
168.69
291.18
28
31.47
51.27
83.95
86.72
88.02
92.17
94.99
100.32
101.59
122.39
126.27
130.82
136.1
140.77
265.56
30.55
41.68
50.01
66.67
68.05
70.52
70.86
72
90.56
100.88
110.43
126.8
138.74
150.87
214.07
278.03
10.36
43.92
49.64
52.43
56.61
60.21
90.82
103.3
110.4
127.46
139.65
140.71
151.46
177.35
178.39
191.23
38.02
44.34
61.65
71.93
72.79
82.74
96.12
97.71
108.38
109.92
110.79
113.76
115.9
130.68
137.84
294.1
36.07
39.16
50.67
62.86
63.78
65.75
73.23
89.4
95.08
97.46
141.38
150.67
152.12
175.08
187.33
207.49
15.7
41.63
51.64
61.27
61.29
61.74
68.28
74.35
75.62
93.27
101.15
109.75
139.54
217.73
225.83
289.9
30.24
39.39
44.26
45.06
49.29
54.4
67.77
73.59
79.34
82.74
106.76
134.99
170.45
201.86
225.5
284.52
27.03
34.38
45.49
45.62
49.01
49.48
70.51
78.97
84.21
88.26
89.42
104.5
165.96
193.06
199.02
367.66
44.78
49.95
58.47
58.77
61.46
61.73
77.12
82.25
89.02
104.79
119.17
138.21
170.79
180.46
195.68
200.07
10.14
11.14
19.89
26.99
57.86
87.17
87.36
90.55
97.84
106.8
113.45
114.63
116.65
183.27
248.87
341.92
39.72
44.38
49.05
59.42
60.85
62.61
75.03
88.03
96.3
108.59
119.64
153.32
169.91
173.03
189.46
225.22
18
50.7
58.64
74.13
83.05
91.6
94.04
94.91
105.92
116.53
120.41
145.61
147.12
150.23
183.7
193.66
20.48
31.44
36.53
51.41
56.33
78.02
83.9
86.27
87.03
146.98
156.52
157.36
162.63
164.28
194.25
216.93
31.29
45.58
64.55
70.59
71.6
80.15
88.46
99.52
117.12
127.11
128.81
137.48
164.13
164.4
167.3
178.67
55.43
60.23
66.84
72.15
74.85
88.34
88.38
109.68
114.71
120.4
121.4
122.7
139.2
139.84
154.87
208.57
35
37.93
64.52
80.04
82.09
99.38
110.91
114.24
123.06
128.68
130.76
131.98
132.18
145.78
158.18
163.34
27.75
32.04
50.87
57.97
58.48
58.54
60.28
109.75
110.3
131.31
147.23
149.86
163.04
174.79
200.06
213.55
12.91
30.92
49.54
63.66
78.4
78.85
82.27
89.6
93.09
93.31
109.78
158.28
181.25
185.48
227.43
234.48
40.34
52.27
57.24
61.31
71.14
82.42
83.32
86.62
96.02
102.15
133.72
151.95
163.38
169.47
170.6
249.67
31.52
58.76
59.54
61.28
66.18
78.46
107.81
108.27
109.94
111.63
138.16
145.52
153.64
155.47
177.33
211.7
22.3
30.86
40.62
44.68
46.45
60.08
67.7
83.03
85.61
92.67
103.07
135.34
184.24
254.24
260.69
270.98
33.35
45.54
48.46
61.33
74.49
87.03
91.01
104.95
112.15
122.98
128.86
131.75
136.59
161.29
188.32
257.61
30.36
32.36
55.83
57.39
57.7
72.44
84.29
86.89
92.35
116.17
147.38
156.32
175.26
187.11
190.12
245.15
9.14
24.15
40.53
54.92
59.25
76.77
89.36
94.99
95.83
103.29
122.84
147.61
153.71
176.3
237.22
304.27
49.59
56.73
84.85
93.44
96.87
99.91
103.08
103.9
107.15
111.38
111.72
117.22
138.27
139.36
172.59
217.15
35.24
41.18
45.61
60.22
66.27
80.03
86.16
92.17
93.66
100.07
121.45
140.31
147.98
157.89
172.48
367.07
24.22
30.7
46.83
50.11
55.28
76.65
102.62
107
112.63
113.41
122.12
131.39
184.21
204.44
212.48
234.86
47.9
50.41
58.86
62.78
65.13
80.78
83.23
89.48
113.07
125.7
128.43
159.99
163.4
177.81
193.36
209.18
43.7
60.38
67.07
80.87
81.24
86.3
88.47
102.43
110.75
114.92
116.25
124.53
127.61
175.48
190.74
242.78
20.39
20.75
34.15
40.56
44.17
62.65
85.25
89.51
102.32
146.6
153.84
156.03
191.57
193.73
221.84
259.47
31.08
39.08
61.89
66.27
73.26
73.46
78.78
101.21
111.11
114.65
128.68
155.16
158.32
182.75
203.66
247.45
13.47
51.98
56.95
65.95
71.72
74.57
81.06
109.25
128.31
134.02
139.43
141.28
152.44
154.96
215.82
236.58
28.87
48.74
57.38
70.48
72.6
84.86
92.35
92.86
98.23
116.66
128.14
135.22
154.21
176.9
227.4
250.64
34.31
53.46
58.07
61.36
69.01
69.76
79
90.2
112.3
118.49
137.96
145.82
197.6
200.44
201.73
208.1
32.01
43.07
59.02
59.6
69.83
83.2
104.47
108.65
133.91
134.34
135.08
160.61
162.32
168.4
185.48
202.78
36.63
46.83
51.69
68.36
69.11
82
92
102.87
107.04
109.34
117.64
129.77
134.59
164.56
224.72
310.07
11.07
34.95
48.99
62.69
64.58
67.87
90.64
92.48
109
129.2
134.2
148.24
162.21
173.9
219.96
297.93
17.93
35.01
52.05
64.7
95.32
98.04
124.38
130.14
134.35
138.21
138.22
142.36
143.74
167.24
176.91
202.88
24.56
32.04
46.75
59.37
63.25
64.4
87.45
87.75
111.72
141.97
144.71
155.55
177.28
180.66
217.41
273.5
35.97
41.62
41.76
53.29
53.85
70.99
89.18
101.74
137.78
138.87
144.28
144.52
162.95
173.51
191.34
301.83
52.63
61.99
77.77
83.99
91.57
94.06
101.73
109.58
112.41
140.23
140.3
161.73
162.4
162.73
169.72
177.99
23.38
27.77
29.8
56.18
66.71
67.57
115.19
119.89
127.57
128.72
138.4
142.09
181.81
196.44
225.2
276.76
33.82
37.36
44.25
46.71
68.38
90.4
98.02
103.44
111.68
121.3
145.24
161.72
187.99
203.28
205.78
267.88
36.53
43.33
54.02
60.48
75.85
102.66
106.09
111.24
125.42
128.71
154.89
162.24
164.95
167.2
222.69
222.88
18.58
38.66
41.5
48.4
81.55
83.48
87.96
94.01
98.04
113.65
140.51
149.17
203.13
212.99
232.93
295.11
35.42
44.39
57.23
66.03
68.47
74.29
116.04
120.62
130.13
135.56
146.02
163.84
187.81
188.48
200.45
228.94
47.16
54.27
66.7
71.5
100.69
104.21
105.64
116.86
117.13
122.83
124.46
124.85
140.27
168.57
208.4
300.89
29.58
70.4
73.23
80.73
99.6
101.26
101.34
115.41
122.59
131.39
132
137.52
152.07
180.79
220.9
231.95
11.45
55.19
57.67
60.32
88.26
91.76
91.87
93.68
97.47
107.39
154.05
156.94
157.58
165.46
195.4
398.72
15.17
17.59
30.34
41.15
75.46
78.23
110.32
115.75
126.86
149.66
158.98
174.66
175.21
204.17
209.55
303.04
21.43
56.78
57.56
60.84
81.37
83.64
84.13
101.73
124.14
139.2
155.36
161.21
193.64
198.18
232.04
238.23
24.52
43.45
58.53
66.17
70.96
74.44
82.59
92.77
112.26
156.37
157.15
164.28
184.97
204.71
245.76
253.85
16.49
28.99
40.53
74.28
96.65
103.41
118.32
118.73
130.58
145.71
145.79
156.55
156.78
168.08
221.65
270.86
42.3
57.16
60.28
70.13
77.12
83.7
93.07
110.01
117.89
129.38
140.53
141.95
160.67
213.74
244.21
266.91
23.77
40.94
52.59
58.31
62.6
62.85
66.05
85.5
115.51
117.75
157.51
170.49
194.82
208.91
267.68
324.87
47.93
53.03
68.89
78.41
90.68
102.79
103.4
109.37
109.58
110.32
121.25
140.3
172.35
183.47
224.13
296.13
15.42
42.3
44.53
52.34
80.04
87.95
94.27
116.93
126.52
144.98
154.93
200.78
212.93
215.27
219.31
219.76
9.24
45.56
50.93
62.19
63.81
67.49
82.65
91.44
94.58
138.08
146.06
164.65
212.33
217.72
224.78
357.8
20.75
62.42
63.92
89.53
98.13
101.95
104.92
105.9
107.99
119.91
135.87
138.15
144.73
214.72
217.17
316.25
27.42
37.16
43.01
58.35
63.18
88.37
100.96
102.78
106.69
143.54
145.26
156.35
165.55
169.39
225.39
409.4
13.42
36.58
86.91
89.36
97.87
102.17
109.26
117.36
122.24
136.95
144.75
174.92
188.64
192.83
194.96
247.77
29.18
48.61
50.72
66.14
101.6
102.37
112.02
116.57
136.5
140.2
157.65
169.42
170.98
189.56
232.46
235.8
24.39
48.39
56.25
69.58
76.96
82.79
108.93
112.22
115.39
133.93
134.03
152.59
152.74
181.06
270.13
340.91
25.68
47.97
54.78
70.29
72.26
83.44
89.03
96.99
130.6
135.06
144.37
174.1
176.52
177.87
209.33
374.59
18.41
38.69
44.39
48.82
58.11
85.46
100.45
119.35
121.09
151.13
162.4
190.61
211.09
234.18
234.37
246.68
28.98
39.65
48.83
66.7
70.45
92.21
92.22
96.41
117.55
119.08
166.86
172.15
178.87
231.62
238.85
310.39
53.82
59.48
68.18
71.96
72.06
80.5
88.33
102.84
117.18
117.35
128.53
175.65
209.33
211.32
255.51
260.1
4.15
28.42
58.97
64.86
68
91.02
115.45
117.83
124.63
131.89
150.52
166.81
191.3
208.16
210.03
343.08
60.01
60.58
76.53
77.3
86.17
94.13
97.33
122
129.34
142.27
149.2
156.51
176.01
189.01
224.28
245.31
20.82
48.23
88.65
93.77
93.93
95.44
96.84
110.03
110.77
126.73
131.77
168.83
193.9
200.21
203.51
313.77
29.05
70.62
75.41
79.55
80.73
96.93
114.95
131.6
143.88
145.55
145.56
170.49
173.58
176.61
177.85
298.72
42.93
53.33
57.78
72.17
77.27
78.49
78.76
91.81
102.26
139.08
196.07
198.62
206.33
212.11
221.8
284.74
18.72
57.05
58.38
91.18
115.55
118.78
124.73
125.63
131.05
132.35
134.76
141.87
187.65
203.89
211.37
264.36
35.76
49.54
70.78
73.27
74.16
108.04
114.13
122.15
134.55
145.49
164.24
171.45
186.52
213.28
219.24
238.91
54.15
55.04
55.05
70.58
81.46
93.84
94.76
105.21
111.39
126.7
138.47
182.54
218.24
218.53
249.05
280.48
14.41
51.43
54.36
54.67
62.4
88.49
92.84
108.73
113.91
130.01
131.6
150.41
216.19
271.4
279.29
318.62
44.16
47.15
69.97
87.98
93.31
95.09
99.33
106.46
124.48
128.27
153.9
165.91
169
178.9
192.13
392.22
16.69
34.95
48.46
72.26
78.62
109.66
128.77
150.44
155.61
156.9
175.55
182.39
184.71
201.03
201.6
259.74
8.2
29.63
81.66
82.68
87.99
99.01
125.75
147.98
148.1
157.65
161.55
163.88
180.26
193.78
208.22
281.42
30.43
42.86
59.75
67.05
83.2
89.16
99.17
100.15
104.18
125.68
148.78
164.79
213.54
228.5
291.82
308.93
54.17
70.74
76.93
89.61
104.44
108.54
109.75
113.93
115.56
139.96
156.05
160.26
166.16
172.33
190.06
330.09
39.59
55.81
55.98
58.17
58.24
68.37
94.13
116.01
123.04
133.88
138.75
158.64
219.26
233.16
254.02
355.77
42.31
44.39
53.12
58.81
90.1
93.11
97.76
104.15
147.98
149.36
172.62
183.44
204.92
225.4
245.22
255.3
30.39
50.05
85.84
94.02
94.43
106.26
119.55
119.7
131.5
139.88
156.64
171.05
178.41
200.63
206.39
284.85
56.47
60.33
68.97
72.28
81.99
96.09
98.73
101.12
112.22
141.62
149.06
155.65
180.48
184.45
193.66
423.48
30.11
31.29
53
59.84
83.64
90.27
108.73
111.62
124.3
126.71
132.32
185.86
192.66
264.79
268.55
314.38
31.66
55.38
86.59
87.13
92.13
93.79
101.54
118.81
145.5
157.87
166.03
167.52
190.23
190.89
202.73
291.09
8.05
31.88
37.9
48.32
56.67
61.16
85.86
86.16
147.31
161.5
167.77
179.7
192.88
281.11
303.49
335.8
48.02
55.38
55.97
62.17
68.9
69.62
85.36
108.75
134.11
157.1
168.12
175.9
177.18
225.91
294.1
303.2
21.47
37.18
50.64
66.07
82.37
85.96
99.94
121.41
125.86
151.33
162.99
192.17
222.4
241.28
263.48
271.88
76.95
81.2
95.92
96.97
99.71
106.39
119.38
121.91
127.29
133.13
151.65
154.36
170.41
203.16
213.24
258.01
72.16
74.1
77.97
79.5
83.22
99.38
108.38
111.76
117.19
118.36
123.28
140.62
182.85
186.34
295.38
347.19
8.64
26.4
70.77
75.12
76.69
81.37
87.91
94.31
109.43
114.67
153.7
190.89
220.01
260.57
279.37
369.54
32.48
39.08
47.72
73.47
81.79
94.24
96.16
120.82
163.7
172.52
195.9
196.23
203.56
207.18
230.8
278.06
41.01
54.81
58.08
105.9
108.85
113.81
122.34
123.78
132.77
136.35
167.06
167.22
204.67
207.78
220.07
280.42
40.02
45.14
56.55
78.02
84.24
108.85
121.94
132.45
140.33
152.81
154.5
166.18
173.8
191.65
240.72
360.93
38.41
68.21
74.45
84.03
86.9
92.51
99.47
99.6
104.5
113.94
126.93
166.09
233.04
236.24
256.13
382.81
32.38
66.4
89.38
97.85
100.81
104.1
113.41
116.32
118.81
137.94
139.28
147.65
155.64
239.3
259.81
348.01
47.06
59.03
64.82
72.88
79.88
82.97
86.56
108.95
123.97
143.94
181.5
182.83
205.91
243.07
263.58
325.78
38.3
67.97
70.02
86.71
97.9
102.96
111.2
116.81
117.39
128
160.34
181.47
187.87
235.86
241.06
332.32
31.41
40.89
41.06
58.5
77.78
81.32
95.89
105.77
113.83
170.26
188.82
192.28
225.55
277.19
292.96
293.53
70.71
73.71
86.96
89.77
90.53
94.6
100.14
104.01
129.38
148.9
158.76
186.79
190.74
198.1
217.4
348.42
40.01
45.16
45.63
67.54
67.71
74.75
95.5
112.64
127.58
154.47
178.98
207.15
214.86
219.4
254.03
387.17
38.5
47.77
53.72
63.36
105.88
106.38
107.82
111.52
158.26
167.37
175.21
194.68
197.84
233.68
254.26
294.77
23.84
53.06
77.65
85.66
86.25
105.73
130.14
137.41
144.92
157.13
162.32
179.1
187.46
212.13
242.1
348.2
23.79
42.06
52.03
74.85
95.86
109.54
134.38
137.5
141.42
141.58
171.62
178.94
181.43
209.31
210.18
432.28
20.88
39.85
43.95
64.22
78.27
116.29
130.72
148.71
155.29
168.51
172.59
176.04
188.39
228.31
258.87
368.01
49.98
63.66
65.25
67.47
78.65
88.32
90.29
114.44
153.58
155.91
165.6
225.21
227.62
232.62
268.55
311.97
17.27
49.08
58.57
75.71
95.46
96.2
104.04
108.95
113.56
119.02
167.78
181.6
228.5
286.01
318.49
347.13
50.33
64.22
76.44
81.63
100.28
101.16
123.56
135.24
141.12
181.39
184.62
190.12
202.99
242.55
252.96
283.11
29.28
37.59
58.1
90.56
96.16
105.49
112.84
118.64
132.84
144.65
157.31
166.29
215.99
250.22
326.04
378.97
65.31
74.25
92.61
105.23
106.12
110.01
110.45
127.29
141.88
154.62
182.76
183.35
205.3
219.17
250.35
307.31
64.19
72.74
78.28
78.65
93.34
150.6
164.48
166.05
168.06
170.76
188.21
200.6
204
206.32
223.96
226.01
27.68
37.07
53.32
73.67
74.03
96.53
111.9
115.87
133.68
159.98
176.75
193.56
270.56
288.76
304.61
342.31
21.13
48.82
68.57
74.16
98.67
117.96
146.98
153.72
167.16
170.51
172.7
185.9
188.79
223.11
312.17
332.17
8.09
45.55
47.18
53.85
59.29
67.78
75.35
104.48
127.07
188.64
196.89
207.51
226.25
303.75
370.56
405.24
43.6
44.63
92.51
93.75
111.33
117.71
141.42
148.98
150.38
152.89
169.11
186.5
190.11
195.46
310.83
341.75
33.25
56.51
60.19
69.74
71.74
73.14
79.12
108.49
135.47
137.87
143.7
155.44
164.94
244.63
436.25
526.86
23.51
59.78
64.83
79.49
91.86
100.47
119.87
120.29
128.84
176.07
199.95
231.74
248.17
260.87
285.26
329.92
57.33
58.61
77.2
92.2
111.97
122.81
128.32
128.58
154.45
165.45
166.98
202.74
214.35
272.11
274.82
306.78
30.85
43.52
58.17
62.76
72.6
72.79
102.65
107.44
119.66
144.23
159.76
164.29
259.79
266.41
300.83
570.91
27.15
37.55
56.73
82.57
106.48
141.01
143.22
147.61
168.48
173.81
184.95
206.06
207.98
226.33
301.1
338.63
48.74
51.29
68.13
72.28
73.84
74.45
82.32
139.83
141.05
168.66
200.62
224.57
235.7
266.91
310.29
393.82
25.8
33.28
92.2
105.1
115.06
122.1
134.69
149.94
159.99
171.62
176.18
181.72
215.63
225.65
240.53
437.96
28.81
38.17
43.29
92.43
100.25
100.33
101.28
102.28
103.62
160.63
187.34
220.28
229.53
289.76
313.97
502.69
39.1
71.28
75.3
75.68
91.09
102.49
105.14
163.3
166.1
167.8
169.55
211.42
242.41
244.92
286.07
411.63
48.64
49.29
67.22
68.98
81.04
114.93
115.77
124.08
143.15
203.34
223.72
230.75
234.74
239.06
312.66
383.73
27.27
37.87
97.01
97.71
99.8
116.82
138.07
139.04
160.72
162.39
166
186.85
228.49
267.8
310.71
414.72
30.64
48.11
125.47
134.33
143.91
145.73
149.36
153.74
158.47
186.78
196.07
218.58
221.03
241.24
248.21
256.27
25.55
39.85
49.95
63.48
84.08
85.84
109
114.59
125.9
132.19
183.47
200.73
233.61
323.39
393.58
499.64
23.64
60.01
81.7
90.92
95.12
118.07
120.78
125.52
154.69
182.66
185.99
254
265.25
276.41
290.78
343.19
52.69
63.44
83.82
86.14
101.79
111.89
120.4
134.15
156.19
157.81
193.34
198.75
223.51
314.61
323.65
346.61
23.95
31.08
74.58
87
102.96
124.45
128.57
152.85
173.03
203.91
204.57
241.39
275.9
276.49
276.52
298.9
79.83
92.04
97.88
108.98
116.05
126.06
127.25
152.41
157.86
158.41
174.43
178.39
193.41
215.67
274.61
435.97
21.8
45.1
57.77
62.13
63.53
67.48
106.21
117.08
134.38
155.11
252.61
272.4
283.45
293.53
331.6
448.45
13.32
50.36
71.53
96.49
118.8
131.39
137.29
141.88
179.15
180.03
187.38
207.06
247.38
259.85
310.02
394.06
54.45
58.83
72.84
77.53
88.41
106.42
120.96
132.83
209.23
219.63
226.82
239.37
251.88
261.84
279.93
330.85
41.21
67.98
77.71
79.92
120.17
129.69
137.49
138.19
143.12
145.8
149.21
166.77
167.44
255.62
394.6
519.19
68.81
70.7
71.35
91.24
97.68
98.27
98.33
106.91
118.25
163.54
200.21
223.72
224.58
282.72
351.31
467.54
57.77
67.78
91.39
107.03
116.81
128.73
151.44
158.72
169.98
178.75
197.4
219.77
228.69
283.75
288.84
302.26
36.61
45.32
83.94
88.12
91.35
124.53
142.54
144.14
149.39
153.08
172.93
173.79
238.73
292.9
298.69
521.4
41.5
70
81.76
114.76
140.19
154.57
184.66
193.17
193.84
206.18
208.24
217.34
225.37
225.71
230.93
283.21
16.52
56.07
59.02
76.43
81.09
98.15
102.77
138.28
176.76
185.12
260.09
267.75
272.84
313.04
338.68
354.81
16.83
36.84
72.94
93.27
97.24
125.74
143.61
148.82
166.08
183.24
188.99
190.44
263.23
269.26
312.71
493.07
18.07
19.76
40.56
100.13
132.87
136.39
142.44
143.35
147.22
163.81
176.79
273.78
295.18
299.19
320.46
427.41
10.27
34.8
78.47
86.1
86.72
118.16
133.47
146.63
155.19
158.98
184.72
225.48
261.91
331.36
391.91
433.8
54.37
68.61
88.7
98.47
101.26
107.2
111.15
112.79
124.59
135.31
160.52
169.75
201.95
376.89
464.22
470.84
31.39
48.9
66.4
67.46
74.58
123.01
139.59
164.82
180.2
197.26
213.43
219.58
243.59
299.68
354.83
422.11
45.15
53.78
77.68
92.41
97.37
144.74
164.52
198.22
209.71
217.7
229.07
235.98
266.79
268.37
268.88
323.07
56.27
103.95
116.86
124.61
124.96
132.01
135.56
145.81
155.46
160.26
164.56
202.99
269.77
274.74
366.83
422.69
26.95
28.86
86.13
101.38
102.91
104.46
130.97
166.55
167.18
207.42
237.39
275.78
276.31
316.16
340.14
389.13
39.95
54.4
87.37
97.55
116.58
117.21
136.36
149.3
160.55
162.4
185.83
200.63
215.19
230.95
363.47
745.71
89.29
94.18
96.95
111.35
127.51
140.88
153.01
179.77
186.36
229.43
234.69
243.84
255.57
271.38
313.16
342
36.95
47.04
67.22
85.39
96.37
121.5
150.31
150.57
171.31
203.34
218.95
224.48
308.24
350.75
408.76
475.15
34.54
81.18
82.53
105.74
114.85
129.56
137.81
148.8
150.16
157.88
210.95
275.17
300.25
336.45
349.19
520.28
52.46
56.34
74.45
112.95
126.7
145.02
150.98
168.49
222.62
226.48
245.88
246
303.04
315.64
332.4
358.71
52.25
74.64
84.85
135.65
139.8
151.24
161.17
167.26
186.47
223.24
226.21
239.35
259.9
279.74
315.93
459.73
78.79
89.55
99.92
160.45
164.56
173.61
182.84
193.77
198.77
210.92
214.73
227.57
244.07
274.77
321.68
346.88
59.12
100.33
116.3
121.76
135.98
139.41
147.67
175.72
188.52
210.8
249.97
264.78
276.66
291.46
327.81
381.57
53.28
75.36
100.5
101.92
138.59
154.07
162.33
185.65
200.67
202.19
232.96
277.46
304.69
310.15
351.7
355.92
73.27
80.07
93.55
94.52
110.98
159.58
161.31
174.41
202.4
203.04
203.42
213.03
274.3
277.52
436.29
481.35
53.62
54.48
121.47
125.88
133.58
135.58
177.37
189.89
237.08
239.78
241.8
242.32
255.87
304.18
330.93
395.62
51.76
62.25
93.75
97.8
106.1
109.1
128.02
143.75
147.53
156.08
178.55
229.85
236.67
282.31
521.25
725.57
71.42
75.81
110.92
114.8
123.51
132.63
139.49
145.25
152.36
159.81
169.03
195.22
228.85
385.14
460.95
615.2
73.93
91.65
104.95
105.67
107.55
149.57
173.32
176.46
180.94
222.74
256.78
306.94
310.81
315.82
347.88
380.78
84.98
112.84
116.88
135.89
145.7
148.93
158.43
185.34
224.33
232.21
241.79
242.26
300.27
304.95
354.01
363.03
111.44
118.73
128.85
139.87
145.11
151.13
164.37
187.23
192.57
230.42
246.6
251.78
261.93
297.88
306.64
448.45
68.57
77.07
81.9
84.08
98.76
122.2
140
168.84
204.38
229.64
250.8
261.56
295.53
386.14
440.05
477.69
64.29
95.71
101.76
121.46
127.48
140.71
156.65
209.17
233.56
238.25
264.81
308.3
311.71
317.08
333.1
402.32
44.69
45.84
105.96
111.84
122.15
142.6
153.27
164.97
187.85
205.03
216.92
218.39
243.1
302.8
512.84
676.27
40.72
58.72
90.09
114.49
114.53
150.98
153.6
165.69
215.96
275.02
299.35
303.55
312.62
347.31
382.01
440.69
48.43
92.08
123.83
124.77
128.25
152.59
155.83
192.05
210.88
240.62
243.19
244.31
326.49
341.43
355.94
504.89
59.05
85.04
107.62
115.19
140.49
161.71
176.65
186.12
217.11
233.96
256.28
260.87
266.07
281.92
389.67
549.77
62.76
90.81
102.85
139.13
146.02
153.7
159.83
179.86
181.15
237.26
238.11
254.37
273.4
374
414.78
484.88
54.32
84.53
102.42
113.73
113.88
128.69
137.22
154.2
176.15
233.77
267.15
274.65
367.54
398.87
405.99
494.91
68.49
73.84
85.86
110.63
118.33
139.22
189.09
195.14
211.07
259.51
283.98
284.37
315.24
330.95
446.2
501.5
57
94.41
119.11
158.19
165.15
174.35
194.31
216.1
219.17
231.81
238.31
247.75
251.77
272.72
347.27
645.61
44.74
77.94
97.88
111.76
114.39
119.22
153.59
159.87
177.22
197.73
203.66
229.78
340.44
408.64
571.1
659
45.43
82.73
88.56
128.5
130.86
162.5
221.04
222.35
260.86
271.74
272.12
283.34
339.98
354.88
389.21
414.68
70.75
99.23
122.05
122.18
152.59
157.15
184.67
197.09
211.99
277.43
311
317.06
320.35
330.9
367.08
428.79
87.85
105.96
121.9
126.28
146.56
162.87
166.72
176.78
189.28
205.59
228.38
288.93
302.24
395.91
430.43
543.37
67.65
83.81
83.97
87.41
132.84
160.62
169.76
185.15
227.05
232.87
236.32
272.03
352.41
452.33
465.81
507.4
19.82
25.99
58.28
99.87
103.36
138.1
143.79
146.89
208
231.56
310.28
315.17
315.53
319.85
527.64
763.59
41.95
83.42
94.72
115.6
129.65
162.57
188.4
189.39
203.82
267.85
279.46
314.05
376.61
388.74
417.24
479.32
87.5
122.66
127.14
133.66
140.42
150.25
176.79
186.3
186.75
224.07
251.56
299.5
399.92
404.52
415.79
476.36
63.41
66.9
74.93
129.99
135.79
162.49
244.37
269.09
274.45
279.17
279.82
302.51
305.93
387.25
388.32
441.78
65.11
71.9
111.45
135.72
143.58
161.74
197.36
198.45
264.97
278.27
278.51
333.13
337.16
350.9
373.76
508.98
31.75
111.99
113.77
120.76
180.34
210.82
216.11
219.1
220.69
228.31
231.34
236.74
237.96
301.08
421.92
886.8
22.85
72.69
127.56
140.73
143.93
149.44
197.19
204.65
241.24
270.81
274.9
284.86
334.22
479.28
536.56
561.1
33.49
91.86
119.93
160.02
191.5
206.48
220.28
241.86
252.48
277.16
295.62
311.6
338.19
363.2
384.25
599.01
62.2
83.61
135.24
165.04
172.83
189.52
190.36
233.45
242.39
268.78
304.35
322.33
343.65
413.73
478.45
487.55
101.92
119.22
139.73
140.4
161.04
176.91
192.32
195.46
219.31
233.62
262.37
331.72
355.42
376.54
505.58
588.63
66.27
108.58
118.56
140.85
149.52
154.1
164.89
204.15
221.64
298.07
305.17
374.7
385.87
400.44
470.1
641.93
92.6
125.3
152.77
172.21
178.56
180.6
199.25
217.31
240.59
252.09
256.85
294.12
317.85
408.51
563.54
574.73
48.58
57.87
106.8
110.35
150.51
193.9
229.84
263.99
282.21
285.15
388.57
396.42
407.63
429.03
429.45
508.51
28.12
57.72
88.61
103.55
117.25
173.87
243.63
273.43
303.13
339.02
355.3
378.79
443.11
454.07
455.21
485.42
57.94
72.26
80.51
101.28
135.54
180.94
185.78
191.27
253.82
254.51
324.74
376.07
520.58
532.51
628.53
715.43
96.09
118.23
130.04
159.57
215.18
223.18
239.87
258.43
271.87
273.32
288.61
385.74
452.67
454.02
465.35
582.94
75.08
75.8
88
135.03
171.07
198.49
207.8
249.41
334.37
352.2
365.52
403.43
481.85
490.31
495.18
727.15
103.37
110.27
150.85
158.18
160.61
184.93
290.86
342.02
364.67
370.64
375.49
377.3
550.31
552.41
554.17
750.62
106.32
126.72
127.72
165.42
166.69
214.66
224.54
226.22
384.72
402.01
429.92
451.11
601.24
673.8
692.69
1132.77
