1.97
2.28
3.26
3.64
3.65
4.23
4.32
5.02
5.2
5.3
5.77
6.24
8.93
9.68
9.98
10.59
2.99
3.42
4.91
5.8
5.97
6.31
7.29
7.64
11.72
12.12
12.62
13.18
14.43
14.7
15.46
16.69
2.21
2.25
3.19
4.11
6.6
6.82
7.18
10.11
10.2
12.29
15.11
15.64
16.63
17.65
20.45
21.17
3.95
4.47
4.97
5.87
6.84
6.84
8.32
8.72
11.74
12.33
12.42
20.93
21.36
22.01
22.6
39.65
2.68
6.59
7.07
9.28
11.35
11.65
11.96
12.53
13.97
14.41
15.23
16.12
16.37
19.2
24.75
29.55
2.15
4.42
4.86
8.32
8.59
9.04
11.01
11.65
12.13
13.44
14.42
17.03
18.26
22.49
30.82
38.79
2.64
5.48
9.42
10.02
10.43
10.74
11.45
12.48
13.83
14.71
15.16
16.01
18.6
25.32
25.47
58.81
5.24
6.05
6.65
7.63
9.31
12.12
12.65
16.35
16.4
16.5
18.23
21.78
24.07
24.67
26.12
40.28
5.14
6.31
7.82
8.48
9.76
9.78
13.15
14.23
15.84
16.68
19.41
21.61
23.77
27.31
28.02
38.16
3.54
5.01
9.44
9.96
10.03
10.47
12.6
12.73
14.84
15.41
16.76
18.39
21.21
23.47
28.68
53.66
3.4
3.91
4.27
8.27
9.07
14.01
14.44
15.5
17.01
19.01
19.39
19.53
25.72
32.54
36.46
42.67
3.83
5
6.99
7.62
9.65
11.45
12.69
18.07
20.12
20.41
21.85
27.03
28.83
30.18
36.06
37.98
4.53
5.27
7.33
7.86
8.01
10.95
11.68
15.05
18.22
24.69
27.01
30.41
30.64
31.64
32.8
33.91
8.58
8.8
8.91
11.07
11.91
14
14.76
15.39
17.64
17.64
19.38
22.81
26.5
31.82
38.81
39.63
4.24
4.64
5.98
8.43
9.08
10.86
12.44
12.54
13.36
14.2
16.02
28.75
39.64
40.8
42.22
46.07
2.24
4.99
7.08
9.4
11.73
13.04
17.88
18.02
19.59
20.06
21.76
24.24
29.71
31.87
35.01
46.74
3.64
5.72
10.97
14.2
14.4
16.5
17.08
18.83
19.63
21.43
22.32
26.86
28.7
29.98
37.42
37.75
10.31
10.89
11.01
12.1
16.64
16.66
17.89
18.9
18.96
19.3
22.48
22.72
26.66
29.35
31.73
40.87
10.04
10.15
10.49
10.78
13.65
15.67
19.05
19.07
19.65
20.96
23.33
23.76
25.67
29.24
37.25
38.62
5.18
6.59
7.79
15.19
16.44
18.42
20.69
21.31
21.57
23.4
23.7
25.62
27.64
31.9
32.65
39.87
1.27
8.58
12.75
13.6
15.5
16.41
16.77
17.63
22.16
22.28
24.38
26.78
30.34
30.54
31.29
52.23
3.83
4.78
6.85
7.02
9.55
12
13.3
21.65
21.89
24.43
30.8
33.45
34.55
36
43.12
53.64
4.14
9.01
12.41
13.5
16.14
17.51
20.29
20.78
22.51
24.05
24.53
26
28.76
33.16
40.43
46.09
7.73
10.83
12.9
14.63
15.2
15.89
17.12
20.1
22.03
22.04
22.67
26.83
27.23
34.27
48.65
49.33
4.35
6.62
7.04
11.52
12.11
12.95
15.43
16.12
21.72
24.65
29.38
32.05
37.69
41.59
46.94
54.67
4.5
8.31
11.39
11.8
13.36
13.73
18
21.48
24.26
26.41
26.45
29.8
32.62
37.03
43.82
68.69
4.5
7.92
8.4
10.45
10.76
12.19
21.52
23.61
28.45
30.45
33.11
34.63
37.85
40.1
48.68
68.7
11.03
15.6
16.08
18.11
19.53
19.57
20.22
20.4
20.96
25.28
25.36
33.99
38.31
43.24
44.52
53.25
6.62
10.7
10.7
14.61
17.02
17.02
18.27
19.77
22.15
24.48
27.57
31.94
33.17
39.16
58.63
74.75
4.03
5.81
6.07
12.18
12.78
12.98
19.52
24.16
32.24
33.07
33.22
41.41
42.94
44.84
46.47
57.77
5.57
9.34
11.38
12.21
14.01
19.16
21.9
28.69
30.41
32.16
32.8
35.86
40.91
45.27
48.75
48.9
9.59
13.07
14.93
22.28
23.27
24.63
25.75
25.84
27.38
27.44
27.85
28.26
37.58
40.89
47
57.76
8.24
9.9
14.15
14.84
16.38
17.62
19.77
20.25
27.95
28.45
30.85
35.56
41.25
48.1
57.17
63.57
5.77
10.78
12.02
17.7
17.99
18.31
19.87
20.47
24.39
28.96
34.26
35.46
37.73
51.8
56.58
71.3
6.46
9.24
10.8
13.37
20.42
23.14
24.95
27.16
28.79
30.43
31.29
39.15
41.8
42.9
52.76
62.32
7.96
16.91
18.19
19.27
19.87
20.59
21.09
22.24
22.89
28.02
31.66
33.21
35.99
43.11
61.35
65.1
6.95
7.66
12
15.93
16.73
18.84
21.46
24.27
25.81
27.9
29.59
49.31
49.53
49.69
54.37
60.57
9.28
12.72
14.19
14.19
15.93
19.6
19.68
20.42
33.45
35.8
36.7
38.39
45.27
47.14
51.16
61.82
9.52
11.56
14.88
15.7
16.76
21.51
22.17
23.51
29.74
32.31
33.07
37.37
39.93
46.33
57.24
64.7
4.91
7.38
13.29
16.78
21.63
25.88
25.97
28.54
29.51
29.92
37.63
40.2
43.38
45.96
47.01
69.95
4.6
11.18
17.93
19.33
19.77
25.7
26.76
29.36
31.43
34.4
36.95
41.79
44.46
44.48
48.4
58.12
8.75
13.51
18.41
21.31
25.91
27.15
27.56
27.76
28.1
31.37
31.97
33.03
36.05
53.8
56.66
70.07
11.72
18.71
18.82
19.22
25.96
28.48
28.97
31.49
32.04
33.07
38.12
39.99
40.08
49.08
50.87
54.87
10.83
12.32
15.27
21.59
23.49
25.77
26.85
27.17
27.53
29.85
34.47
40.66
44.72
49.95
51.65
81.75
1.94
7.38
8.64
15.97
18.51
23.74
26.52
27.71
42.01
44.62
45.05
47.84
48.21
52.77
56.5
62.94
4.9
13.24
21.43
22.32
23.51
23.57
23.78
24.16
26.76
27.17
30.09
30.47
42.9
51.2
70.04
95.64
4.81
7.52
8.96
20.83
22.09
22.12
22.5
25.95
28.03
32.49
35.42
48.64
52.77
60.47
67.79
74.73
4.84
14.48
16.13
17.63
22.06
23.13
27.96
34.18
34.21
38.88
42.79
42.8
43.51
48.08
65.23
69.23
7.4
10.93
11.98
23.39
23.98
25.38
26.85
27.18
31.87
33.36
39.76
41.74
47.62
60.38
63.79
76.1
15.13
15.94
20.04
23.86
26.4
27.85
28.82
35.44
36.9
37.11
38.8
39.58
43.56
48.84
52.45
65.12
3.11
8.27
15.8
18.91
21.96
28.42
28.64
28.95
29.07
30.11
35.87
45.32
50.49
62.85
71.7
79.63
10.27
13.54
16.88
18.83
20.5
22.19
32.05
35.15
35.92
36.31
39.67
40.35
45.92
52.46
65.94
83.15
10.96
12.32
14.07
14.54
14.71
19.4
19.52
34.43
35.64
37.27
40.94
48.87
52.01
63.61
73.21
78.21
8.3
9.66
12.62
13.88
16.45
16.97
20.35
21.03
28.05
33.57
34.52
58.57
69.11
73.58
75.1
81.47
16.91
18.2
18.24
21.07
21.9
22.63
24.21
27.61
30.36
36.73
38.99
39.86
44.88
52.39
86.28
86.95
7.62
8.67
11.14
16.96
22.07
25.45
28.38
42.29
44.14
46.3
50.8
55.83
57.41
57.66
60.26
64.01
9.33
17.97
19.41
21.55
22.25
24.5
25.75
30.59
37.33
43.06
44.33
49.94
50.19
58.64
71.51
82.36
1.22
14.37
21.59
25.25
29.57
32.28
34.45
36.68
44.02
47.05
47.11
48.91
51.2
56.79
57.1
62.29
16.59
16.92
22.18
24.18
25.42
25.94
31.82
34.61
36.38
39.96
41.88
48.15
48.32
57.16
63.51
91.91
16.25
18.07
18.72
24.19
24.19
25.21
27.96
33.09
33.23
35.46
44.63
51.34
58.85
67.54
74.99
76.85
9.6
13.47
19.17
23.8
25.01
28.17
34.94
40.93
43.76
45.22
50.58
52.37
54.95
59.11
70.34
77.36
6.23
11.26
13.4
26.79
30.54
35.71
37.71
38.33
43.54
43.99
44.1
50.64
52.55
66.07
75.33
75.48
11.98
12.63
20.49
20.69
21.56
24.61
26.83
29.12
29.84
30.88
45.88
56.76
62.05
69.82
84.84
105.73
9.06
12.21
22.83
25.48
25.67
33.2
35.14
39.23
41.13
46.09
51.15
53.79
56.72
63.41
67.67
74.38
6.56
9.73
10.02
14.16
18.74
24.15
24.26
31.71
48.97
50.38
55.63
55.66
55.74
69.06
81.54
108.82
10
10.68
16.4
18.2
23.25
29.5
33.2
36.54
39.33
48.25
48.7
51.47
52.74
59.26
82.25
108.19
6.4
12.57
15.14
19.32
25.47
27.95
33.51
34.41
38.99
41.31
46.29
56.25
67.42
67.78
74.72
104.18
24.23
24.69
25.86
26.5
28.14
29.57
41.34
42.78
43.33
44.89
48.3
54.17
54.53
58.05
60.92
67.06
10.17
11.86
22.7
25.07
30.53
31.95
33.21
34.59
40.94
42.41
55.92
56.77
60.91
68.26
68.55
80.92
3.66
3.83
8.23
14.04
16.58
16.6
20.9
21.14
26.32
41.83
42.51
56.87
80.06
92.85
100.46
130.67
4.6
8.71
12.27
16.23
18.46
26.51
35.13
36.1
39.37
43.03
48.98
50.74
54.14
70.75
100.15
115.5
5.06
13.22
15.28
18.07
23.77
24.73
37.84
42.2
50.62
52.09
52.43
52.95
62.31
65.15
66.19
105.76
3.61
14.57
18.5
24.76
25.97
29.16
30.48
33.63
42.25
44.74
45.12
46.11
67.15
67.91
91.08
113.16
13.66
16.77
18.03
22.8
26.73
30.92
31.19
33.85
39.25
48.56
52.93
56.65
57.08
59.19
67.97
123.79
13.96
19.48
21.54
22.66
32.3
36.24
36.51
37.87
44.61
46.77
48.96
58.36
59.73
61
66.26
93.45
13.99
16.36
21.71
22.75
24.1
27.65
34.95
35.59
36.22
41.48
42.84
44.3
54
68.14
77.76
139.84
12.11
21.08
21.47
21.77
21.94
26.92
31.28
36.22
40.58
40.86
43.75
56.83
57.76
58.91
105.04
108.95
14.97
21.21
21.89
23.34
24.42
25.05
26.38
30.67
32.39
38.81
51.86
52.57
53.6
68.14
110.13
113.38
7.6
21.98
23.65
24.11
24.99
34.34
36.74
44.25
50.06
52.43
58.01
58.7
61.04
68.77
75.34
78.44
9.57
13.12
16.52
21.39
25.95
27.63
29.8
35.49
45.9
47.17
57.62
62.11
72.64
75.67
76.98
103.33
9.29
12.46
15.62
19.16
23.39
23.77
34.32
39.07
39.56
39.88
43.34
55.18
58.47
72.13
87.5
154.82
5.85
11.23
12.48
15.35
31.34
36.59
40.4
45.3
49.18
51.09
53.17
53.9
59.76
66.05
100.91
104.82
3.05
11.75
16.59
24.89
24.98
28.75
39.3
39.56
41.19
51.92
56
67.28
73.53
76.15
83.73
107.05
7.84
16.47
21.28
24.82
37.07
39.89
41.37
43.06
44.3
44.46
48.27
48.58
56.47
70.19
94.26
108.34
24.29
24.34
27.61
28.38
28.67
29.24
31.22
36.71
38.95
42.66
49.5
53.15
54.25
87.66
92.74
97.4
14.7
27.47
29.48
29.55
30.55
34.62
39.06
40.24
47.57
48.38
49.93
50.57
60.64
79.68
80.85
87.75
7.91
16.08
23.03
24.33
32.28
37.53
46.37
47.74
49.91
51.52
52.2
52.74
55.44
55.98
70.53
129.86
6.01
17.51
22.17
26.24
39.02
39.67
45.24
47.5
48.43
49.92
49.93
57.01
70.56
71.79
72.13
90.7
8.64
19.92
23.71
23.94
30.5
32.33
34.03
37.26
38.31
39.93
63.78
69.94
74.09
80.41
88.74
90.78
6.91
9.3
21.58
26.57
28.49
30.84
34.4
35.12
47.63
55.29
58.8
63.57
67.27
73.08
84.48
113.63
6.93
8.48
17.39
21.1
22.65
23.65
30.58
33.06
40.32
50.02
51.31
51.35
65.7
85.48
120.64
130.8
7.57
12.95
25.24
34.33
38.16
38.24
39.24
40.36
42.96
44.93
47.96
49.57
56.42
73.9
82.77
125.12
16.3
19.89
27.34
27.42
28.73
33.35
35.04
35.94
43.26
47.46
57.63
66.1
70.08
80.4
82.62
94.06
15.91
16.67
22.67
22.72
24.58
38.85
38.97
42.5
44.52
50.18
61.6
72.82
74.31
76.3
79.83
83.89
1.58
7.14
13.14
14.19
17.03
17.55
27.67
36.8
39.1
43.74
67.96
77.55
87.12
91.77
97.92
126.71
4.19
20.61
27.01
30.4
30.42
31.34
33.54
38.55
40.84
41.32
49.27
49.93
68.11
70.12
81.03
156.96
18.63
23.6
29.4
32.33
35.47
38.64
41.61
42.73
46.95
52.65
55.41
59.34
62.9
64.13
72.24
106.58
15.45
17.3
25.73
27.93
32.42
34.79
40.26
43.62
47.15
53.31
54.99
63.75
76.51
80.98
82.64
87.35
7.19
19.27
20.49
26.93
32.34
34.24
34.46
35.34
38.87
41.06
49.92
65.89
70.56
88.64
105.26
116.67
17.25
21.84
26.4
31.08
37.23
39.7
40.59
43.55
43.86
50.72
50.83
69.16
76.99
79.56
82.45
84.64
16.35
27.75
30.64
36.25
36.77
40.92
43.04
43.61
52.86
56.24
62.7
62.97
63.81
66.83
67.71
93.88
22.18
30.17
30.38
30.42
31.14
32.7
36.15
44.52
51.3
61.83
62.57
67.67
68.06
74.47
74.73
87.87
10.31
14.8
21.43
28.85
29.71
31.17
34.94
36.37
44.17
48.92
61.1
61.22
81.85
83.44
89.06
143.72
11.78
19.64
21.27
23.5
29.88
33.37
35.37
36.96
38.46
44.14
62.72
75.37
82.93
95.12
103.5
123.39
2.44
9.4
12.26
17.11
30.25
48.46
57.85
61.04
63.37
67.73
68.1
68.97
74.76
77.03
77.94
102.33
4.9
9.85
12.1
21.59
22.54
32.04
35.51
35.72
41.25
57.68
58.99
65.03
88.03
103.84
105.47
147.4
17.27
21.66
25.25
28.79
31.1
36.44
48.37
48.43
49.99
56.28
62.38
64.42
66.13
69.25
109.36
114.16
8.26
19.37
26.46
28.37
31.83
31.93
35.45
37.55
40.95
57.07
62.19
63.75
72.45
78.11
104.76
156.91
18.88
19.17
20.1
29.03
29.37
32.46
50.98
55.43
57.85
63.91
72.71
74.32
74.65
75.43
89.29
93.52
9.03
10.07
28.02
33.55
39.39
42.46
51.5
54.49
59.55
61.15
61.38
64.64
70.99
76.46
78.35
116.22
15
16.04
19.42
22.28
24.63
24.93
25.25
32.04
36.77
58.74
65.9
68.51
72.22
101.69
121.05
155.1
21.57
22.62
33.65
36.92
40.24
42.4
49.22
52.6
53
58.76
59.28
59.45
76.26
78.77
81.12
97.21
4.81
13.54
20.21
25.29
35.9
49.36
50.82
55.19
57.21
59.92
63.24
65.58
81.46
81.58
96.67
104.65
1.8
12.84
15.39
16.25
20.39
32.76
41.57
56.25
64.18
66.36
70.66
72.66
83.84
84.22
93.66
137.66
22.29
22.87
23.88
28.25
34.21
34.67
34.67
52.28
52.85
55.28
55.55
58.13
64.82
64.95
67.53
214.57
10.99
11.15
27.78
29.03
35.41
36.33
42.01
58.5
60.45
60.52
60.72
66.84
70.02
88.67
106.89
125.64
23.18
27.9
29.85
30.96
37.3
39.07
46.49
49.03
50.83
66.38
68.29
82.38
83.15
83.32
86.03
87.89
21.92
25.43
30.36
31.37
34.03
35.07
35.23
55.58
56.53
58.42
59.11
65.13
67.16
67.96
119.58
131.88
15.74
16.67
21.63
27.01
36.6
39.08
42.38
45.62
53.58
56.03
62.07
68.71
84.67
91.36
94.86
140.02
15.8
21.1
22.04
28.93
34.78
39.33
40.56
52.46
53.83
56.74
70.52
73.16
75.15
82.25
89
141.78
8.39
17.73
18.02
20.86
38.17
38.24
38.57
41.42
59.59
62.27
70.94
77.2
80.2
90.21
95.11
152.03
19.63
28.47
31.19
36.76
41.62
44.4
44.43
55.83
56.9
59.45
65.07
73.05
75.71
85.65
86.05
112.67
13.68
21.07
28.09
31.39
32.43
44.65
49.49
49.59
55.69
55.98
58.48
58.82
65.54
99.2
113.7
139.41
17.08
17.63
22.18
22.86
30.86
38.3
44.02
49.94
53.44
55.02
64.88
75.73
78.41
95.02
96.55
155.74
6.9
15.61
23.38
27.72
32.19
33.95
38.78
40.94
63.33
72.3
75.87
77.18
77.49
94.58
120.83
122.58
5.54
14.98
26.3
31.66
35.23
39.14
41.82
57.97
66.8
71.44
73.8
87.91
89.86
92.71
96.35
101.6
25.76
26.13
34.34
37.63
40.69
43.56
51.84
57.51
66.13
69.43
69.73
70.64
74.04
75.82
84.43
105.61
15.37
20.23
25.81
29.02
32.51
34.22
38.87
42.54
44.21
45.99
49.55
57.23
97.45
99.7
109.89
193.43
7.11
18.81
19.43
34.86
36.07
38.8
39.04
48.06
64.98
74.33
78.72
81.05
82.95
97.84
99.81
114.7
9.92
32.8
34.01
44.64
47.12
48.83
55.85
56.72
64.49
65.03
69.54
74.23
75.87
78.1
85.93
93.76
9.18
29.33
31.38
36.85
42.84
44.49
52.46
53.07
66.39
68.82
71.99
75.32
79.51
80.64
93.05
101.82
18.67
34.39
34.55
38.2
46.49
47.51
47.57
49.94
52.81
56.75
60.01
62.11
62.72
85.62
96.3
153.56
20.77
25.92
29.43
30.56
31.64
38.69
40.52
53.1
55.87
63.63
66.24
75.36
86.12
98.31
103.68
132.9
11.29
16.14
25.7
33.85
40.16
40.43
46.33
50.47
51.01
53.45
66.2
68.67
95.22
100.17
109.54
145.46
9.87
31.93
32.34
38.38
38.47
44.42
46.1
54.27
54.37
54.8
54.98
57.9
67.7
85.77
96.78
191.16
11.8
15.63
31.88
33.02
41.5
41.83
43.33
46.78
55.61
57.46
71.25
79.2
92.18
96.22
115.69
126.32
11
16.4
21.56
24.31
24.52
36.67
43.92
51.73
63.16
67.79
80.52
87.97
88.97
104.9
106.05
131.74
15.85
15.86
17.25
35.76
51.2
51.48
55.85
58.14
61.04
69.27
80.52
82.25
82.74
86.48
95.21
102.38
10.01
20.24
24
34.85
36.9
44.55
46.78
48.14
48.64
72.44
80.97
84.65
89.18
96.23
103.17
121.24
17.79
19.12
27.58
30.98
31.79
40.44
40.71
54.27
54.94
61.65
67.83
81.2
87.03
93.12
103.75
150.72
8.36
36.68
41
46.23
49.13
52.44
53.08
55.14
64.03
64.27
67.43
74.43
75.61
89.95
91.33
96.65
14.26
19.76
32.29
32.75
40.4
45.24
46.64
62.65
66.78
73.78
81.83
84.86
90.2
90.93
92.05
92.76
21.91
23.27
28
29.37
37.06
40.57
40.82
41.93
48.74
53.13
65.54
75.06
85.29
99.18
124.62
158.94
16.55
17.26
35.65
39.62
39.74
40.36
44.41
44.48
60.3
67.74
68.69
74.44
77.11
97.59
98.81
167.88
7.03
7.04
29.29
34.37
39.7
46.62
51.07
55.39
58.79
60.29
60.69
66.6
104.24
119.02
122.89
128.07
12.46
13.87
17.17
36.74
37.43
37.99
38.43
51.93
57.01
61.92
64.59
75.9
85.86
97.07
143.74
170.43
14.02
30.17
30.67
31.95
42.22
51.26
59.8
60.19
60.5
68.82
75.51
76.43
81.95
94.01
104.09
124.06
12.29
19.4
26.9
28.52
30.22
33.9
49.93
64.58
65.2
65.69
69.68
83.78
99.28
110.36
121.82
125.89
6.59
29.04
30.03
30.61
38.77
43.09
45.61
48.86
60.85
64.29
70.48
71
96.02
100.18
105.35
170.72
18.13
26.79
28.97
30.84
32.84
43.27
54.26
55.59
59.76
61.93
70.69
74.55
91.9
93.23
126.87
144.03
17.19
26.15
33.34
33.77
35.84
42.22
43.71
48.88
54.91
71.53
77.63
80.77
85.75
114.62
121.33
128.33
22.41
25.31
32
35
39.14
44.32
46.49
52.51
54.69
57.07
71.89
84.9
102.19
102.41
123.06
125.61
18.87
26.83
31.63
34.11
34.25
41.22
46.34
47.21
55.02
63.12
71.51
82.08
95.3
97.48
103.78
172.64
11.57
22.8
41.32
43.92
46.25
48.74
51.21
51.93
57.34
60.77
70.55
72.64
82.49
90.92
108.1
166.06
33.74
36.96
37.84
38.4
38.74
38.79
41.58
44.17
47.77
51.77
53.12
87.4
88.51
100.25
135.94
152.46
20.88
32.38
45.92
46.04
53.94
54.11
57.85
59.44
66.29
68.32
75.75
78.58
79.78
81.11
92.09
121.01
11.2
17.09
28.42
29.81
39.86
41.52
42.44
46.32
52.89
69.84
90.46
97.69
106.03
113.15
118.45
131.85
5.19
34.17
37.17
40.29
41.12
48.4
48.47
63.27
65.66
75.98
85.8
87.91
89.02
102.3
103.71
112.3
20.05
26.89
28.43
33.58
34.9
37.85
50.59
52.29
59.27
61.28
63.63
64.99
65.43
84.26
153.11
205.86
24.23
25.28
32.41
35.43
38.73
38.78
45.81
55.53
59.54
65.79
73.69
80.29
88.96
100.94
120.65
159.12
14.73
15.64
22.66
29.55
38.29
39.41
40.98
45.9
55.67
62.86
91.88
92.89
94.82
128.09
129.89
145.57
24.33
32.42
46.77
46.96
49.13
51.38
59.47
62.38
62.44
63.15
76.05
76.87
85.64
85.93
98.58
127.89
24.26
26.15
34.64
39.98
47.2
52.51
56.05
62.08
63.47
65.59
71.57
74.71
76.37
81.86
99.15
178.59
20.07
23.49
24.7
40.28
45.18
59.23
63.03
63.72
72.33
79.98
81.15
85.84
88.68
92.23
95.24
122.1
16.74
29.14
31.71
43.09
45.6
49.15
51.81
56.86
60.78
66.51
68.84
85.22
91.93
93.07
101.2
167.5
19.94
24.21
25.14
43.55
51.72
52.74
59.35
59.48
71.68
73.14
74.65
82.24
104.22
104.59
107.14
109.37
15.28
17.77
28.09
30.76
33.22
41.28
48.07
52.8
54.45
62.03
76.33
77.54
83.62
96.67
128.64
219.09
17.24
17.36
21.68
24.55
44.41
50.53
60.52
69.48
70.12
80.88
81.76
82.92
97.62
100.18
115.24
134.14
16.08
17.4
32.57
38.58
54.29
54.36
55.01
61.08
61.54
63.07
85.87
86.03
91.1
99.03
119.48
138.28
8.92
18.07
19.96
29.31
40.66
49.01
53.35
63.63
63.7
73.32
94.33
96.81
100.74
100.76
118.67
142.7
7.75
8.79
24.37
31.99
33.94
39.73
58.13
71.61
75.71
81.64
84.4
91.38
91.54
97.24
109.64
166.2
21.1
27.6
36.46
39.38
42.55
43.5
49.05
53.18
53.48
61.99
64.7
66.96
94.71
96.27
140.27
189.53
23.67
31.8
32.02
34.82
36.83
42.78
47.58
68.82
74.38
81.85
87.42
89.46
89.47
98.11
116.8
127.64
23.73
33.81
38.79
48.72
56.13
58.03
58.81
61.1
71.96
74.35
75.06
82.74
84.3
86.4
110.56
122.03
9.25
21.07
23.51
31.04
38.65
40.15
62.23
64.25
65.85
76.64
81.03
83.74
86.52
103.24
148.86
152.14
20.87
25.56
26.89
32.56
34.8
39.65
43.79
44.74
59.28
71.22
75.58
80.68
94.25
113.03
123.97
202.17
11.8
19.15
24.68
30.2
34.1
37.35
45.59
50.17
57.25
64.56
66.09
71.43
118.86
122.69
151.59
183.54
7.23
22.67
26.01
30.74
47.41
52.54
56.77
62.33
71.89
80.21
93.12
93.53
99.52
102.4
115.65
132.57
14.28
14.94
21.84
25.15
28.35
32.79
48.96
50.31
71.81
72.48
78.94
100.88
113.25
132
139.24
150.71
31.27
36.51
42.93
44.02
45.41
50.31
51.29
55.55
68.61
68.66
73.5
85.57
91.83
96.97
98.1
159.7
21.01
30.53
34.51
37.45
44.4
52.73
58.28
58.62
60.66
70.67
75.62
76.05
97.16
103.75
133.81
148.46
15.27
26.61
39.68
47.29
54.47
55.86
56.96
70.87
74.78
78.3
78.42
91.88
91.9
94.93
106.52
120.37
14.6
30.53
41.57
46.53
47.03
49.66
65.7
68.35
69.13
70.94
71.59
81.97
82.36
106.45
119.5
139.21
26.45
29.51
44.64
44.68
46.72
52.95
58.55
61.09
62.51
68.32
75.38
86.58
91.35
93.56
101.63
169.87
26.84
31.96
40.82
50.03
52.42
54.83
60.54
61.12
66.26
66.54
75.58
79.65
84.96
89.52
103.17
170.02
10.15
30.12
35.59
37.74
38.11
38.42
41.03
42.3
43.42
70.81
75.33
93.5
114.31
119.21
137.02
193.53
17.47
26.61
28.43
35.21
38.51
43
48.78
56.97
63.14
77.26
91.84
104.21
107.08
111.75
130.75
140.09
19.5
25.55
29.56
29.67
38.35
38.54
66.05
71.33
71.35
77.05
85.85
93.18
103.41
109.11
120.96
142.77
13.63
16.42
20.28
27.55
32.8
49.82
51.88
60.27
63.31
63.97
65.23
95.96
139.39
139.47
141.43
141.85
6.76
7.31
31.73
32.37
33.21
46.96
68.8
69.19
72.5
77.06
85.13
90.4
93.76
124.99
125.77
158.62
15.48
17.91
24.48
30.74
33.51
44.7
45.61
55.67
67.6
76.83
77.23
89.15
109.03
114.71
123.56
198.56
32.44
35.17
36.11
40.5
44.85
49.5
57.83
61.42
64.02
64.7
76.55
77.85
79.24
84.11
157.39
164.13
13.04
13.76
14.18
19.66
20.94
44.65
52.61
54.24
67.13
88.4
105.77
113.54
123.67
127.29
130.2
136.97
10.71
11.61
16.81
26.63
44.13
56.27
72.01
72.37
75.06
80.88
88.97
94.64
94.81
106.42
123.18
157.89
24.75
29.44
33.44
47.57
52.24
53.52
65.01
69.3
76.5
77.25
92.71
95.81
100.65
102.41
104.07
109.34
23.8
36.25
36.98
44.6
46.22
50.62
62.1
65.51
68.87
69.49
70.98
72.57
91.32
113.83
123.08
159.65
25.1
27.54
35.99
38.89
44.47
46.82
56.42
57.09
77.38
80.33
90.14
92.28
101.4
114.12
125.45
128.38
16.06
20.92
23.15
30.27
43.6
44.21
52.08
57.55
70.28
80.68
89.34
105.27
120.02
123.65
135.58
137.83
20.63
24.69
41.52
42.17
46.12
52.41
52.61
52.78
60.38
68.84
73.79
91.13
104.74
130.05
143.06
148.78
15.56
26.72
27.98
30.27
38.63
47.94
50.42
51.4
55.9
80.29
88.27
96.21
120.24
123.68
131.33
170.78
19.33
19.87
21.06
33.59
38.44
39.46
48.97
53.62
62.66
77.33
96.02
106.54
111.82
118.9
151.52
157.36
6.44
19.39
29.07
37.57
54.1
59.62
60.71
63.77
71.78
81.33
82.51
90.02
97.95
109.16
137.08
163.1
13.5
20.94
43.87
46.52
55.59
58.85
58.92
63.3
72.06
75.11
77.64
88.79
102.64
107.56
118.06
162.18
10.11
20.87
35.14
35.92
41.15
45.74
50.73
70.06
89.22
92.52
95.93
98.46
102.27
119.91
133.1
133.88
29.38
30.23
35.5
38.76
44.41
45.06
50.35
69.03
73.58
76.57
78.29
82.15
104.08
110.25
141.58
173.56
27.41
30.5
33.24
39.93
46.06
61.01
65.01
67.95
75.25
79.66
79.69
86.28
114
116.11
118.97
142.74
16.55
22.86
23.81
35.66
43.58
57.84
61.78
67.83
72.86
78.33
79.94
86.01
119.92
125.94
130.75
170.67
16.32
29.44
32.96
46.11
49.86
60.61
63.47
64.64
72.19
76.32
76.83
77.92
105.61
136.02
140.95
147.2
12.13
14.44
40.57
54.99
58.97
62.32
65.07
65.75
66.03
80.39
83.38
99.37
108.22
110.15
120.09
155.02
20.34
26.51
37.89
38.27
41.7
47.15
58.09
65.39
70.18
77.62
83.1
94.23
117.3
134.04
145.76
147.64
23.84
35.84
37.01
46.7
46.89
56.81
57.36
74.12
77.79
82.03
82.81
97.95
101.81
113.92
124.51
146.31
2.32
28.01
30.6
31.39
37.65
46.5
67.37
73.41
75.31
87.29
88.93
102.76
113.48
119.41
123.35
178.13
5.9
20.77
23.71
32.29
36.67
45.47
50.7
54.73
55.48
80.95
85.31
93
111.82
152.58
174.24
182.71
7.89
17.1
27.98
31.24
36.24
39.48
43.88
51.94
53.8
65.63
80.71
95.85
127.28
141.36
170.03
216.91
19.01
20.35
28.4
35.39
38.54
40.31
41.63
60.54
64.15
83.61
86.8
98.26
106.87
109.27
185.44
193.78
23.52
35.07
35.61
38.13
42.02
43.62
53.44
72.71
73.08
79.4
80.04
90.95
92.08
149.94
153.84
153.95
20.33
42.49
46.9
47.4
53.78
61.86
64.46
67.34
69.12
91.05
91.13
95.75
103
106.64
128.75
133.14
15.5
15.73
20.97
23.85
25.43
30.94
62.79
63.31
63.73
64.79
77.66
95.35
97.32
138.65
148.7
282.74
31.17
31.27
33.75
35.56
57.5
61.78
62
68.1
74.51
78.01
89.46
94.8
107.54
128.04
136.34
140.49
6.1
18.56
38.03
41.48
61.34
65.48
66.04
76.64
78.39
81.64
82.63
97.4
98.17
121.33
135.08
163.14
14
46.7
49.7
53.64
53.94
58.93
60.15
64.01
67.58
80.94
83.42
84.42
87.14
111.62
111.97
212.49
13.45
31.35
40.26
40.89
42.46
50.15
54.17
61.58
63.62
74.89
74.96
89.83
104.17
116.52
190.95
197.49
11.57
23.79
30.98
31.2
33.54
48.62
53.95
62.21
70.63
80.33
91.87
96.72
107.36
139.14
166.13
198.85
5.58
17.41
31.17
34.32
44.79
61.64
64.47
80.55
81.91
83.12
84.81
90.56
94.53
106.59
164.91
200.73
19.28
27.65
42.32
44.42
48.62
52.8
61.48
74.01
76.23
77.01
81.36
98.4
100.35
137.91
143.23
162.39
13.59
19.62
24.99
28.54
38.2
55.55
61.38
74.11
79.75
95.29
106.86
119.49
121.2
124.67
125.82
159.1
16.43
26.99
28.42
36.53
41.73
56.3
57.36
64.73
70.82
82.67
91.21
112.21
118.68
137.18
154.4
155.89
29.26
36.11
45.19
48.08
49.41
54.06
60.88
69.65
69.88
78.23
101.68
110.91
113.1
120.52
131.42
136
21.79
34.94
36.89
41.95
59.65
61.01
67.59
71.4
72.08
84.06
97.14
109.54
110.26
115.15
115.58
159.86
25.3
34.08
37.68
39.06
48.27
48.62
50.32
84.18
86.33
100.26
103.76
103.92
112.3
115.12
128.62
143.05
28.23
28.36
28.73
37.52
40.58
62.56
67.95
69.21
77.03
79.02
94
97.64
109.67
138.03
146.18
159.16
8.25
16.13
29.81
30.45
37.1
50.9
53.53
54
68.08
86.36
91.76
105.14
106.79
138.98
151.08
244.67
16.61
34.5
47.76
50.42
53.84
54.81
60.9
68.38
75.42
78.18
87.73
104.43
106.35
107.88
161.19
176.42
15.8
19.53
26.19
33.81
35.38
44.92
57.02
65.47
79.7
92.22
109.32
117.59
124.66
144.34
156.3
165.21
27.88
38.78
51.65
54.48
55.01
65.08
65.95
70.4
75.43
93.8
95.73
98.33
101.13
114.77
123.88
156.67
30.56
36.43
36.74
39.29
43.6
67.28
79.94
80.39
82.35
84.01
88.57
89.75
90.73
99.54
112.46
228.15
13.46
16.19
41.41
42.09
43.68
48.49
59.67
61.56
62.54
66.57
94.03
96.2
117.68
129.92
157.86
239.44
8.73
18.26
18.51
58.03
58.87
64.2
66.45
71.61
73.98
87.32
101.49
105.13
105.85
132.09
140.58
181.98
7.25
19.33
22.81
37.64
44.61
45.35
50.17
51.04
53.21
53.34
65.53
108.71
165.39
167.94
184.44
219.44
28.17
31.66
48.01
56.86
63.68
64.73
71.19
75.77
82.76
95.46
97.59
98.93
109.55
116.1
119.63
144.58
5.1
15.53
22.21
34.36
43.02
52.91
61.45
68.64
73.01
87.48
98.26
121.34
130.34
144.98
145.61
203.34
31.24
32.32
34.77
42.42
42.91
43.35
57.88
66.5
88.16
89.87
97.3
97.97
106.82
116.12
145.06
215.56
24.34
33.05
37.05
38.55
42.06
61.7
61.77
66.77
83.02
96.12
110.92
113.75
117.88
131.5
140.06
156
21.78
24.62
40.76
52.61
59.65
65.18
74.8
82.99
83.55
84.4
88.67
90.41
96.36
121.4
127.11
203.4
18.74
20.31
29.92
44.64
50.11
53.66
75.57
78.36
84.26
86.7
90.79
91.59
95.34
136.84
179.23
188.3
36.05
39.7
39.87
42.88
44.99
46.2
52.25
58.73
60.14
72.85
76.72
90.56
115.79
142.48
196.26
209.46
18.42
25.23
26.53
34.31
55.61
60.01
60.13
67.4
68.65
73.44
101.84
112.68
118.45
126.35
182.34
195.64
14.48
20.75
32.87
38.91
52.41
53.89
62.56
65.34
71.6
72.57
100.58
124.15
126.85
128.35
139.97
227.2
18.97
31.6
32.54
32.61
37.89
59.51
59.74
67.49
87.2
91.38
107.05
114.22
134.59
140.93
151.18
170.93
15.67
17.45
19.72
25.68
36.52
40.01
60.58
78.54
96.83
97.87
110.77
112.43
129.88
142.5
154.51
205.37
20.5
23.95
35.78
36.53
54.5
55.92
64.18
70.38
70.7
77.91
99.08
114.01
134.83
137.22
151
197.89
25.54
36.49
43.34
44.54
60.38
64.33
65.62
72.95
83.79
85.63
105.38
105.43
126.91
130.93
131.27
162.12
12.41
27.57
28.79
32.61
43.4
49.13
50.25
75.31
78.52
90.48
106.35
114.44
122.26
140.58
175.79
197.92
11.33
11.68
36.25
36.83
40.45
45.37
54.07
54.86
60.98
61.56
126.83
129.06
130.03
143.4
177.39
238.26
19.93
31.42
44.57
51.93
53.92
57.26
62.4
62.49
68.8
77.95
78.02
98.57
109.87
140.01
187.23
220.06
35.18
35.61
37.43
38.11
54.75
58.01
58.08
65.75
73.17
74.52
86.83
90.69
104.32
113.25
198.79
241.27
19.34
38.94
42.66
43.71
48.06
66.2
66.59
67.35
76.76
78.07
81.51
89.25
130.86
159.49
164.93
193.05
24.43
35.54
39.02
56.29
58.48
61.68
64.63
64.71
75
81.38
95.79
131.34
137.79
145.62
149.71
151.19
26.4
41.08
44.17
45.54
54.29
58.76
78.97
86.43
89.63
91.81
102.64
108.32
117.3
125.84
150.48
153.64
26.25
34.06
44.79
54.93
56.67
58.82
69.72
75.49
76.87
84.6
87.18
96.73
99.3
106.06
163.04
247.41
27.13
35.25
48.72
51.03
63.92
66.8
68.95
71.56
79.2
80.37
87.83
95.38
130.8
149.71
161.07
165.78
26.22
27.13
28.51
35.67
39.08
44.26
76.72
79.77
87.8
94.32
96.39
104.32
123.73
130.1
165.38
225.45
9.57
14.74
28.91
33.1
42.58
45.08
47.27
57.83
84.43
117.15
118.27
122.32
146.82
149.92
178.59
190.7
43.66
52.72
53.41
57.09
60.33
62.93
64.77
71.66
74.81
77.36
84.46
114.29
127.89
133.21
141.15
175.41
19.81
31.51
37.05
37.84
45.94
47.69
63.86
67.69
71.03
85.94
94.15
109.8
130.29
141.89
184.16
233.89
16.97
29.67
34.98
40.52
45.75
52.58
58.51
71.6
87.43
89.94
91.1
91.22
130.53
166.08
173.49
223.07
33.76
37.82
40.25
42.18
64.45
76.56
79.03
79.44
88.66
105.56
111.98
117.87
122.09
124.13
126.89
152.97
53.31
65.83
66.07
68.35
75.69
80.28
80.51
83.72
84.29
84.8
90.26
103.01
109.94
110.29
117.03
132.03
18.29
19.55
34.59
38.21
45.23
63.64
86.65
99.55
103.15
109.25
111.97
114.95
129.2
137.31
148.79
152.9
14.14
25.9
33.43
44.4
64.14
65.27
71.71
73.32
80.78
92.56
94.28
96.97
128.75
140.85
163.01
224.22
35.03
36.71
53.85
53.98
59.72
70.37
73.42
85.24
86.79
92.35
97.75
107.79
115.9
121.13
126.82
201.07
8.01
21.22
24.23
38.59
48.54
69.11
71.92
82.53
84.86
110.21
114.71
122.53
128.07
153.08
170.28
174.47
7.31
28.37
40.09
44.43
47.83
60.87
73.25
75.8
78.53
83.26
93.83
97.11
122.05
149.05
197.98
236.1
39.43
51.01
51.7
52.15
64.04
68.32
70.43
72.39
77.54
84.92
94.83
97.6
104.03
140.69
141.17
239.63
30.1
37.31
40.34
52.29
54.44
58.06
64.82
95.22
96.39
117.57
118.09
125.86
134.98
136.7
151.52
151.72
25.53
25.62
31.24
48.6
68.28
74.87
76.25
79.3
79.42
93.2
97.12
116.06
128.29
145.57
154.1
229.51
19.94
23.85
51.89
52.69
57.71
73.34
82.05
83.41
84.86
91.01
103.07
107.18
139
140.81
165.33
197.76
48.31
48.65
54.64
57.8
59.64
77.5
79.34
82.36
86.16
88.01
115.93
120.1
128.54
129.28
146.9
153.74
20.34
22.08
40.71
42.75
43.73
52.89
52.94
79.8
88.86
93.55
100.96
107.01
137.92
187.92
191.8
216.29
21.78
33.28
47.98
50.34
59.15
60.62
64.43
69.62
81.86
84.63
104.25
110.72
115.47
135.02
198.58
245.21
44.73
45.53
50.29
52.26
54.01
61.56
65.82
86.66
95.85
98.44
121.34
123.87
144.08
145.64
149.4
149.88
20.74
38.12
57
58.48
67.25
67.89
77.47
87.81
90.81
110.65
115.28
121.39
121.74
139.2
155.77
159.82
39.52
42.21
44.53
47.39
50.67
51.24
53.6
55.99
87.16
100.26
115.96
120.45
120.53
172.07
193.74
197.6
25.44
40.28
41.48
46.6
48.03
49.21
61.43
74.37
79.53
81.33
125.97
128.71
133.66
143.63
157.36
257.01
14.82
50.31
52.04
62.95
69.07
77.12
77.14
77.44
84.91
109.36
119.02
135.94
139.11
140.92
143.82
145.67
7.95
24.11
42.37
49.34
56.19
72.36
77.62
78.55
100.14
102.82
110.41
129.51
138.62
155.2
172.81
193.95
11.41
32.42
37.96
38.82
60.46
62.87
66.1
79.93
79.98
97.74
132.17
137.34
156.61
160.1
160.72
207.37
34.04
38.25
43.52
44.11
47.53
49.01
52.44
62.13
83.44
109.85
119.67
128.52
144.94
170.6
188.55
209.08
18.86
19.84
31.46
47.67
55.97
61.27
89.61
90.68
104.78
105.31
107.11
123.05
125.53
165.82
180.08
198.85
23.73
34.65
39.7
42.07
42.62
50.3
62.79
78.78
98.93
99.11
99.79
102.15
110.61
178.66
186.43
277.42
14.74
24.9
43.76
44.11
50.38
59.01
70.85
89.23
94.05
95.56
99.13
114.16
128.85
177.75
186.28
244.25
15.49
33.54
34.94
39.73
50.42
63.39
70.43
71.27
77.65
78.42
93.09
118.44
132.74
135.63
251.42
276.17
26.87
29.21
47.11
58.82
59.75
64.01
67.35
72.61
75.84
98.96
101.26
110.1
114.44
140.53
199.14
280.55
16.81
26.77
43.28
46.32
47.46
49.06
63.55
77.74
98.48
122.1
124.11
131.49
139.59
142.56
197.88
220.15
28.53
42.03
53.16
65.25
68.63
74.47
76.12
80.74
80.91
97.26
116.15
122.24
128.7
153.29
179.58
180.68
13.74
13.8
34.11
47.75
52.28
52.34
64.67
66.76
81.21
114.4
118.72
146.25
148.76
155.67
173.43
263.99
27.4
34.16
45.4
54.57
68.94
70.67
71.45
89.52
89.56
92.28
106.97
133.03
152.88
169.58
181.36
181.92
31.18
38.85
56.72
57.23
70.68
74.25
95.52
97.26
100.79
103.38
110.97
117.08
119.84
120
148.6
229.75
13.12
37.36
39.65
62.45
69.55
75.32
80.95
85.18
95.58
97.39
99.04
103.94
109.34
159.81
178.82
266.24
23.53
24.07
28.89
31.64
61.85
73.76
79.99
86.74
87.72
91
93.02
132.49
140.03
167.94
177.15
278.87
27.32
36.19
47
48.04
55.76
64.69
65.32
68.85
79.54
100.11
113.09
134.84
143.56
177.22
189.35
227.89
29.81
31
61.7
65.4
65.89
67.44
69.77
85.38
87.93
88.84
91.95
99.62
103.72
205.36
211.03
214.38
30.45
32.82
37.61
46.54
58.1
61.59
65.9
75.79
91.55
112.8
119.59
137.13
145.66
146.31
181.91
237.93
25.29
32.37
32.98
62.75
70.51
72.07
84.12
90.4
98.03
107.02
108.05
132.62
144.4
171.1
173.97
176.28
47.61
49.66
57.1
59.86
61.82
63.61
63.61
64.26
67.64
77.57
79.11
142.25
151.4
156.01
186.27
261.28
38.6
39.8
40.89
41.29
60.62
71.79
77.71
85
99.78
108.54
111.88
118.3
154.72
176.08
177.2
190.09
22.03
45.47
51.59
56.84
65.07
70.08
85.97
94
96.14
107.13
108.13
121.99
125.79
154.7
175.87
215.49
20.05
55.96
57.27
64.89
65.51
75.36
80.34
81.58
95.01
95.45
117.66
131.81
150.32
157.21
161.76
186.52
26.75
53.2
61
65.94
76.63
77.92
80.1
84.44
90.12
90.16
111.65
114.96
130.7
146.94
179.42
209.23
18.84
24.41
27.23
46.3
59.3
59.67
65.54
70.01
94.09
106.54
108.01
114.26
144.74
186.62
232.42
241.46
23.85
25.45
34.16
43.16
67.47
70.03
85.19
95.04
103.42
104.43
104.7
142.18
162.02
166.53
166.91
207.27
6.3
15.77
33.53
33.94
40.49
74.01
75.92
92.83
106.52
117.03
129.41
132.98
159.33
163.47
209.04
218.69
11
27.43
31.1
39.39
51.43
53.33
58.66
86.62
92.03
133.61
135.59
141.62
169.32
175.02
188.08
220.57
35.32
40.55
42.62
47.14
48.69
51.46
59.21
64.86
68.94
70.09
89.88
93.42
105.89
152.11
211.81
434.12
7.23
33.48
51.97
57.37
60.36
66.61
75.05
83.84
88.31
92.7
102.86
116.48
132.95
157.36
177.25
318.38
13.49
47.54
77.3
78.01
83.89
84.7
90.28
94.29
94.77
99.84
114.46
124.74
135.27
149.93
158.21
186.14
22.06
33.38
44.94
51.18
54.61
59.65
74.7
78.85
99.9
108.95
126.1
134.41
150.72
176.44
177.71
240.94
22.42
28.47
32.16
46.47
73.27
86.85
87.11
106.65
111.76
120.07
123.16
132
147.45
158.1
159.35
201.82
25.55
32.88
32.98
55.5
71.46
73.99
75.34
96.05
101.45
108.67
114.98
129.35
136.87
137.58
189.81
257.67
15.35
24.65
34.67
41.83
42.43
44.73
55.45
70.45
77.46
112.28
128.62
129.57
147.81
169.45
215.12
332.22
52.51
54.26
58.64
64.3
72.12
72.42
78.63
82.06
90.14
92.79
100.33
119.49
138.45
154.11
200.09
214.66
28.54
42.91
47.73
48.97
64.05
66.39
78.34
83.41
87.54
94.2
110.46
137.33
151.81
184.86
208.61
212.22
24.83
25.24
41.52
51.81
75.13
75.3
79.5
79.6
92.93
98.73
120.19
145.97
146.26
166.08
189.11
237.28
14.04
35.38
44.92
49.08
72.17
73.54
80.58
89.43
89.76
111.48
121.71
125.47
139.5
141.16
157.01
306.32
30.58
32.09
37.61
41.18
45.1
58.92
69.61
87.8
107.69
110.74
112.12
135.37
156.88
207.02
208.57
211.11
17.59
31.51
36.31
52.79
54.09
79.05
84.03
91.47
101.93
102.12
102.68
106.84
109.81
150.25
233.53
299.99
30.87
31.46
34.55
36.77
53.14
55.19
55.46
56.81
64.14
75
114.55
136.29
160
193.02
255.93
305.24
13.47
21.11
32.65
37.69
44.36
55.32
90.08
91.86
101.46
121.82
154.93
162.94
167.49
177.05
189
203.84
22.92
41.17
48.79
61.81
69.78
70.82
82.14
88.8
106.91
107.34
117.01
117.01
137.76
148.11
210.03
236.85
47.74
55.5
59.12
61.87
65.53
73.5
77.69
79.42
83.77
94.68
100.18
139.65
161.92
162.94
201.43
204.47
18.82
26.28
27.78
40.53
70.57
73.01
76.38
115.34
115.68
119.34
131.72
145.65
149.74
161.48
173.26
225.11
40.66
51.84
57.96
74.16
80.16
80.63
84.82
87.24
88.85
102.03
115.97
119.41
138.37
154.14
155.51
239.66
42.33
49.61
55.93
67.63
68.61
79.53
86.44
86.85
89.03
92.97
94.14
113.92
132.32
171
185.61
258.65
10.58
30
39.36
46.35
55.16
69.55
75.5
89.16
113.63
119.13
139.86
141.76
145.96
183
211.47
213.9
27.58
37.39
42.62
50.47
51.69
52.96
67.36
83.46
95.79
101.95
103.63
111.74
126.46
164.16
249.53
329.24
11.71
37.31
39.3
60.69
61
66.12
72.16
82.94
88.88
103.8
119.48
132.18
156.89
193.83
208.24
268.7
22.2
31.74
44.3
56.3
62.44
65.74
70.12
73.15
119.39
122.9
135.55
164.14
172.34
182.1
189.79
203.04
38.12
54.23
66.87
73.34
75.6
80.33
85.94
109.35
112.15
118.98
132.12
133.77
133.96
140.14
172.9
210.34
39.5
48.31
48.63
58.11
77.69
78.6
112.87
114.56
116.29
123.46
124.11
127.83
146.71
148.27
173.53
199.9
18.36
47.56
48.09
68.43
69.74
81.06
88.85
89.54
103.9
108.14
115.72
120.78
144.12
159.99
216.53
261.26
21.5
21.74
56.78
66.6
98.33
98.94
99.14
105.4
110.54
125.08
130.5
144.09
145.61
157.61
165.29
200.57
19.08
35.77
56.39
68.8
71.82
92.53
99.95
100.28
109.12
116.83
132.52
144.01
147.49
150.91
191.17
216.87
29.12
40.55
70.3
81.02
81.6
84.67
93.52
103.45
105.43
107.5
116.87
139.61
144.52
177.3
178.59
204.03
23.72
27.29
33.58
42.27
52.83
55.77
65.22
76.26
79.51
89.96
99.29
156.02
166.15
205.82
233.52
351.29
14.3
22.58
54.22
78.26
87.01
92.5
102.7
111.95
115.61
116.92
138.3
154.22
154.65
166.77
168.67
179.86
4.79
45.97
47.95
50.98
65.39
76.45
79.59
85.06
90.68
124.41
134.49
136.41
154.86
202.25
229.93
233.27
22.32
23.59
23.6
72.33
73.33
104.23
105.58
108.82
116.24
121.23
129.42
132.7
137.39
177.96
194.96
226.59
21.92
37.59
41.25
53.36
58.29
59.19
75.03
75.52
86.33
138.45
152.71
154.23
165.86
201.84
207.93
248.21
22.68
42.05
53.92
57.46
57.59
59.25
68.44
74.49
94.09
94.72
102.87
113.48
139.32
222.69
274.61
300.62
16.63
20.19
44.4
65.9
78.98
88.66
96.59
104.69
112.99
114.22
118.1
126.25
138.61
139.89
204.24
315.43
11.26
17.93
22.32
23.42
60.22
61.8
69.31
98.32
136.65
138.87
148.81
151.19
173.38
206.59
222.98
246.51
16.26
29.62
47.53
59.52
60.05
63.17
65.3
76.76
100.58
102.39
115.48
122.48
144.88
171.72
214.42
400.64
35.28
41.33
48.85
68.9
79.51
85.03
85.84
98.21
99.91
108.33
117.36
122.95
162.86
185.08
199.1
275.4
33.64
48.54
55.7
55.77
59.2
60.02
65.67
86.79
88.36
108.33
114.97
161.36
170.12
182.11
238.46
287.53
8
15.3
43.69
49.92
49.95
56.92
78.83
108.55
118.74
127.49
162.35
171.41
172.13
194.25
214.23
253.28
37.04
39.31
43.6
45.6
65.22
70.15
89.77
97.23
113.92
122.93
128.5
129.48
146.89
156.85
249.17
291.74
23.81
53.83
66.07
86.24
87.76
98.47
100.07
109.81
121.89
126.08
132.25
152.73
156.16
170.89
174.98
176.92
16.14
16.59
47.45
59.79
60.02
73.63
104.64
115.05
119.01
135.14
141.63
142.06
172.95
191.85
199.93
244.12
19.64
25.77
58.99
71.13
72.62
74.49
104.13
113.93
115.77
127.39
135.97
137.32
150.47
154.11
228.73
273.71
23.14
36.57
62.58
70.45
70.49
81.6
91.84
100.59
115.32
121.57
129.43
165.49
180.38
190.21
206.99
218.63
15.6
35
80.21
84.47
84.88
96.13
118.27
119.19
128.56
129.42
142.11
157.29
157.5
165.82
175.21
185.55
23.62
26.14
36.65
46.83
49.41
70.1
113.38
113.7
134.16
143.92
157.24
168.15
168.63
199.1
205.6
222.21
19.55
29.16
31.85
59.5
76.52
83.18
84.62
92.36
101.53
111.4
128.53
132.04
144.66
215.25
246.14
325.56
9.44
47.03
47.82
60.92
62.95
68.47
87.35
97.01
103.13
126.51
163.27
164.8
172.12
214.56
225.3
234.88
6.96
22.11
32.44
59.46
62.55
76.87
84.62
112.28
118.14
127.39
135.4
169.97
193.53
196.31
238.62
251.38
34.51
45.88
50.28
66.35
78.46
90.87
93.97
99.91
112.21
119.4
121.96
133.13
163.75
182.74
240.77
256.2
34.33
36.64
50.03
59.56
69.07
77.81
88.06
91.02
95.77
121.49
127.1
138.06
142.24
183.57
271.91
305.64
42.46
48.32
62.69
64.53
71.97
75.82
85.45
97.31
116.43
118.2
142.01
146.39
164.51
189.94
208.41
259.22
33.56
42.92
51.47
74.39
89.39
104.77
109.78
110.83
116.82
119.89
125.58
149.6
158.35
174.54
175.93
259.19
24.57
41.45
53.26
53.49
54.83
58.87
87.27
97.6
104.75
126.66
150.35
164.51
165.45
190.57
211.56
314.04
28.62
62.02
65.85
75.71
80.95
81.57
84.37
97.69
98.51
105.59
116.9
124.7
132.39
152.69
270.82
322.4
54.88
65.18
69.77
71.15
73.5
90.2
92.07
95.48
105
133.57
134.47
136.68
146.17
173.15
174.33
290.43
23.98
36.08
45.53
56.04
63.73
71.73
74.78
78.11
86.03
125.77
137.68
150.26
192.01
219.35
228.76
316.43
35.96
49.37
52.23
52.52
52.93
72.12
85.52
95.56
104.82
123.47
125.62
142.8
185.41
192.84
219.03
318.44
21.71
27.93
41.67
51.56
57.09
67.03
84.32
87.8
88.09
93.78
123.58
175.68
185.94
229.1
282.97
295.87
22.76
31.24
40.48
54.89
84.97
98.56
113.42
115.6
121.24
121.91
135.42
145.8
152.5
187.39
235.52
261.13
48.39
50.23
54.12
91.65
94.76
99.87
102.71
106.95
113.75
130.37
134.78
141.66
183.15
187.81
188.94
197.76
33.5
55.71
61.51
67.15
69.68
81.54
83.86
90.84
111.41
131.02
131.71
131.98
141.11
230.94
238.52
278.66
22.32
54.38
54.51
72.49
76.35
82.83
83.59
91.62
93.06
113.14
137.69
167.84
180.09
200.25
210.04
309.66
49.72
59.43
75.69
78.16
83.46
85.5
87.58
97.01
97.14
107.87
120.22
137.52
159.83
184.38
229.22
300.76
37.94
59.29
69.09
70.17
84.16
89.17
92.07
92.58
98.11
120.46
135.87
164.09
178.07
185.9
242.3
246.43
51.01
57.25
59.34
74.25
84.88
86.83
86.89
91.12
121.93
148.71
153.61
156.14
160.23
165.01
187.13
285.08
30.02
57.63
58.61
69.26
71.4
85.17
85.28
87.12
134.22
138.96
166.35
175.38
186.49
195.16
196.86
247.98
43.95
44.34
44.98
45.82
63.5
69.76
74.68
82.32
88.49
93.85
179.29
182.4
200.07
213.17
270.62
289.5
59.44
66.93
74.57
98.62
107.63
116.58
118.74
127.33
129.64
132.63
138.91
141.71
155.32
168.58
170.07
180.49
26.1
32.39
48.51
56.2
92.8
94.12
106.74
114.62
122.97
125.98
148.93
152.9
164.45
177.49
196.63
336.28
74.91
76.7
79.19
80.62
90.88
96.57
99.73
108.21
110.65
123.02
129.84
148.96
174.79
195.5
204.2
216.13
32.15
43.59
44.48
50.47
51.11
60.07
88.98
89.92
92.93
166.24
177.85
191.2
202.92
223.28
233.56
266.89
31.13
36.32
52.6
52.99
63.38
68.3
70.76
94.15
127.94
153.21
185.12
190.31
196.99
210.56
227.33
273.21
31.95
35.22
79.52
86.67
103.6
103.91
109.59
116.62
121.74
132.14
137.73
145.94
163.88
179.46
226.37
262.96
23.77
30.2
74.36
87.41
93.54
96.75
99.83
100.04
124.15
124.36
126.4
156.82
162.74
190.13
210.16
338.03
19.99
26.42
29.64
57.25
62.15
65.29
100.8
110.24
126.01
128.06
160.26
216.41
220.13
224.62
230.91
262.09
14.09
34.03
55.1
85.94
96.75
99.8
104.52
109.63
133.52
139.66
142.19
145.81
149.23
154.32
266.22
347.67
48.64
62.16
67.96
82.09
83.56
104.17
105.75
110.95
117.84
123.75
135.1
160.81
186.11
188.47
216.29
292.1
21.44
23.38
39.54
47.29
63.58
70.58
84.48
92.15
107.38
112.91
138.76
147.82
181.84
204.46
231.83
537.53
42.06
42.59
45.87
53.44
67.61
67.95
69.29
117.68
151.68
153.37
161.94
166.78
181.14
224.47
267.65
296.99
9.42
21.95
40.86
53.8
64.63
75.14
84.08
85.55
94.87
96.05
103.3
152
214.29
319.42
346.07
353.98
6.28
56.62
58.45
63.43
84.97
94.65
102.2
131.59
144.92
165.37
169.74
185.64
195.24
213
217.44
226.99
44.01
47.17
63.44
71.46
84.15
85.24
92.76
99.82
115.78
123.99
135.02
145.89
151.9
221.2
247
389.71
48.5
54.1
70.5
89.91
90.72
94.47
101.69
111.3
123.78
132.99
136.3
160.08
162.98
179.55
237.47
333.91
47.48
59.02
71.56
79.98
86.27
99
100.81
102.72
137.87
164.23
170.54
176.88
177.41
183.57
183.86
294.69
29.43
34.02
66.54
79.61
86.31
99.01
133.45
135.76
137.72
151.1
157.74
158
160.2
162.69
201.51
346.75
58.68
66.61
73.47
93.84
107.06
111.39
131.65
136.95
140.6
148.55
158.81
160.69
165.18
170.78
189.44
227.85
25.55
33.02
46.09
53.1
54.62
83.28
84.4
100.67
121.69
142.54
148.06
148.62
227.21
251.46
293.49
329.15
41.33
56
57.56
62.06
64.35
78.55
104.71
106.52
149.61
152.19
164.32
177.83
191.29
221.5
230.31
302.83
38.77
50.33
66.16
79.23
100.74
116.39
118.81
120.63
134.43
136.44
137.06
163.62
174.93
222.94
235.74
271.48
20.08
69.73
78.29
84.37
86.12
87.49
93.02
127.55
132.42
166.97
178.93
180.77
198.92
208.9
221.63
233.1
39.72
44.47
44.7
53.98
56.53
77.01
88.11
96.61
126.97
131.23
134
158.74
201.15
217.4
223.31
476.9
23.5
34.47
62.19
67.01
79.86
89.73
102.13
107.2
130.86
131.64
150.86
157.45
188.74
189.81
204.19
458.57
34.88
64.24
72.11
72.45
72.81
79.01
80.11
93.27
97.66
106.19
155.12
164.62
193.23
193.46
236.24
462.95
34.36
37.01
42.9
66.75
93.17
97.12
101.61
129.34
130.9
135.73
167.92
189
189.6
210.76
222.65
332.55
27.02
47.1
51.57
53.45
97.68
105.16
106.27
113.49
119.36
135.8
137.07
137.19
173.34
180.12
265.04
433.49
27.51
51.8
54.87
62.34
74.44
80.66
81.11
107.8
120.62
135.99
166.19
178.2
210.52
244.2
264.79
326.72
18.34
31.9
57.28
74.66
83.1
90.02
92.93
128.99
166.29
171.56
181.1
198.71
199.8
203.25
249.74
256.2
46.76
63.51
65.04
78.86
86.72
103.77
120.1
125.53
128.72
146.76
158.89
187.85
195.59
203.71
222.02
271.54
34.45
46.39
58.89
69.48
76.6
81.05
96.63
133.84
139.61
140.17
147.37
148
215.13
228.86
295.84
325.9
27.33
29.42
62.64
74.31
75.3
98.57
114.93
143.96
145.61
167.95
179
197.7
208.8
242.4
247.9
251.62
38.64
41
55.79
85.9
116.83
127.77
134.14
141.74
151.93
161.4
162.96
166.74
176.88
180.05
222.43
309.86
28.36
49.78
67.02
81.68
87.53
94.4
118.84
144.09
152.48
160.06
176.92
177.93
190.91
191.22
267.61
294.13
38.47
48.86
82.73
90.5
109.95
116.56
154.07
159.72
160.92
169.11
170.7
180.63
195.33
196.46
204.21
212.22
33.35
46.44
71.66
78.62
98.18
109.42
113.86
117.26
127.99
131.81
141.33
194.29
229.65
238.2
246.13
317
37.98
40.36
54.54
67.73
69.53
104.98
108.98
130.15
144.02
154.51
163.6
193.65
202.98
219.83
242.47
361.42
6.4
26.67
46.05
50.25
89.41
90.27
109.14
113.57
114.61
124.42
166.7
175.78
233.41
247.97
263.63
446.09
35.98
36.18
55.58
86
103.04
104.53
105.55
145.45
154.18
169.08
180.8
195.86
217.37
222.06
232.54
273.21
18.07
31.36
50.11
51.73
80.21
88.94
92.86
93.16
103.11
112.94
136.8
222.53
282.75
314.9
326.71
328.79
39.24
39.91
47.9
50.4
88.59
88.68
104.28
138.87
161.58
165.32
203.39
213.55
231.99
239.59
248.84
279.54
29.53
37.52
53.26
54.85
64.2
83.56
86.29
87.21
99.95
109.33
207.53
253.52
265.11
279.04
286.58
378.36
32.42
39.06
65.16
88.89
108.6
114.07
122.42
136.83
137.3
145.06
145.88
157.05
179.22
278.26
293.31
335.03
40.56
44.49
48.59
81.78
87.67
110.21
131.69
133.18
152.32
155.75
175.79
181.62
190.78
213.4
213.56
424.85
24.42
25.82
38.64
48.94
59.41
61.96
65.19
147.09
149.57
153.68
156.33
159.4
283.8
299.1
336.75
386.9
17.42
73.6
93.4
96.13
99.18
99.47
108.46
142.01
142.28
148.89
152.02
152.56
156.23
238.46
291.21
385.79
56.67
63.09
66.02
71.82
79.43
84.62
92.39
99.53
101.02
120.04
145.73
170.25
190
250.39
404.36
422.61
39.01
47.12
48
49.8
73.12
92.94
129.04
138.46
155.62
165.32
193.93
196.03
213.57
253.63
288.03
336.12
25.19
57.67
68.41
98.7
118.56
123.85
124.81
142.35
143.47
146.86
179.1
196.97
198.68
249.92
270.36
284.56
56.81
59.68
78.45
82.83
116.15
118.56
140.32
152.95
153.04
156.61
173.03
183.03
203.44
210.71
246.02
307.79
26.32
41.82
48.25
64.83
104.13
123.64
147.04
150.41
171.26
172.01
208.14
208.93
236.16
242.58
245.52
249.16
49.08
60.03
63.45
89.64
115.16
123.64
131.78
147.03
164.44
168.03
180.4
180.44
181.1
214.97
271.87
327.24
33.36
46.02
82.36
87.87
97.15
103.76
112.48
155.36
164.45
181.43
187.13
191.64
197.14
238.03
243.06
349.42
43.45
46.89
56.78
69.39
85.01
110.03
116.2
177.64
178.51
191.02
191.19
196.58
199.54
219.96
242.17
348.89
50.11
64.75
78.31
90.25
98.03
102.41
140.79
144.63
157.48
161.14
182.81
192.04
192.48
194.41
198.4
433.57
51.66
59.92
78.4
87.15
90.69
104.64
112.71
114.15
130.75
144.72
166.9
186.11
195.21
291.74
299.13
372.3
45.06
54.7
59.1
70.15
83.49
85.81
127.24
158.3
160.76
168.17
169.43
175.03
175.25
291.2
302.91
360.79
50.77
57.49
61.73
67.2
84.04
117.03
134.57
135.8
140.57
157.62
158.67
197.31
201.17
202.92
341.88
392.22
55.2
59.73
61.8
67.29
68.24
87.01
97.32
98.24
104.1
104.29
111.75
113.15
197.85
314.88
443.15
527.11
44.83
54.23
71.18
78.18
82.57
99.9
115.77
135.64
145.8
169.96
172.52
217.55
247.51
254.57
306.67
319.2
22.97
80.93
94.41
102.53
104.94
115.35
123.34
125.93
151.72
161.14
173.51
208.17
220.74
271.56
277.99
303.25
42.96
56.69
59.08
69.86
107.58
113.5
115.67
135.33
141.78
168.92
208.67
253.36
257.64
258.64
262.58
292.63
70.87
75.12
75.77
76.25
76.67
106.44
116.77
117.21
125.49
132.77
158.25
203.45
217.84
305.21
319.37
381.84
35.56
52.02
66.08
79.2
82.14
104.49
116.44
125.3
129.57
139.89
142.41
145.35
178.97
248.16
437.87
476.74
18.67
55.17
56.27
59.45
61.08
122.88
132.88
149.17
170.52
170.96
195.95
205.98
245.23
268.58
309.26
339.11
28.55
50.76
70.15
78.41
85.42
100.35
126.76
166.05
167.32
196.86
198.05
201.46
234.73
244.61
254.33
369.91
80.97
85.37
91.04
99.37
112.57
115.46
119.32
119.33
168.66
175.12
177.09
179.36
214.35
266.3
288.59
299.27
56.65
56.84
108.02
121.77
122.75
135.6
142.48
144.4
163.88
165.4
191.75
211.04
222.44
227.37
266.51
272.24
43.33
49.5
84.79
89.89
92.02
120.02
120.3
139.08
141.21
157.66
198.61
215.91
222.54
256.24
287.68
414
38.43
80.68
82.78
99.85
127.68
128.98
142.18
146.27
155.02
166.24
167.08
173.52
173.89
227.08
347.29
380.79
42.36
57.6
100.48
105.81
122.74
124.3
127.5
136.29
145.6
149.19
167.73
179.59
185.87
217.63
364.26
438.76
30.21
77.74
102.67
115.75
131.8
134.05
155.84
157.5
166.57
178.8
196.58
200.44
228.63
237.82
248.4
305.12
40.09
41.34
68.7
96.98
108.46
115.21
116.83
130.61
138.82
167.98
178.13
183.67
204.09
319.75
364.07
404.12
16.06
86.89
89.07
114.52
118.01
129.12
129.73
156.26
156.42
161.01
210.94
216.99
223.4
250.37
300.91
323.49
59.43
59.48
66.73
67.07
77.65
114.6
122.63
127.16
163.83
169.5
175.23
247.35
271.15
285.24
292.14
385.75
39.43
50.15
68.49
70.07
79.61
106.02
123.52
135.55
167.63
169.25
171.25
176.07
185.53
326.39
347.09
488.23
74.51
80.48
95.36
124.46
137.09
138.61
149.89
162.43
165.89
178.22
182.93
187.22
205.05
219.21
281.81
386.97
57.33
59.71
92.83
97.02
99.06
130.55
134.72
149.78
157.79
171.85
180.85
190.14
210.94
242.59
254.65
542.08
35.45
41.16
78.11
104.26
107.08
113.06
117.7
118.63
123.09
126.58
152.09
241.26
292.77
325.81
393.85
445.32
66.39
85.02
111.63
136.58
141.04
144.3
147.51
158.78
177.72
179.25
191.95
194.17
213.26
256.44
273.61
341.67
19.13
43.75
62.93
63.74
66.29
67.26
74.56
108.21
151.57
164.55
239.74
260.12
292.59
377.34
421.48
456.97
39.52
88.86
96.33
117.32
124.32
126.84
148.13
151.78
195.76
198.66
215.09
218.54
224.71
257.28
294.33
385.07
23.09
76.04
78.68
98.23
102.95
113
131.36
169.02
173.62
213.88
215.99
235.26
248.22
269.94
287.98
461.32
62.93
75.15
81.32
97.75
123.6
141.56
162.36
183.8
198.6
199.79
202.64
208.17
234.41
278.26
310.08
355.39
49.57
67
88.77
122.07
125.03
134.27
150.99
184.35
186.52
197.91
205.56
230.71
246.09
263.26
328.24
339.98
80.84
83.9
85.57
102.36
111.06
141.22
150.4
158.49
187.3
197.38
212.42
215.25
234.2
296.05
317.28
380.55
28.8
35.18
38.44
72.98
82.24
99.85
127.25
146.75
150.23
213.14
223.89
263.04
287.31
373.44
406.85
453.11
76.96
82.77
90.75
128.26
143.27
145.63
146.21
153.95
157.19
176.47
192.39
215.07
256.26
269.65
373.45
437.99
47.19
51.09
73.12
119.76
140.93
152.27
184.58
202.14
208.98
214.92
243.32
255.89
266.74
284.5
294.13
344.5
52.94
67.15
98.47
121.01
143.36
165.59
178.79
179.11
179.21
216.02
231.9
278.56
281.44
292.13
295.44
310.85
59.79
70.88
85.64
116.38
116.61
138.53
141.48
150.66
157.83
186.44
193.77
212.43
270.03
284.58
434.72
480.89
38.84
48.13
97.68
109.58
120.22
125.29
154.78
163.41
184.38
187.72
209.4
256.94
276.03
302.96
406.55
425.74
69.45
99.09
125.36
128.23
132.99
140.04
144.67
146.92
166.15
192.77
219.89
229.45
229.84
275.43
374.12
435.18
6.16
24.81
98.74
116.98
124.82
140
140.2
145.61
173.35
193.37
213.22
217.3
244.12
308.72
312.71
657.2
80.04
99.97
109.72
117.27
125.77
136.69
145.8
154.27
201.52
206.07
210.05
261.63
266.96
271.02
367.77
368.26
41.37
55.2
79
88.29
96.55
100.92
169.17
182.55
188.27
204.79
226.53
239.99
246.77
263.71
463.77
478.06
108.14
110.41
135.54
137.59
154.18
165.04
165.06
166.96
187.51
208.07
223.71
256.9
261.64
266.63
293.68
296.4
59.23
90
96.07
111.71
117.01
131.92
134.65
160.59
183.86
232.33
238.58
256.71
259.7
283.12
392.72
408.99
10.02
109.78
114.6
119.49
119.52
132.55
138.69
161.92
210.78
214.98
217.23
290.35
319.99
325.41
360.73
361.22
35.21
77.78
88.95
89.83
114.86
117.66
130.98
163.97
187.62
213.79
265.59
278.13
292.92
380.64
389.98
406
30.37
48.27
51.3
68.7
80.88
81.83
113.62
162.87
215.13
219.69
280.31
288.03
303.13
380.95
429.9
493.41
45.77
53.95
94.13
115.49
124.86
128.75
136.8
157.08
166.35
223.08
228.45
286.32
299.35
320.64
387.23
540.94
75.08
78.96
92.61
94.81
137.29
146.03
157.01
180.32
231.94
253.25
256.68
283.54
293.02
298.03
308.6
432.45
48.11
60.8
90.74
97.66
127.69
127.8
145.01
146.84
171.05
213.76
225.99
261.35
276
293.52
342.49
710.22
43.32
102.05
138.37
148.32
158.77
161.51
169.7
199.69
203.78
238.53
243.58
258.19
266.82
292.11
372.31
424.21
43.91
96.55
109.3
120.74
145.44
152.49
157.43
236.51
236.87
266.18
281.79
287.79
295.73
311.11
345.26
359.17
17.09
32.79
66.63
75.55
115.06
123.25
145.12
176.19
177.62
196.69
226.04
235.21
254.22
364.89
540.13
765.59
60.36
92.37
96.22
124.41
170.46
172.2
174.48
177.07
194.61
206.6
208.74
310.67
339.61
353.03
366.6
520.03
52.79
54.04
77.18
148.2
151.97
169.15
196.81
205.74
220.8
287.95
291.83
313.29
316.44
328.88
351.32
450.18
56.72
93.6
108.37
131.4
146.28
159.71
180.35
201.91
204.83
211.39
213.19
335.7
359.31
378.42
401.51
537.37
36.96
89.24
103.51
158.47
165.77
170.42
181.5
235.07
237.98
239.54
286.63
290.18
304.16
317.8
495.48
500.17
38.58
50.61
65.75
148.93
151.59
158.58
187.98
195.64
221.94
273.3
284.95
285.58
313.14
430.22
470.96
578.05
34.15
101.3
143.61
151.41
156.44
166.86
193.22
199.13
201.87
222.96
272.29
277.21
292.96
436.65
472.56
603.31
105.38
119.62
138.15
159.89
161.73
164.58
200.09
214.67
227.96
242.7
285.99
290.2
295.75
360.51
437.42
624.4
47.09
85.64
103.41
139.67
172.04
225.57
240.76
249.12
256.54
288.77
298.81
327.13
379.55
462.85
476.36
481.17
65.78
85.57
95.11
99.23
120.17
131.97
135.95
153.16
173.86
249.42
316.85
322.47
364.34
463.13
603.76
862.15
43.4
108.55
115.41
126.8
134.35
164.05
197.55
259.05
294.99
318.22
319.86
358.01
383.88
455.17
463.35
525.23
57.86
65.64
129.97
162.28
194.03
194.75
264.93
308.74
318.1
325.4
327.03
340.09
348.45
351.63
492.15
564.92
97.48
126.72
135.07
172.07
192.41
224.76
259.12
271.43
285.22
304.48
305.96
315.11
373.34
422.58
556.37
559.89
49.18
80.08
103.66
161.03
182.83
197.12
253.27
258.38
279.63
330.68
380.04
420.36
433.58
499.86
509.94
515.4
108.66
150.04
153.4
153.83
190.63
224.62
264.69
284.2
293.35
321.65
352.54
361.86
368.24
412.19
542.82
601.4
22.41
114.95
116.65
183.3
184.38
208.83
214.57
248.84
331.4
361.8
404.98
431.94
432.45
432.6
508.34
610
87.65
88.36
150.89
156.92
165.94
214.34
222.68
228.34
278.93
297.65
306.48
416.36
492.25
512.89
633.02
819.26
88.3
105.79
124.76
151.61
154.42
182.16
203.67
229.01
231.28
238.4
329.84
363.47
555.42
557.32
649.02
964.51
121.31
129.45
143.9
164.7
175.1
179.05
195.81
257.85
357.14
380.91
423.31
426.72
483.56
511.68
561.36
661.73
91.24
108.38
189.21
224.52
243.68
272.42
284.96
285.76
314.48
329.4
343.26
413.14
431.47
539.29
718.89
724.8
99.01
121.88
151.27
151.92
162.67
165.74
192.99
194.82
295.52
313.79
328.81
477.17
546.36
659.67
723.77
1155.55
