6.82
8.05
8.07
8.08
8.12
8.14
8.3
8.48
8.6
8.88
9.09
9.2
9.55
9.72
9.88
9.99
8.96
9.52
9.67
9.84
10.06
10.61
10.87
10.98
11.22
11.26
11.4
11.55
11.71
12.26
13.42
13.61
10.55
11.51
11.54
11.6
11.75
11.88
11.99
12.07
12.14
12.15
12.24
12.5
12.99
13.02
13.3
13.67
12.11
13.44
13.87
14.18
14.44
14.71
15.03
15.2
15.35
15.54
16.51
16.69
16.82
17.01
18.71
19.41
13.39
13.61
14.04
14.33
14.34
14.69
15.67
15.67
16.36
16.46
16.49
16.92
16.96
17.6
18.77
19.13
14.77
15.22
15.51
15.77
15.77
15.8
15.95
16.27
16.32
17.04
17.25
17.9
18.09
20.4
21.03
21.52
16.43
16.99
17.34
17.56
17.72
17.79
18.09
18.44
18.48
18.68
18.91
18.93
19.22
19.41
19.59
19.7
14.34
14.94
16.67
16.74
17.12
17.58
17.93
18.31
19.04
19.52
19.7
19.97
20.02
21.2
21.66
21.73
16.18
16.75
16.77
16.82
17.39
17.7
17.78
18.81
19.19
19.36
19.38
19.96
20.36
20.77
20.91
20.91
16.5
17.37
17.71
17.75
19
19.02
19.09
19.1
19.16
19.42
19.93
20.62
20.79
21.42
21.46
22.3
16.78
17.67
17.74
17.82
17.82
18.17
18.93
19.16
20.02
20.13
20.18
21.22
21.23
21.88
22.23
23.44
17.35
17.36
18.27
18.8
18.92
19.45
19.9
20.43
20.72
20.87
20.93
21.35
21.74
22.75
22.92
23.83
18.6
19.36
19.73
20.91
21.47
21.51
22.05
22.07
22.39
23.26
23.39
23.44
23.82
24.19
27.55
27.61
19.52
21.67
21.73
21.88
22.03
22.37
22.59
22.78
22.82
23.05
23.29
24.39
24.42
27.34
27.52
27.64
18.93
21.04
21.11
21.24
21.32
21.5
22.23
23.19
23.21
23.53
23.77
25.04
26.58
27.04
27.8
28.96
18.74
21.18
22.15
22.83
23.35
23.72
23.93
24.11
24.16
24.8
25.27
25.69
25.72
26.26
26.29
26.33
16.72
22.46
22.54
22.97
24.16
24.21
24.23
24.34
24.41
24.95
25.28
25.67
27.59
28.95
28.98
29.17
21.83
22.54
22.86
23.18
23.52
23.59
24.31
24.8
25.09
25.1
25.13
25.57
25.71
26.65
28.62
28.84
20.17
21.34
23.28
23.92
24.07
24.4
24.86
24.92
24.96
26.15
26.28
26.49
26.77
26.96
27.34
27.83
19.02
22.42
22.72
22.8
22.89
23.77
24.3
25.2
25.69
26.31
27.12
27.45
27.64
28.5
28.75
29.08
23.7
24.08
24.49
24.56
24.63
24.69
24.8
25.25
25.29
25.3
25.85
25.88
26.21
26.44
26.52
26.68
21.9
22.13
22.55
23.85
23.86
24.13
25.45
25.64
26.06
26.44
26.47
26.48
26.85
27.27
28.18
28.83
20.96
22.33
22.61
22.96
23.31
23.76
23.95
25.26
25.37
25.85
25.9
26.92
27.38
28.29
30.77
30.83
21.97
22.26
23.18
23.88
24.74
24.86
25.04
25.27
25.3
25.8
25.88
26.24
26.53
28.5
28.67
29.24
19.21
20.27
24.29
24.47
24.58
24.94
24.98
25.27
25.56
25.84
26.48
27.25
28.81
29.01
29.53
30.12
20.96
23.11
23.25
24.09
24.13
25.39
25.66
25.91
25.97
26.03
27.03
27.24
27.45
28.17
28.42
28.7
23.38
23.73
24.36
24.47
25.59
25.62
25.77
26.21
26.24
27.04
27.35
28.24
29.05
29.32
29.47
30.29
24.05
24.17
24.2
24.32
24.75
24.79
25.04
25.2
25.86
25.89
26.33
27.13
27.31
28.91
30.27
38.12
22.23
23.39
24.59
25.66
25.92
26.05
26.98
27.19
27.28
27.34
28.13
28.2
29.19
30.67
30.86
32.63
23.89
24.18
24.52
25.2
25.45
25.76
25.97
27.03
27.51
28.34
28.38
28.46
28.59
29.13
32.28
32.67
23.91
26.56
26.73
27.06
27.7
27.81
28.45
28.7
29.1
29.31
29.44
29.56
30.7
30.96
31.04
31.53
24.69
25.19
25.68
26.66
26.8
27.83
28.02
28.92
29.09
29.15
29.77
30.54
31.15
31.23
31.83
33.31
24.34
25.03
25.13
26.42
26.99
27.33
27.65
28.32
29.72
29.77
30.12
31.32
31.5
32.56
33.09
34.18
25.22
25.41
25.59
26.38
27.1
27.36
27.62
28.85
29.67
30.69
31.19
31.41
31.89
32.37
33.56
34.26
25.58
26.43
26.67
27.08
27.4
28.02
28.75
28.8
28.8
30.54
30.71
30.72
30.99
31.26
33.12
33.8
25.81
26.5
26.74
27.69
27.77
28.09
28.3
28.64
28.83
29.11
29.59
30.95
31.7
31.97
33.45
37.07
27.15
28.03
28.1
28.24
29.04
29.2
29.41
29.52
30.11
30.85
30.87
30.94
31.06
31.7
34.3
36.46
26.77
26.82
27.4
27.44
27.79
28.07
29.29
29.35
31.11
31.7
32.3
32.73
32.92
33.56
33.98
34.03
25.18
25.94
26.36
27.95
28.02
28.44
29.66
30.59
31.55
31.71
31.82
31.96
32.47
32.77
34.5
39.23
24.36
28.09
28.46
28.73
29.3
29.59
30.78
31.22
31.25
31.37
31.68
31.85
31.86
32.38
33.26
35
25.27
27.4
28.53
28.75
29.18
29.67
30.36
30.65
31.56
31.77
31.82
31.9
32.28
33.25
33.64
34.01
27.13
27.77
29.13
29.46
29.88
30.26
30.5
30.6
30.73
31.06
31.33
31.46
32.06
32.34
33.49
35.98
25.87
26.26
27.63
28.16
29.12
29.2
29.79
30.27
32.06
32.47
32.5
32.77
33.01
33.95
35.08
35.33
25.07
25.35
27.25
27.43
28.41
29.41
30.69
30.78
31.17
31.43
32.86
33.44
33.44
34.86
35.61
41.28
27.71
28.11
28.19
28.5
29.53
29.68
30.6
30.81
31.38
31.5
31.8
32.47
34.33
36.18
36.84
37.11
25.1
28.82
30.14
30.22
30.26
30.38
30.61
31.5
33.19
33.3
33.47
33.66
33.79
33.87
38.73
39
28.86
28.99
30.22
30.45
30.88
31.85
32.11
32.46
32.84
33.27
33.5
33.77
34.84
35.79
36.51
36.6
26.58
27.68
30.77
31.36
31.39
31.61
32.01
32.1
32.9
32.98
33.52
34.46
35.02
35.47
35.75
40.41
24.11
28.07
29.21
30.44
31.58
33.14
33.41
33.71
34.2
34.36
35.65
35.69
36.11
36.34
36.38
36.84
28.46
29.11
30.24
31.21
31.37
32.23
32.34
32.42
32.77
32.8
33.63
37.08
37.28
37.52
37.62
42.78
27.85
28.02
30.94
31.07
31.12
32.61
32.79
32.91
34.23
34.67
35.55
35.9
36.76
37.83
38.69
40.82
27.66
30.16
30.17
32.61
33.25
33.66
33.79
34.03
34.1
34.77
35.33
35.65
37.14
37.29
38.4
38.81
29.56
32.07
32.41
32.52
32.65
33.29
33.57
34.01
34.18
34.52
35.33
36.54
36.68
37.08
37.6
41.27
30.06
31.21
32.63
33.29
33.69
34.08
34.21
34.27
34.92
35.2
35.79
36.72
37.15
37.41
38.75
42.34
29.64
31.8
32.4
33.25
34.11
34.38
34.4
34.45
34.77
35.05
35.87
37.21
37.83
38.67
38.67
39.65
30.99
31.02
33.12
33.65
34.18
34.48
34.65
35.44
35.53
35.89
37.35
37.88
39.66
40.81
40.93
42.09
32.31
33.6
33.66
34.15
35.97
35.99
36.31
36.42
36.82
37.27
37.89
38.29
38.42
39.97
40.53
41.79
29.29
31
32.33
33.35
33.79
34.54
34.81
34.94
36.13
37.45
37.63
40.88
40.89
43.36
43.87
47.15
32.07
32.2
32.79
33.82
33.89
35.94
36.7
36.89
38.56
38.79
39.42
40.45
40.92
41.13
42.44
43.04
30.48
32.05
34.77
36.51
37.15
37.54
37.66
37.66
38.24
38.6
38.73
39.27
39.35
41.27
41.53
43.13
30.81
31.9
32.46
36.2
36.44
36.91
38.28
38.35
38.61
39.78
39.8
40.54
40.77
42.04
42.17
43.28
32.03
33.13
33.66
34.56
35.54
35.57
36.27
37.19
37.34
37.99
38.22
38.96
40.12
40.42
41.75
56.56
32.16
33.53
35.92
36.75
37.08
37.13
37.69
38.1
38.18
38.5
39.62
39.75
40.38
42.48
42.61
42.94
32.05
34.59
35.38
35.92
36.67
36.7
38.18
38.47
39.26
39.43
39.6
39.64
39.77
41.22
46.82
47.99
33.08
34.68
35.57
36.11
37.98
38.23
38.31
39.2
39.53
41.02
41.42
41.84
42.2
42.27
42.64
45.09
35.43
36.89
37.38
37.57
37.81
38
38.23
39.14
39.42
39.91
40.06
40.88
41.59
42.99
45.2
47.27
30.55
34.76
34.92
36.02
36.59
39.08
40.29
41.53
41.56
41.67
41.75
41.76
42.18
43.02
44.82
48.03
36.21
37.68
37.69
37.86
38.04
38.53
39.03
40.69
40.7
40.93
41.37
41.69
44.09
44.22
47.43
49.81
34.18
35.8
36.45
39.1
39.8
40.15
41.59
41.93
41.95
42.26
42.33
42.49
42.6
43.58
44.74
49.25
34.99
37.03
37.39
38.36
39.13
39.42
39.77
41.84
42.34
42.44
42.84
43.58
43.82
43.85
45.66
47.13
34.38
36.34
36.66
38.34
38.35
39.3
39.36
39.41
40.43
40.57
41.66
42.2
43.39
48.91
51.52
53.17
31.56
38.77
39.04
39.75
40.37
40.41
41.05
41.34
41.72
42.03
42.6
43.25
43.58
45.1
45.47
48.41
35.52
38.11
38.23
39.26
40.16
40.35
41.72
42.69
42.73
42.78
42.83
43.5
43.54
44.07
46.6
47.09
36.28
36.36
36.6
38.14
38.31
38.83
39.04
39.6
40.28
42.67
43.78
44.05
44.73
46.01
46.62
62.65
35.52
36.39
38.27
38.44
38.8
39.83
42
42.13
42.36
42.54
43.65
43.69
45.43
47.19
47.57
51.61
34.16
34.99
35.28
36.26
38.94
40.66
41.55
41.96
42.39
42.68
44.95
46.01
46.71
47.7
50.26
51.54
31.87
37.09
40.02
40.69
41.22
41.27
42.29
43.56
43.86
43.9
44.69
46.11
46.92
47.22
47.26
49.06
34.49
35.37
38.39
39.75
42.18
42.72
42.86
43.53
43.56
43.82
44.14
44.94
47.1
48.59
48.96
50.97
38.04
38.18
38.71
39.81
41.04
41.5
41.69
41.95
42.41
43.25
46.2
46.74
46.99
48.24
48.61
48.79
36.13
37.12
38.09
38.25
39.44
39.8
39.83
40.93
42.43
44.02
44.33
46.8
47.9
49.54
51.59
56.42
35.44
38.1
38.22
40.62
41.55
41.62
42.08
42.31
43.28
44.14
44.38
46.43
47.17
49.02
49.95
50.17
34.59
38.49
38.95
39.73
41.75
42.73
43.27
43.32
44.05
44.52
44.64
46.29
47.27
49.42
50.81
51.36
38.82
39.23
39.48
39.86
41.13
41.37
41.49
41.97
42.58
42.58
43.25
46.27
47.37
48.1
49.6
61.11
38.47
38.95
40.93
41.57
42.47
43.29
44.04
44.5
44.53
44.65
45.24
45.77
46.33
47.87
47.94
55.4
34.18
38.56
40.63
42.1
43.13
43.6
44.35
44.53
46.82
46.83
47.52
48.35
48.55
48.72
49.79
50.11
39.55
39.91
41.21
41.28
41.44
42.13
44.99
45.04
45.56
45.79
47.22
48.06
48.17
48.6
49.06
50.26
38.47
39.62
41.07
41.17
42.94
44.79
44.86
44.98
45.33
46.04
46.39
46.78
47.56
48.86
54.96
58.9
37.98
39.9
40.11
43.12
43.93
44.51
45.09
45.52
46.09
46.72
47
47.28
47.4
50.26
52.33
55.74
34.66
41.12
41.67
43.11
43.86
44.63
46.05
47.15
47.5
47.89
48.05
48.16
48.29
49.48
50.89
51.22
37.1
40.3
41.25
41.41
41.62
42.45
42.47
44.46
46.75
48.14
48.83
50.88
51.07
51.34
51.78
54.96
30.94
36.57
38.11
42.27
43.74
46.43
47.02
47.64
48.02
48.66
49.41
49.63
51.46
51.72
51.74
52.43
36.17
39.49
41.11
41.48
41.67
44.38
44.77
45.45
47.63
48.1
49.78
51.28
52.05
52.29
53.05
54.58
35.56
37.59
39.91
41.82
43.47
44.69
45.87
46.12
46.12
46.43
46.71
51.51
52.27
53.34
54.57
60.76
40.51
43.19
43.63
43.97
44.45
46
46.02
46.07
47.26
47.54
47.98
48.84
49.65
51.36
52.05
53.26
36.8
41.8
42.78
43.05
44.67
44.98
44.98
46.43
46.68
47.52
48.23
48.74
49.1
51.08
52.21
64.39
41.79
41.86
44.41
44.61
44.93
46.42
46.7
46.89
46.89
47.66
48.76
49.18
49.41
49.88
51.7
53
40.97
41.92
43.79
43.86
45.64
46.99
47.13
47.26
47.87
48.43
48.84
49.11
49.65
49.88
51.08
52.57
40.37
43.04
43.39
45.02
45.39
45.45
45.75
45.87
47.4
47.72
48.54
49.65
51.08
51.15
53.11
57.26
36.56
42.35
42.58
43.94
44.69
44.97
45.87
45.9
46.14
49.53
50.17
50.19
51.97
53.38
54.75
58
38.32
42.33
43.66
44.43
44.95
45.43
45.58
46.24
46.84
48.25
48.57
49.86
49.91
53.19
57.04
58.96
37.07
39.61
43.29
43.73
46.24
46.7
46.73
47.39
48.23
49.45
49.55
49.56
51.46
52.32
55.15
59.94
41.02
41.04
41.69
42.13
42.54
43.16
43.99
47.03
50.34
50.41
51.84
52.79
53.48
53.96
54.19
60.81
42.25
42.74
44.2
44.46
45.03
46.18
46.7
47.35
48.04
48.31
48.74
49.49
51.65
52.25
56.84
58.04
39.66
42.82
43.77
44.14
44.49
47.01
48.07
48.14
48.86
49.33
49.44
51.43
52.67
52.73
54.32
55.63
39.98
43.66
44.57
45.13
46.14
48.05
48.07
48.45
48.98
49.42
49.5
50.29
51.36
51.65
55.01
56.94
39.61
43.39
44.39
45.18
46.35
46.43
47.62
48.29
48.64
49.56
49.85
50.13
50.97
54.48
55.59
60.78
38.55
40.09
43
43.98
44.61
46.09
49.38
49.84
51.02
52.31
52.4
52.4
53.7
54.84
54.88
61.4
40.49
41.53
42.17
44.33
46.13
46.2
47.55
49.52
49.57
50.12
51
52.51
56.98
57.04
58
58.61
41.72
44.01
44.65
45.98
46.47
47.51
49.09
50.17
50.54
52.61
53.36
53.77
54.98
56.87
59.42
59.44
43.47
44.07
45.19
45.85
46.31
48.64
48.86
50.99
53.93
53.98
53.98
54.02
54.33
55.76
56.53
57.42
43.96
44.26
47.91
48.73
49.07
49.38
49.48
50.71
50.99
51.6
51.62
52.86
53.54
53.97
55.73
60.23
42.53
44.32
48.81
50.7
50.92
50.94
50.97
51.31
51.38
52.44
52.58
53.5
54.9
55.79
57.49
64.7
46.06
46.38
47.47
47.88
49.03
49.3
51.05
51.63
52
53.23
53.26
54.33
54.33
56.55
58.08
64.78
42.28
44.11
46
46.14
46.3
50.27
53.43
54.24
54.27
55.08
55.51
55.71
57.6
58.35
61.75
64.13
41.09
41.54
44.82
45.57
47.35
48.79
52.39
53.2
55.14
56.82
58.14
58.6
58.68
59.96
60.44
64.86
42.04
47.12
49.29
49.29
51.73
52.46
52.8
52.88
52.89
55.2
55.39
56.81
56.85
58.41
60
62.25
40.89
45.35
45.87
51.52
51.55
52.13
52.58
52.88
54.15
54.74
55.49
57.26
59.33
59.59
60.35
61.89
43.29
49.8
50.45
50.87
51.64
52.04
52.38
53.73
53.75
55.2
55.45
56.58
56.71
58.04
58.23
61.87
43.12
49.21
49.37
51.45
51.56
51.83
52.09
52.22
53.2
54.62
55.3
55.71
56.56
59.69
61.23
64.98
42.24
45.99
50.68
50.99
52.45
53.91
53.95
54.45
55.09
55.28
55.71
57.69
58.58
58.62
60.31
65.38
42.21
47.85
48.13
49.12
51.24
52.03
53.7
53.84
54.63
55.33
56.15
56.36
58.72
62.64
64.2
66.16
45.36
46.08
47.75
50.08
50.55
55.05
55.66
55.78
56.46
56.77
56.83
57.62
58.05
58.59
60.48
61.29
42.67
44.62
45.54
48.96
50.37
50.58
52.2
54.42
54.57
57.23
57.8
57.85
60.28
62.41
64.02
69.6
47.03
50.62
52.47
53.06
54.12
54.42
54.43
55.3
56.01
57.02
57.75
57.88
58.94
58.97
58.97
60.34
44.37
45.5
47.51
48.13
49.74
51.39
54.63
56.68
56.89
57.84
59.01
59.39
59.81
64.66
66.39
67.66
45.11
45.46
47.79
51.43
54.01
54.17
56.4
57.04
57.08
58.02
58.13
58.31
59.97
60.66
61.29
66.42
49.76
49.85
52.07
52.72
53.03
53.74
54.58
54.64
54.98
55.56
56.05
57.83
58.62
60.56
61.85
67.63
43.75
45.04
46.73
48.57
51.93
54.4
54.57
55.61
55.9
58.41
58.73
60.03
61.96
64.52
67.32
67.51
44.72
50.81
51.55
52.35
53.51
53.71
54.65
55.07
57.16
57.95
60.12
60.8
60.96
61.66
61.94
64.68
47.33
50.8
51.03
51.66
52.19
54.37
55.77
56.66
57.38
57.7
58.51
58.77
59.73
61.02
61.23
68.31
43.19
45.85
48.78
49.11
50.91
54.6
56.87
57
58.59
59.79
60.21
60.8
61.59
64.33
65.48
66.17
46.3
49.1
54.74
55.35
56
56.21
56.37
56.53
56.59
56.74
58.38
58.45
59.34
63.86
64.06
66.58
50.22
51.24
51.9
52.48
53.11
54.39
54.57
56.05
57.66
58.81
59.7
59.93
63.82
65.13
65.54
65.82
46.64
51.05
53.36
54.7
55.73
56.82
56.87
57.09
57.61
58.97
59.47
59.78
60.84
63.25
63.66
67.58
48.1
51.36
51.65
54.4
55.99
56.13
56.76
57
57.02
57.53
57.75
58.63
63.69
64.45
66.65
66.75
47.14
47.32
50.28
51.18
51.93
53.61
54.36
54.71
60.2
60.63
60.82
63.27
66.8
67.85
69.3
72.06
51.61
52.51
53.26
53.36
53.89
54.96
55.04
55.12
57.21
58.65
58.95
59.95
63.37
63.38
66.43
73.81
46.96
48.32
53.17
54.03
54.68
56.5
57.32
57.77
58.62
58.66
59.14
60.9
64.14
66.32
67.38
68.26
47.61
51.09
53.17
53.38
54.92
57.88
58.34
58.53
59.3
59.68
59.74
60.47
61.59
63.06
63.24
70.74
44.39
51.44
52.5
53.81
54.05
55.35
56.16
58.08
59.16
60.44
61.21
61.94
64.42
66.95
67.57
69.19
48.7
52.06
53.02
55.34
55.62
57.03
57.34
57.92
59
60.45
61.66
62.21
63.2
64.58
64.77
66.83
47.9
49.36
51.48
54.73
54.74
57.26
59.4
59.44
60.43
60.62
60.76
60.95
60.97
61.48
64.7
78.7
50.17
51.82
52.96
53.35
54.02
57.01
57.5
58.32
59.09
59.23
60.58
61.22
65.21
66
67.08
70.52
45.56
50.7
53.48
53.78
56.37
56.78
57.87
58.11
58.32
58.75
61.22
63.83
65.29
65.81
66.85
72.27
46.9
54.29
55.73
56.3
56.9
57.25
59.18
60.03
60.92
61.21
61.67
62.06
62.72
63.36
63.49
66.95
54
54.77
56.34
56.34
57.51
59.07
59.42
60.25
60.53
60.56
60.86
60.99
61.02
62.07
62.8
67.02
48.19
50.31
53.05
53.32
56.64
57.54
59.55
60.52
60.63
61.92
62.15
62.35
64.35
66.72
67.46
69.11
50.4
54.51
54.67
55.23
56.19
56.53
57.97
57.97
60.72
61.77
61.97
63.02
64.86
66.74
67.16
67.36
40.77
53.5
54.12
54.93
57.23
57.61
58.18
58.26
59.12
59.25
59.82
65.05
65.29
70.21
71.27
75.53
45.81
50.54
54.63
55.46
58.82
59.04
59.19
60.8
60.82
61.57
61.78
63.57
64.29
65.17
66.77
74.4
50.78
52.66
54.08
56.85
58.47
58.53
58.88
58.89
59.75
60.92
62.03
62.9
66.54
68.77
68.93
72.33
52.91
52.98
55.3
56.77
57.58
57.72
57.79
61.65
63.78
63.87
64.49
64.84
64.89
65.16
66.42
67.01
55.47
55.56
56.82
57.68
57.97
59.56
59.87
60.19
60.47
62.09
62.8
63.21
63.68
64.62
66.47
72.35
51.44
53.26
53.57
54.03
57.81
57.94
59.26
61.97
62.02
63.57
64.18
65.04
67.3
67.54
68.69
72.73
46.57
51.52
52.25
54.04
55.42
60.42
61.55
61.79
62.48
62.55
64.31
65.05
66.52
66.65
73.38
76.82
56.44
56.85
58.76
59.32
59.72
59.92
59.97
61
61.01
61.55
62.56
62.8
65.25
65.32
65.84
67.21
47.62
52.86
55.13
57.84
58.98
59.12
60.05
61.95
63.96
65.53
66.24
66.34
67.24
68.12
70.02
71.89
49.33
52.36
57
57.13
57.84
57.91
58.75
59.56
62.64
63.73
63.76
64.25
69.2
71.69
73.21
77.01
48.15
56.41
56.47
57.56
59.63
60.11
60.51
60.89
60.98
61.96
63.36
66.52
66.82
69.08
72.34
75.7
55.34
57.02
58.22
58.95
59.16
59.28
60.47
61.21
62.23
63
65.06
65.16
66.52
67.31
68.58
69.46
53.48
53.82
55.94
58.52
58.64
59.51
61.63
61.68
63.15
63.53
64.54
65.1
66.49
66.77
70.33
76.32
53.49
55.35
56.11
56.39
56.83
57.09
58
61.24
62.46
63.48
65.15
71.93
72.1
73.68
74.47
74.69
54.81
57.95
58.17
59.01
60.72
60.76
61.87
63.11
63.29
63.5
63.97
64.15
64.95
68.02
73.05
80.33
54
54.52
54.73
55.66
56.85
61.61
64.52
65.59
66.08
66.27
66.81
66.83
67.52
69.62
70.07
79.97
52.12
55.01
59.05
59.17
59.59
60.92
60.93
62.12
63.89
66.1
68.17
69.96
71.52
71.67
73.47
74.81
55.45
55.69
57.76
57.97
58.48
58.96
59.1
59.24
62.73
64.89
66.29
70.06
70.78
74.31
77.83
82.21
54.93
56.15
56.36
59.5
61.22
63.45
64.07
64.43
65.97
66.02
66.97
67.3
67.62
68.67
69.82
80.05
55.48
56.73
58.01
58.46
58.86
60.46
60.66
63.35
64.64
66.11
66.12
69.95
70.5
70.99
78.04
82.71
54.28
57.41
60.32
60.68
62.37
63.42
64.15
65.95
66.48
66.85
68.29
69.39
69.54
69.57
71.31
71.55
52.95
57.61
57.64
61.57
61.89
63.64
63.89
65.51
66
68.03
69.13
69.42
69.45
70.06
70.72
74.92
56.05
58.25
59.12
59.72
59.95
60.23
60.66
61.66
62.64
64.42
64.48
70.27
72.06
72.2
76.03
87.71
50.58
57.01
59.64
61.29
62.37
63.41
65.7
67.15
67.57
68.53
69.42
69.93
71.96
72.61
72.95
72.97
54.82
58.83
59.48
59.8
60.34
63.41
64.46
65.25
65.73
66.7
70.61
70.67
71.18
72.27
74.84
76.32
55.62
57.49
60.54
61.05
61.3
62.17
64.25
64.68
64.7
66.78
67.58
70.35
70.42
71.87
73.86
82.53
55.1
59.1
59.4
62.98
64.23
64.88
65.07
65.21
65.37
67.32
67.51
70.73
70.89
71.17
72.3
74.3
52.47
54.87
58.82
59
61.2
62.91
63.44
64.48
65.97
68.2
68.6
71.48
72.98
76.48
78.6
78.66
56.81
59.46
62.66
63.57
63.73
64.63
64.67
64.72
64.86
67.18
68.05
69.26
69.63
72.44
73.63
74.66
50.98
55.06
63.16
64.18
66.26
66.66
66.68
66.86
66.87
67.39
69.55
71.43
71.46
71.47
72.19
73.8
57.72
58.96
63.6
63.62
64.66
65.04
65.63
65.85
66.3
66.93
68.14
68.22
68.77
74.15
76.87
78.07
57.57
57.7
57.73
60.61
62.5
65.79
66.19
66.99
67.43
68.91
70.73
72.64
72.75
73.3
74.44
78.28
56.07
58.69
60.39
64.39
64.82
65.96
66.3
66.46
67.59
68.03
70.02
71.03
72.52
73.78
74.34
74.61
54.11
54.55
56.73
60.97
63.18
64.43
65.68
67.06
68.39
69.46
71.17
72.94
73.92
74.78
77.85
83.26
53.81
57
58.6
61.13
64.26
64.27
65.67
66.76
67.75
68.91
70.8
71.16
72.62
74.68
77.87
83.42
55.68
59.45
60.67
60.71
62.41
66.45
68.81
68.83
69.24
71.91
72.3
73.49
73.74
73.89
74.16
74.16
56.6
57.24
60.22
63.42
66.73
67.46
68.27
68.54
69.42
70.49
71.89
73.27
73.36
73.86
74.59
75.5
54.26
57.13
60.29
62.88
63.15
66.81
67.46
68.94
69.36
69.4
69.95
72.3
75.07
77.26
78.76
80.51
59.97
64.06
64.72
65.15
65.92
66.57
67.06
68.09
68.12
68.46
68.57
69.62
70.79
73.75
76.11
77.77
59.12
62.75
63.51
63.69
64.25
64.35
65.78
66.44
67.97
69.6
70.03
73.71
74.05
74.54
74.96
81.93
54.57
56.1
61.92
63.2
65.24
66.56
67.18
67.27
69.75
70.8
71.53
72.51
72.79
78.59
81.64
83.62
50.17
58.42
61.45
64.65
64.76
66.05
68.9
69.05
70.02
70.92
72.41
72.51
74.27
75.62
81.71
83.33
58.31
59.61
59.79
62.94
63.59
63.96
65.61
69.53
69.6
69.6
69.78
73.45
74.7
74.81
77.32
91.89
62.52
63.78
64.73
65.09
66.91
68.51
68.96
69.12
70.05
70.19
70.65
71.28
72.03
72.44
72.66
81.74
58.95
59.54
62.67
64.62
65.98
68.2
68.99
70.33
70.45
71.91
72.69
73.17
74.73
75.1
76.28
77.21
56.22
56.64
58.99
59.35
59.77
67.77
68.1
72.02
72.2
72.69
73.1
74.57
75.81
79.46
80.61
83.73
60.17
63.04
63.56
65.02
65.18
67.58
67.89
68.29
68.48
70.6
71.9
72.83
75.44
75.53
77.09
81.01
57.53
60.17
60.79
65.25
65.78
66.64
68.34
68.91
70
71.12
72.19
73.47
73.66
73.76
78.91
88.67
60.13
62.26
63.34
63.62
63.75
65.14
66.23
67.11
69.28
70.47
75.17
76.3
77.03
78.81
80.12
83.51
58.24
59.46
65.27
66.72
67.23
67.54
69.95
69.96
71.02
71.06
72.15
72.32
72.76
77.54
82.57
87.53
59.46
62.75
63.22
64.85
68.8
69.52
69.92
70.33
73.83
74.67
75.04
75.46
75.54
76.82
80.76
81.65
55.74
63.62
65.57
69.75
69.98
70.5
71.22
71.41
72.11
72.29
72.41
72.94
73.44
74.73
77.22
91.53
58.28
60.02
65.69
66.73
68.54
70.35
70.85
70.88
72.84
75.21
75.56
75.76
77.76
78.51
78.66
82.03
59.44
62.65
63.93
64.84
67.36
69.54
70.03
72.12
72.55
73.86
76.27
76.47
77.97
79.38
80.5
83.31
62.92
63.34
64.9
67.07
68.94
71.61
71.67
72.06
73.32
73.87
74.07
74.75
75.12
78.88
79.93
80.89
59.74
64.1
64.17
65.19
68.87
68.91
70.85
73.73
74.68
74.7
75.13
75.53
76.03
77.3
81.02
84.65
58.08
64.05
66
67.27
68.8
68.99
69.76
71.65
72.1
73.65
74.42
77.08
78.04
80.97
81.11
86.79
62.47
62.88
63.58
65.39
66.41
67.79
70.24
71.71
71.79
74.56
74.73
80.2
80.56
80.72
83.08
88.44
57.07
65.41
65.71
68.07
68.31
71.13
71.14
73.04
73.06
74.97
75.79
77.41
78.73
80.5
82.12
83.73
60.51
63.53
68.39
69.59
69.7
70.38
70.78
71.5
72.54
73.28
73.56
74.05
76.27
81.82
83.1
87.7
63.54
64.08
64.45
65.29
67.73
70.29
72.85
72.93
73.47
74.34
75.94
76.81
78.61
79.78
81.15
86.76
63.41
64.36
66.1
67.65
69.43
69.71
69.86
70.47
72.3
72.76
72.98
73.52
74.31
74.72
89.3
97.92
59.53
62.74
67.7
68.75
71.64
71.76
72.69
73
73.33
73.8
74.74
77.83
80.13
82.01
82.25
84.29
62.67
62.98
67.79
68.32
68.7
70.85
71.71
71.79
73.73
74.23
75.25
79.23
79.83
82.65
85.63
89.47
67.38
70.3
70.72
70.81
71.76
72.2
73.57
73.58
75.02
75.13
75.32
77.27
78.03
78.37
81.53
85.16
63.32
65.02
68.02
70.48
70.78
72.92
74.06
74.07
74.42
75.04
77.8
79.65
80.9
81.43
82.67
87.13
62.1
64.37
66.21
69.56
69.56
69.95
71.8
72.16
73.75
76.82
79.48
81.07
81.94
82.57
88.05
88.33
65.17
69.44
69.92
69.96
71.33
71.56
71.83
74.51
76.63
77.2
78.95
79.01
79.66
79.75
81.1
82.62
64.69
67.03
68.23
68.94
70.05
72.15
73.45
75.3
77.37
77.99
78.31
79.78
80.94
81.19
82.27
82.83
63.57
66.62
66.77
67.13
69.16
71.72
73.68
73.82
74.11
75.21
79.04
79.52
83.28
85.68
85.98
89.12
69.82
71.22
72.83
72.89
72.96
74.08
74.15
75.3
76.62
77.6
78.89
78.93
79.49
79.9
82.33
82.72
65.64
65.75
71.39
71.41
71.65
72.2
73.11
74.31
74.81
75.97
80.17
82.58
85.69
85.78
85.98
90.39
65.72
66.38
66.74
68.11
69.07
75.49
75.75
76.86
77.62
80.27
80.41
81.44
81.61
85.57
85.73
93.84
64.09
66.69
67.5
68.77
70.63
71.51
72.7
73.28
76.36
81.66
81.8
82.6
83.1
87.83
88.54
94.84
60.38
66.16
71.65
71.71
74.61
75.1
75.35
76.29
77.56
77.88
81.42
82.06
82.25
85.51
86.26
90.33
60.73
64.87
66.94
67.27
73.21
73.92
74.93
76.14
77.71
78.03
79.98
80.48
82.52
87.01
98.36
98.77
54.82
67.07
69.55
70.33
72.08
75.85
75.98
77.59
78.99
80.03
80.62
80.71
86.47
87.16
92.19
93.09
63.97
65.29
66.06
68.94
69.55
71.68
71.79
72.33
77.45
81.52
83.87
83.96
87.59
88.39
90.03
101.76
68.48
69.17
71.85
72.83
73.38
74.23
77.24
78.2
78.26
78.98
79.39
81.72
81.97
82.3
82.52
99.69
64.95
69.48
71.32
71.73
73.46
74.05
75.46
78.81
78.85
79.06
79.62
83.05
84.43
89.76
92.1
94.46
63.11
69.29
69.96
71.47
72.1
75.6
77.22
78.66
78.74
82.04
83.12
83.46
85.59
87.95
88.62
98.86
65.63
70.83
71.67
73.29
74.73
77.24
77.58
78.97
81.08
82.03
82.52
83.29
85.14
86.51
90.5
90.97
73.85
74.77
75.71
76.33
76.38
77.18
78.28
78.39
78.92
79.14
80.41
80.6
82.88
86.12
86.23
89.59
65
68.78
72.63
73.38
74.93
75.92
76.28
78.15
80.02
81.56
82.82
83.22
84.03
87.62
90.24
100.63
70.35
72.97
74.91
75.53
76.97
78.69
78.71
79.42
79.57
79.64
79.89
80.57
85.43
85.56
86.28
91.68
63.85
63.91
70.13
74.07
75.55
76.86
78.17
78.89
82.67
83.3
85.43
86.72
87.98
89.17
89.28
96.04
64.54
66.72
71.41
73.21
74.53
75.74
76.18
76.78
83.11
84.18
85.15
89.69
90.46
90.59
92.49
92.68
69.12
72.72
74.27
78.42
78.5
78.63
79.31
80.02
80.23
83.77
84.87
85.01
85.18
86.09
89.96
91.11
68.81
70.06
72.12
72.69
73.98
77.17
77.81
79.78
82.01
85.72
86
87.45
87.69
89.75
91.43
100.16
63.76
70.23
70.27
72.52
76.59
79.18
79.99
81.15
85.98
87.68
88.8
89.54
90.25
90.68
91.85
92.31
64.25
72.06
74.64
76.73
78.55
79.03
79.9
80.8
83
83.85
85.72
87.28
88.41
89.73
92.17
100.39
67.46
74
74.42
79.29
80.75
80.82
81
81.14
83.6
83.71
85.91
87.91
88.24
90.09
90.41
92.83
63.94
71.77
72.18
77.9
81.66
82.18
84.28
84.47
84.65
85.73
86.16
86.92
87.2
89.17
90.21
96.87
61.1
70.57
73
74.59
76.87
77
77.43
83.26
83.75
83.92
86.57
87.86
89.6
92.35
104.89
110.05
72.33
72.35
74.26
78.81
78.93
79.29
80.41
81.43
82.33
85.11
91.02
91.22
92.52
92.53
96.27
100.12
71.32
71.47
80.98
81.32
81.59
81.98
83.17
83.33
84.43
85.11
86.71
89.2
89.24
91.89
92.16
107.85
70.89
76.39
76.77
77.67
81.04
81.72
84.01
84.28
86.81
88.41
89.24
89.67
91.24
93.19
93.21
97.49
76.72
76.93
77.79
82.9
83.71
84.02
84.71
86.46
86.56
87.41
87.54
87.77
88.21
89.14
90.87
91.65
67.14
72.41
72.71
79.19
80.27
82.82
82.85
83.57
86.9
87.53
88.77
89.2
91.41
95.48
97.72
109.5
75.3
76.78
77.25
78.37
78.84
80.77
81.99
82.88
88.24
90.32
90.76
91.45
91.69
93.61
94.57
95.74
76.75
77.61
77.89
78.46
78.56
83.79
84.74
85.85
85.95
86.21
86.83
88.42
89.68
95.56
96.16
101.32
73.95
74.53
76.74
78.21
82.58
83.64
84.66
84.95
85.8
87.15
89.42
91.78
93.75
94
98.69
99.24
69.41
75.31
77.09
78.29
78.87
81.3
81.38
84.42
87.39
87.75
88.37
89.58
95.61
99.89
101.71
102.73
73.48
76.48
80.12
80.93
82.76
83.02
83.22
85.02
87.29
87.48
90.4
91.72
93.18
93.55
93.78
103.1
73.92
77.75
78.79
79.34
80.54
81.4
82.57
82.85
85.73
86.89
88.64
92.23
92.23
97.08
98.67
107.17
67.82
71.35
78.07
79.19
79.74
84.22
85.31
90.46
91.45
91.84
92.62
93.5
93.86
94.11
96.01
97.04
75.6
75.63
75.88
80.31
81.92
82.8
83.68
85.41
85.85
88.54
88.75
90.36
95.61
98.55
98.77
100.58
72.14
73.02
78.16
79.77
80.2
84.04
84.16
89.12
89.14
89.8
91.25
92.85
95.05
95.17
96.71
97.74
68.22
70.8
71.5
75.96
76.92
77.8
78.59
84.12
84.63
87.38
90.94
96.64
97.53
102.44
114.45
114.52
73.72
77.44
78.71
81.95
83.41
85.16
85.21
85.32
87.89
88.07
88.48
89.75
91.64
92.96
100.95
102.73
70.98
78.23
80.23
82.33
82.46
83.4
83.85
86.54
86.74
88.49
89.18
89.2
91.68
92.37
99.26
108.79
66.37
76.84
77.02
80.41
83.85
84.14
86.69
87.51
87.52
88.54
94.7
94.96
96.72
98.65
99.25
101.52
74
75.78
80.22
82.48
82.64
85.44
87.63
88.46
88.53
88.91
89.41
93.46
96.16
96.18
97.41
99.6
70.78
77.58
79.86
82.05
85.11
87
87.47
89.24
90.1
90.46
91.16
92.93
94.5
95.88
95.95
96.38
75.19
76.84
77.84
78.74
81.37
83.23
86.15
87.2
87.36
91.19
91.68
92.79
98.44
101.05
101.85
106.01
78.58
80.96
82.21
82.7
83.51
84.25
84.57
85.97
87.38
91.1
92.28
93.8
93.87
96.73
100.15
100.5
70.5
77.49
78.46
81.69
82.13
82.96
84.99
86.87
87.4
90.04
90.58
93.59
95.66
104.61
106.45
106.88
75.78
77.05
80.04
83.73
84.82
85.36
85.57
87.34
87.56
87.63
87.81
94.13
97.57
99.36
102.22
107.12
73.84
78.98
80.66
81.31
81.72
84.91
84.97
89.39
89.39
91.4
92.12
94.22
95.97
99.68
102.28
103.5
77.4
77.43
82.51
82.95
84.36
84.91
88.6
91.12
91.17
91.25
91.69
95.22
98.8
100.11
100.75
102.38
76.02
78.53
79.04
79.3
85.37
85.83
87.52
87.87
89.36
90.9
93.68
95.04
97.37
100.39
102.74
111.97
77.4
80.47
82.79
85.9
86.54
86.98
87.9
90.5
90.87
91.19
92.74
92.94
94.05
94.98
97.43
108.48
83.09
85.95
86.44
86.58
87.29
87.48
87.87
88.45
89.68
89.74
92.6
93.14
93.21
95.58
95.65
104.59
79.21
79.48
83.77
84.44
85.14
85.21
87.63
89.28
89.94
89.95
91.51
93.18
97.68
101.97
106.31
106.47
73.13
77.44
79.76
81.38
83.17
83.49
89.32
90.19
91.14
91.49
93.55
96.91
100.02
102.48
102.86
117.71
79.81
80.13
80.24
82.36
83.64
83.94
84.96
86.74
89.94
91.69
93.47
94.75
96.73
105.16
114.28
115.64
77.37
78.67
79.73
81.91
83.75
88.44
90.7
94.23
94.26
94.55
96.07
99.36
100.14
100.28
102.94
103.83
76.67
82.47
82.82
83.06
83.99
88.25
88.39
88.46
89.45
93.28
96.97
99.57
103.05
103.2
105.65
112.12
77.34
78.62
82.67
85.76
87.82
88.68
89.29
90.25
90.28
95.12
98.88
99.58
100.54
102.33
105.2
106.44
79.85
81.95
82.17
84.62
84.83
84.91
85.7
91.47
93.07
98.42
98.84
99.17
101.93
104.56
104.76
106.14
82.5
82.67
83.22
83.56
86.49
89.44
89.71
90.34
91.73
92.56
95.4
98.71
102.37
104.47
104.8
105.89
73.16
76.49
84.91
84.97
90.92
93.03
93.51
95.45
95.57
97.27
97.43
97.72
98.69
100.04
105.3
106.19
84.12
84.16
84.72
84.84
86.88
87.13
87.56
89.03
89.43
91.95
92.73
99.86
100.98
108.24
108.5
113.74
79.23
82.71
88
89.53
90.42
90.51
92.5
92.73
93.27
93.63
97.57
98.14
99.09
101.61
101.67
104.18
77.85
83.05
84.82
88.45
89.55
90.83
92.92
93.14
94.85
96.7
98.17
99.63
101
101.81
104.04
108.66
78.09
79.39
88.25
88.79
89.26
91.69
93.7
94.87
95.36
98.9
99.86
101.12
101.55
101.95
102.77
104.75
79.75
80.99
85.91
86.48
91.11
92.56
92.79
94.95
95.01
95.36
95.67
97.94
100.78
107.4
110.63
110.92
78.47
82.56
82.58
84.46
90.65
93.21
93.51
95.45
97.83
100.13
102.14
102.16
102.44
106.52
106.62
107.28
72.07
82.27
87.9
88.09
91.55
94.74
96.46
96.79
98.58
98.62
100.06
100.59
101.02
107.06
109.49
110.22
82.16
82.52
86.62
88.69
90.34
92.14
92.67
94.47
97.45
99.6
100.17
100.23
104.44
104.95
105.05
116.79
78.23
83.04
84.82
87.07
87.71
88.16
88.64
96.89
99.13
99.14
100.08
100.47
101.59
110.61
111.9
124.58
68.43
84.01
88.67
91.67
92.04
92.33
92.88
97.43
99.14
100.3
102.14
106.18
106.6
107.52
108.17
110.43
84.16
87.51
88.67
90.2
90.69
93.13
94.4
94.45
94.58
99.07
99.83
102.42
103.4
108.73
109.46
110.99
82.12
82.55
85.53
85.58
91.49
93.51
94.26
94.63
96.5
98.29
100.57
100.84
107.22
108.09
113.05
118.89
75.67
86.56
87.25
88.04
88.46
89.17
94.11
95.06
97.79
102.84
104.56
105.18
105.62
109.34
109.71
117.51
84.62
84.76
84.91
85.29
89.19
93.15
95.68
95.85
99.43
100.01
104.72
104.96
105.12
105.17
109.91
115.11
73.12
80.71
86.37
88.28
89.36
90.35
92.56
92.79
96.85
99.98
103.38
104.13
105.84
111.25
111.46
135.59
82.75
83.21
89.33
91.7
92.53
92.91
95.73
96.01
96.07
99.4
101.88
103.16
104.41
107.28
113.61
122.52
82.22
86.58
91.01
91.07
93.93
94.85
96.53
98.35
99.29
100.31
101.08
101.23
102.66
104.12
114.03
115.49
84.9
86.46
90.83
91.69
94.8
95.22
95.83
97.9
98.82
100.54
101.58
102.83
103.51
104.85
108.38
118.01
78.71
87.73
88.53
90.66
90.81
97.17
97.7
97.95
98.71
102.53
104.85
107.66
109.01
109.3
110.14
114.33
85.25
91.22
92.87
94.22
94.8
94.98
96.46
96.57
96.74
97.63
103.55
104.1
105.78
108.96
109.5
122.39
84.19
86.23
86.49
91.56
92.41
97.07
98.21
100.44
101.18
101.45
102.48
103.72
103.86
108.06
120.38
120.58
88.18
89.82
90.1
92.05
92.5
92.89
93.53
96.19
96.89
97.53
105.18
106.01
110.7
112.94
113.92
119.93
83.06
88.81
89.15
94.8
95.46
97.65
99.23
99.33
102.34
104.38
104.73
106.01
106.19
107.34
110.47
118.86
84.59
91.96
94.18
95.91
96.77
98.41
98.63
99.14
101.52
101.92
102.25
102.71
105.39
108.92
111.25
114.6
80.6
84.47
91.59
93.17
93.7
94.61
95.17
96.19
96.22
97.23
100.31
101.58
111.92
114.59
123.4
139.12
88.8
89.89
94.79
94.97
95.08
96.22
97.62
99.12
100.14
100.93
102.56
104.01
108.29
109.63
116.8
116.93
80.09
83.85
85.23
95.58
96.53
99.55
100.25
101.33
102.18
103.53
103.63
105.57
107.45
111.4
113.05
128.04
87.21
89.62
94.07
94.08
94.33
94.5
94.89
96.38
100.63
104.35
104.61
108.08
109.48
112.46
114.35
129.09
89.52
90.24
91.96
93.32
94.21
94.63
97.53
102.07
104.47
107.45
107.48
109.07
112.91
113.75
116.71
119.18
91.02
93.75
95.24
95.41
97.99
98.15
99.92
101.46
101.51
101.64
104.55
107.89
108.34
114.55
116.5
118.67
87.55
88.56
89.49
97.46
98.45
102.23
102.8
103.22
103.24
105.54
105.57
109.64
111.02
112.07
112.43
120.96
94.28
95.7
98.17
99.66
99.88
100.19
101.43
101.65
102.68
103.12
103.18
105.48
109.39
113.18
114.85
116.66
84.09
87.36
95.69
96.15
97.79
98.11
98.94
103.31
107.44
108.7
110.23
111.35
111.74
113.88
115.1
123.33
80.37
92.66
93.6
96.97
97.15
99.87
101.9
103.37
105.29
106.4
107.31
110.09
111.07
113.03
119.12
125.52
90.26
91.06
94.36
96.15
98.1
98.24
99.22
102.37
102.96
106.19
109.81
109.88
111.85
113.96
120.43
126.12
92.07
95.2
96.43
98.11
101.66
102.72
106.47
106.67
107.26
108.42
108.69
108.88
110.26
110.59
110.75
121.34
90
90.23
92.49
98.23
99.4
104.45
104.83
105.85
105.87
108.57
110.02
110.41
114.13
114.37
118.68
120.27
87.53
93.39
97.04
97.81
98.06
101.39
102.92
103.6
104.14
107.48
107.74
108.42
110.25
111.82
125.54
131.6
89.44
91.31
96.74
97.41
101.29
103.03
104.46
104.5
107.4
107.42
113.56
114.1
117.28
118.2
119.45
120.54
95.6
95.8
96.69
98.42
98.64
105.23
105.36
106.03
106.06
109.6
110.82
111.57
113
116.35
119.95
121.15
81.07
86.08
91.16
91.9
100.28
100.7
108.75
110.16
112.42
114.18
116.77
117.25
118.51
121.5
124.28
126.9
87.75
95.06
97.44
99.07
99.99
100.45
104.44
105.1
106.14
107.5
113.46
116.13
120.98
122.7
125.39
128.38
84.73
86.55
91.44
93.01
94.9
102.37
106.34
109.62
112.32
115.48
115.64
118.6
119.06
123.97
128.71
143.16
89.16
97.16
100.41
101.32
102.81
105.01
108.5
108.58
111.35
111.83
113.32
113.86
119.21
120.66
120.9
122.17
91.14
96.88
97.05
98.26
98.89
101.93
104.21
112.28
112.57
112.88
114.07
114.73
117.77
120.93
124.63
129.42
84.3
90.72
95.33
99.39
99.66
101.76
102.56
104.13
104.34
111.64
112.36
117.65
121.08
122.24
133.02
155.17
95.07
97.98
99.87
101.04
102.75
102.97
104.75
110.5
113.99
114.35
115.07
115.09
116.1
117.07
121.49
128.24
86.52
101.2
101.25
103.7
104.58
105.35
107.14
108.43
110.81
114.13
114.37
115.2
117.27
118.54
118.84
131.48
92.46
101.02
103.11
103.92
104.43
105.47
108.66
109.14
109.71
112.6
113.18
116.65
118.33
119.33
120.02
121.87
86.44
96.72
104.06
104.88
105.62
105.8
106.89
108.23
109.81
112.45
113.82
114.72
122.1
122.24
123.25
124.38
96.6
96.86
97.29
97.78
100.27
105.55
106.7
106.91
110.83
113.92
115.62
117.55
118.42
124.95
129.94
135.68
90.53
90.71
98.11
101.35
107.03
108.15
108.33
110.67
111.35
113.8
115.21
116.55
116.98
123.94
127.35
141.51
93.62
99.25
103.29
106.62
106.71
106.88
107.56
111.02
112.25
112.91
114.99
115.95
117.44
122.67
124.2
126.94
99.62
103.15
103.35
104.55
104.81
108.3
108.71
109.39
110.5
114.19
114.31
114.44
115.72
115.8
121.58
136.28
96.12
100.78
105.6
106.99
107.34
108.24
108.65
109.38
109.6
114.08
114.62
115.28
115.31
120.54
122.25
135.96
92.39
94.69
101.66
103.12
104.5
106.96
107.58
110.46
113.56
114.13
114.29
117.26
120.4
124.24
125.28
140.36
96.44
99.3
100.42
101.25
103.73
104.5
109.94
112.08
115.1
115.3
119.18
120.42
122.27
122.81
123.89
125.18
88.26
103.68
105.28
106.59
106.71
110.19
110.24
112.29
114.5
114.54
115.37
115.49
115.59
116.85
125.34
138.29
92.69
96.26
98.99
99.43
101.76
106.05
111.73
112.16
115.31
118.95
119.34
119.88
121.5
125.97
128.4
134.33
87.1
94.37
100.1
100.18
103.22
104.31
104.56
105.49
112.11
116.98
120.93
127.74
129.48
129.57
130.5
138.12
96.61
97.09
100.88
101.02
102.72
107.54
108.1
111.6
112.45
113.42
121.32
125.91
131.46
131.5
132.37
146.83
99.22
105.11
105.72
108.09
109.9
111.64
111.78
112.95
115.83
117.97
120.87
122.95
123.34
124.14
126.89
131.74
95.87
99.59
100.63
104.7
107.74
107.92
108.79
113.98
118.22
118.73
119.8
125.06
125.52
130.31
131.17
143.41
97.85
98.4
106.84
108.98
111.65
116.18
116.36
116.66
117.5
118.76
118.94
120.16
122.2
123.43
128.12
132.86
96.37
98.9
103.07
106.56
106.83
108.54
110.13
111.84
114.67
117.77
119.1
123.54
132.45
133.57
137.02
137.22
96.19
104.39
104.74
110.19
110.97
113.89
118.04
118.53
120.01
120.75
121.71
122.48
123.4
123.7
125.12
128.46
97.17
99.94
104.05
109.39
109.74
110.89
111.28
116.97
118.7
120.01
121.11
123.16
124.42
125.11
134.34
137.15
96.33
101.47
107.56
109.1
113.22
113.24
115.51
116
116.57
118.7
120
121.18
121.99
129.27
131.6
133.43
102.93
105.42
106.96
108.26
108.71
109.69
111.83
114.51
114.86
116.11
121.83
126.14
127.75
128.65
130.07
132.43
99.91
105.69
107.45
109.18
109.38
110.73
111.41
114.29
116.74
119.16
123.23
123.79
126.66
126.8
129.73
133.31
96.12
98.28
101.64
110.32
110.34
111.94
117.25
118.57
119.68
119.81
121.69
123.31
126.2
127.22
127.86
140.27
97.94
103.44
110.41
112
113.55
115.58
116.09
116.38
116.39
117.02
119.95
122.21
124.15
127.75
128
134.55
97.62
99.83
103.41
112.03
112.79
113.52
117.87
120.55
122.1
122.26
123.99
125.4
130.09
130.77
130.96
140.31
98.52
101.96
106.28
110.82
114.01
114.05
116.68
121.06
122.2
124
124
126.77
126.83
128.06
131.32
137.03
98.71
103.59
105.05
109.32
114.45
116.46
116.79
118.19
118.94
123.44
125.14
125.7
126.75
130.89
132.36
139.95
97.97
104.09
108.1
109.24
110.51
116.77
118.09
118.43
118.47
122.19
124.47
126.76
127.1
127.53
137.61
139.92
100.83
104.32
106.04
107.28
107.79
108.34
115.69
116.95
117.67
125.69
126.71
127.71
132.14
134.57
138.61
150.17
109.58
111.4
113.46
114.07
114.6
115.64
119.21
119.56
120.69
120.91
122.42
122.53
124.11
125.91
129.77
137.34
106.75
108.76
109.44
110.03
111.63
114.8
117.92
118.49
120.59
120.69
123.36
127.68
130.41
130.77
134.82
136.31
107.95
110.59
110.7
111.77
115.53
115.6
116.84
118.93
119.77
122.47
123.27
126.4
126.65
131.76
134.01
135.88
103.44
108.99
109.58
110.76
113.71
113.75
113.9
118.2
119.27
120.86
121.03
123.97
124.65
126.87
136.59
164.57
89.06
109.36
109.87
110.97
111.36
112.17
113.27
118.28
120.6
123.09
126.88
129.67
131.79
136.58
144.77
145.2
101.9
105.02
105.92
106.54
112.16
116.18
117.14
118.64
122.05
126.01
126.8
129.45
130.17
133.48
137.28
144.47
103.04
110.03
112.24
114.46
115.8
116.05
116.22
117.65
121.98
124.24
124.83
129.59
130.37
130.53
132.57
147.75
106.8
107.3
108.57
113.53
115.87
119.59
121.25
124.42
125.17
125.37
125.62
131.37
131.94
132.21
132.22
136.74
112.81
113.12
113.33
113.96
116.76
119.16
120.21
120.5
120.94
122.49
126.85
126.98
127.31
131.81
131.91
154.03
107.43
107.66
113.74
114.88
115.59
116.49
116.76
117.31
127
129.45
130.55
132.46
132.76
135.94
140.83
142.53
106.66
108.74
110.64
114.85
115.44
121.26
121.97
129.16
129.4
130.13
130.35
130.88
132.12
135.24
139.47
140.63
90.11
99.45
106.11
112.64
114.58
118.08
122.42
127.94
128.97
130.01
132.57
136.45
138.11
138.51
152.58
153.4
105.2
105.55
107.06
110.06
112.45
116.87
117.42
123.93
124.86
125.26
132.59
133.88
139.43
143.51
149.52
156.42
100.68
103.98
119.81
120.35
122.45
124.61
124.63
124.77
124.84
126.42
128.72
132.54
137.66
138.05
139.33
146.53
109.06
111.64
112.44
117.52
119.82
123.11
125.11
125.42
128.44
128.78
129.74
130.58
131.14
131.23
145.3
148.5
102.05
113.85
119.97
121.49
122.79
123.9
123.98
125.17
126.28
127.7
128.77
131.11
134
134.23
144.64
149.18
105.16
110.65
115.66
119.65
120.46
120.65
124.83
125.54
127.54
127.65
133.22
133.89
139.65
140.47
142.87
145.03
101.26
108.84
109.51
115.48
120.15
125.14
125.2
125.91
126.59
128.85
129.96
138.5
140.32
142.86
148.44
148.94
104.75
111.39
113.86
118.95
119.6
119.69
126.76
128.33
130.03
131.5
133.22
133.61
134.69
137.68
150.61
151.07
107.87
114.57
114.85
116.76
116.88
118.36
121.39
123.35
127.06
129.08
131.35
135.14
137.04
140.61
152.58
159.78
103.16
112.1
114.32
114.77
117.91
118.71
122.03
126.12
129.84
134.53
139.66
140.78
141.87
146.17
148.75
149.05
112.37
115.98
118.76
120.09
124.59
124.7
125.29
127.78
129.35
130.83
131.92
132.18
136.25
140.68
142.44
146.64
95.87
107.54
110.48
117.98
120.84
122.35
123.68
124.45
130.7
137.51
137.64
138.95
139.4
140.83
147.29
167.39
94.63
112.88
115.83
118.63
126.24
127.55
127.82
130.9
132.74
135.74
136.16
136.52
140.48
141.65
141.88
143.85
116.11
117.58
117.85
118.98
119.77
122.41
124.26
127.2
127.44
128.75
131.8
136.61
138.41
140
144.31
157.11
101.72
112.09
119.25
121.34
122.87
128.22
129.09
129.5
132.72
134.44
136.29
137.15
137.25
139.9
142.35
152.08
111.25
117.01
117.27
120.83
124.02
124.09
126.19
126.24
128.72
131.43
133.75
136.96
140.01
141.17
141.47
158.03
120.62
121.4
122.15
123.87
124.78
125.38
128.05
128.26
128.9
128.94
130.36
131.23
131.67
137.92
144.64
157.83
116.47
121.29
122.49
127.78
128.9
128.97
130.13
130.89
131.21
131.33
132.14
136.71
138.64
143.11
146.04
147.27
110.12
119.17
120.61
122.44
124.62
126.04
126.36
127.75
132.53
132.86
133.59
143.24
146.38
148.53
148.86
153.72
113.53
120.16
121.6
122.37
123.7
126.25
126.83
127.82
127.89
135.83
138.58
139.45
146
153.87
154.91
158.64
105
122.61
125.26
125.46
125.48
125.98
127.07
127.53
130.23
136.67
136.78
137.06
138.65
146.74
156.46
173.59
113.2
118.27
122.73
125.4
127.21
129.14
130.79
133.07
133.76
137.99
141.11
142.1
144.57
148.85
153.48
161.93
106.69
121.53
121.85
123.4
124.64
129.47
130.01
135.13
135.81
143.4
144.23
146.69
148.69
151.08
153.19
156.85
109.97
114.59
123.42
124.31
124.86
125.69
127.1
130.41
132.8
136.25
143.54
145.32
147.27
159.56
165.1
165.99
121.32
125.27
129.77
131.47
132.47
134.35
136.3
136.79
138.62
138.77
139.38
140.05
140.46
141.19
147.51
151.29
115.22
118.15
119.76
124.23
127.86
130.31
131.11
133.01
135.25
146
146.07
146.81
148.03
155.48
161.45
164.78
116.49
124.82
128.46
128.79
132.03
133.85
135.34
135.41
136.73
136.77
140.04
148.48
149.06
151.1
153.46
166.49
123.93
124.62
127.24
131.59
131.75
133.07
134.13
134.93
139.43
141.73
144.17
146
146.8
148.27
150.54
162.19
117.76
126.16
128.94
131.26
131.97
133.45
135.24
136.58
142.6
142.82
144.01
147.13
156.49
156.54
158.04
158.8
109.6
123.43
131.78
136.67
137.51
140.39
142.02
144.59
145.22
146.27
146.62
147.62
147.71
149.1
150.88
156.27
116.7
121.67
130.2
134.15
134.19
134.49
136.16
139.39
142.55
145.71
151.31
152.63
153.9
158.19
160.04
163.91
116.01
124.85
132.5
134.31
137.64
141.02
143.34
143.45
143.58
144.64
146.07
146.13
150.6
155.6
156.68
159.18
126.91
127.91
130.76
133.8
136.89
138.46
138.94
140.03
141.59
142.29
144.16
144.69
145.15
156.44
165.79
170.62
113.69
127.48
133.73
133.84
135.73
140.75
143.68
143.69
147.87
148.52
148.61
149.75
151.04
153.39
166.61
170.04
119.95
125.41
128.18
137.92
139.73
140.02
143.18
143.79
145.83
149.25
151.29
152.45
155.36
156.57
158.87
164.76
114.79
137.41
138
139.18
139.48
140.74
142.75
144.14
145.32
148.73
149.96
150.19
155.97
156.38
158.63
158.85
125.86
126.72
131.69
131.9
140.79
140.79
142.78
148.76
149.75
149.98
152.97
155.18
156.13
158.33
164.51
167.28
128.13
130.46
132.51
135.67
138.06
141.12
141.33
144.92
146.44
149.71
151.34
154.88
157.46
158.14
167.51
168.75
125.85
127.65
128.35
132.95
139.35
140.82
141.59
142.11
145.18
147.02
150.27
156.55
158.38
169.12
170.28
178.33
120.48
124.43
129.53
132.93
138.5
141.48
142.35
147.01
149.58
153.61
158.38
160.01
161.65
162.37
166.42
172.3
132.51
135.8
136.05
137.28
138.07
145.98
148.48
151.81
153.66
153.66
154.16
155.57
156.43
158.41
159.52
161.77
115.89
139.74
140.22
142.04
148.23
148.49
149.1
149.48
150.66
152.25
153.08
154.81
155.19
157.01
158.18
167.87
125.07
128.04
133.2
133.68
139.85
141.85
151.01
151.58
151.64
157.76
162.62
166.94
167.57
167.69
171.22
173.57
116.02
126.6
127.74
128.42
136.64
143.41
145.82
147.57
154.14
155.01
155.31
166.16
179.44
179.67
184.75
189.22
134.19
137.55
138.8
141.02
143.83
144.66
148.33
148.4
149.37
151.81
158.65
164.72
165.16
168.58
181.55
183.57
124.27
139.05
142.5
143.61
147.93
153.03
156.23
156.9
157.91
159.25
159.93
161.53
162.08
172.62
173.55
178.83
121.12
134.16
135.43
138.92
143.63
148.77
152.6
157.23
158.27
163.82
167.11
169.3
170.8
174.24
176.82
178.86
136.31
138.21
141.57
142.4
144.11
147.11
148
150.81
153.55
154.24
161.26
168.84
169.71
174.89
177.11
184.55
132.29
137.39
138.27
139.52
148.25
150.39
152.98
156.03
160.12
166.34
168.14
170.59
170.82
172.02
174.53
175.07
135.88
143.45
144.19
149.01
149.34
152.12
153.06
154.1
155.03
163.32
163.96
167.57
169.45
169.57
172.1
185.64
132.46
135.46
142.19
143.54
149.85
151.61
155.1
160.24
161.05
166.82
167.45
172
172.23
172.97
175.92
183.45
140.36
144.29
148.1
148.24
155.49
156.28
157.05
158.38
158.4
159.31
161.99
162.05
167.43
172.53
174.01
181.98
124.23
145.79
146.55
152.85
153.22
156.37
159.52
160.06
161.3
163.54
165.12
165.36
165.38
165.42
178.52
187.03
133.18
133.3
140.29
140.77
153.16
159.72
160.97
161.27
164.03
164.58
166.28
169.05
175.17
180.23
182.13
195.71
142.87
144.54
145.28
146.89
148.02
150.72
159.65
161.9
162.92
163.54
163.54
166.17
171.86
172.29
197.14
205.93
131.86
131.88
132.48
141.53
147.76
157.44
157.78
167.46
167.49
169.74
179.76
180.13
180.48
184.08
187.4
189.5
136.74
137.92
144
149.03
156.94
165.06
168.34
169.22
169.83
171.33
176.77
177.84
178.48
182.25
184.28
187.84
111.68
135.73
140.13
154.62
155.98
161.94
162.47
165.73
172.12
174.06
174.4
179.98
186.97
192.31
199.66
207.26
136.89
149.38
153.7
154.46
157.37
161.82
166.92
167.16
168.34
170.92
176.54
179.33
179.94
182.23
183.21
187.81
139.56
147.29
153.29
157.86
160.92
161.04
161.87
164.01
165.17
165.2
169.26
177.38
184.97
194.26
195.84
196.65
137.32
152.23
161.88
162.45
164.14
166.24
167.31
167.61
169.7
169.9
169.95
175.78
178.52
182.45
184.06
186.32
144.33
144.39
146.43
153.47
154.03
154.52
157.44
160.53
163.67
168.19
168.96
178.02
181.54
182.19
209.77
238.61
148.04
148.61
151.01
154.05
161.08
166.11
167.49
167.74
168.05
170.16
172.55
179.61
179.67
182.48
186.75
206.14
151.66
151.93
153.51
153.64
164.48
166.88
168.32
168.64
169.79
170.56
171.15
172.56
176.35
178.75
188.95
208.76
147.01
150.65
153.75
153.77
154.01
159.73
162.18
164.7
169.55
172.12
173.53
174.48
177.98
180.24
183.85
239.23
134.09
141.5
155.52
161.99
164.45
164.75
168.71
172.01
172.6
175
177.22
177.91
185.84
191.55
193.43
198.38
157.17
160.5
162.82
164.02
164.33
166.92
169.18
169.41
172.19
174.87
180.04
183.5
185.29
186.12
188.44
192.76
151.42
158.75
161.19
162.08
162.23
166.46
166.8
170.27
173.88
175.1
176.78
185.43
186.55
187.4
200.39
205.34
152.02
153.72
153.93
158.31
167.17
168.37
172.99
175.94
182.04
183.7
186.12
189.79
189.97
192.97
197.62
200.36
131.68
142.66
162.3
164.42
165.74
169.99
176.18
179.14
184.58
186.28
186.31
187.34
191.66
192.93
202.53
212.77
150.13
152.81
154.02
168.01
168.92
170.67
176.03
177.8
178.85
180.39
180.65
181.15
186.49
193.67
194.96
222.85
140.91
147.27
148.98
166.3
169.65
172.32
172.61
172.84
178.18
182.24
184.19
188.08
190.15
200.58
212.59
213.4
151.96
154.13
159.77
162.07
163.21
166.85
171.28
184.48
185.35
186.88
187
187.54
187.77
189.2
198.86
212.39
145.16
146.81
154.09
166.62
168.03
171.32
173.04
175.99
179.47
179.52
183.35
184.65
196.89
203.8
210.14
213.09
154.5
160.02
163.88
167.2
168.91
173.64
173.66
174.18
175.01
179.29
183.85
187.14
191.3
194.26
202.4
202.73
159.12
164.66
165.56
166.82
171.23
172.7
175.08
177.79
179.97
182.55
184.54
186.27
187.36
200.91
201.45
208.83
162.65
163.33
166.16
166.45
167.39
171.67
174.47
185.35
186.71
186.84
188.57
190.23
192.12
195.28
197.58
204.74
147.15
152.15
161.47
167.46
169.31
172.99
173.99
179.21
191.12
191.7
191.9
193.52
195.08
197.5
208.34
210.19
145.57
149.81
153.5
155.41
169.09
173.41
176.77
182.07
183.05
183.95
188.22
200.83
204.36
204.39
208.57
228.45
166.23
166.8
168.81
170.01
173.08
173.61
174.15
174.53
178.84
180.33
181.06
191.36
195.59
201.85
203.04
210.27
145.68
151.64
164.91
168.85
170.89
180.85
180.9
181.9
184.02
189.64
191.16
195.18
198.86
205.59
211.56
223.99
159.24
159.98
164.25
165.09
170.12
170.81
172.01
186.28
187.47
188.37
189.28
192.53
205.56
207.42
207.86
219.87
159.04
160.66
169.7
170.52
171.93
173.84
186.73
189.46
191.78
192.64
193.3
194.73
195.55
199.16
208.95
221.47
162.8
169.21
170.98
175.5
178.07
180.16
180.76
183.52
184.98
185.52
187.35
189.38
200.51
207.04
213.77
232.62
168.02
172.41
173.54
175.44
175.69
177.73
181.29
189.22
190.83
193.71
194.12
196.02
200.42
200.92
203.75
209.74
163.24
173.85
175.22
175.24
175.92
176.27
177.87
182.19
185.57
191.03
195.56
202.22
203.58
205.52
206.2
217.75
162.37
172.18
175.54
183.23
186.01
186.93
187.12
187.17
188.22
188.57
192.3
198
201.77
206.7
212.96
224.12
162.19
179.06
179.18
180.63
185.33
186.62
187.25
189.07
189.63
189.99
194.19
199.19
204.72
210.25
212.59
217.05
173
173.95
177.25
179.2
181.11
183.59
183.61
183.72
184.36
195.61
197.8
201.16
207.82
213.53
217.97
233.86
173.36
174.81
175.31
178.04
178.53
184.07
186
187.89
188.73
189.01
189.98
193.98
209.33
214.45
227.62
239.17
159.15
165.02
170.51
177.35
178
180.11
182.24
183.45
201.76
202.24
204.07
212.96
213.88
216.14
221.85
249.31
174.57
175.37
175.57
178.94
180.71
181.43
186.2
188.57
190.73
199.43
204.91
211.46
216.01
217.76
218.73
223.22
168.63
170.98
173.88
173.97
175.25
184.38
192.29
197.18
197.34
203.96
206.43
208.07
215.13
218.47
219.77
223.21
164.95
165.28
177.46
183.85
187.46
191.24
192.42
197.14
199.26
205.88
208.84
210.55
211.74
212.29
219.2
227.23
165.02
165.99
182.49
182.76
186.39
189.3
194.1
195.05
198.9
202.92
206.35
209.17
209.75
211.64
217.57
237.43
164.94
167.06
168.99
180.91
183.24
184.37
192.68
200.61
201.16
201.21
207.31
208.48
216.97
222.45
227.22
229.18
166.26
171.54
175.71
180.46
188.17
190.86
196.01
197.06
200.61
203.09
203.36
209.58
215.39
219.47
220.73
227.26
165.09
167.47
168.3
174.34
184.03
192.81
192.92
194.9
202.39
208.88
212.44
213.81
216.64
219.79
229.84
238.33
167.31
178.9
179.77
181.97
183.8
184.04
192.8
196.56
200.19
206.74
211.89
214
216.63
218.07
218.76
234.66
165.66
177.37
179.37
180.39
184.46
197.15
198.22
202.99
205.2
209.88
213.43
216.24
216.75
220.88
223.69
240.43
168.71
172.03
190.63
193.41
200.18
201.39
203.32
204.1
204.54
209.06
210.21
211.82
217.71
224.59
225.45
228.55
178.55
181.93
188.14
189.85
193.75
193.98
194.52
198.95
207.51
211.4
213.82
216.18
220.55
222.17
224.06
246.85
165.01
171.76
191.54
192.69
194.34
194.75
198.4
202.67
204.16
210.5
210.53
211.76
217.14
219.66
231.21
280.95
169.29
176.76
184.47
187.7
193.45
196.55
201.59
206.98
212.57
213.7
215.34
219.18
219.28
230.19
230.53
247.65
175.99
176.66
180.91
197.27
199.62
205.01
205.29
211.73
212.74
216.74
219.01
219.07
219.76
222.5
226.43
232.06
172.54
177.76
197.1
198.88
204.27
205.06
206.94
207.04
207.94
216.89
217.73
218.05
218.93
228.25
230.07
240.26
183.88
184.31
191.34
194.37
196.24
204.63
205.1
210.45
211.99
213.35
218.66
219.38
222.5
222.51
234.55
235.96
186.16
186.59
187.89
192.02
193.98
198.17
203.71
211.04
213.09
215.66
216.15
222.51
228.48
232.84
236.52
250.48
175.35
196.65
199.66
200.55
201.24
203.18
205.85
208.38
212.66
212.72
214.88
217.91
219.28
219.31
234.69
255.7
190.12
194.08
197.1
198.32
200.12
201.03
204.24
207.59
207.86
209.84
213.3
217.65
220.15
227.9
238.6
256.77
176.52
187.49
192.41
196.29
199.99
205.52
211.76
211.81
212.93
213.92
222.64
225.51
226.02
232.06
233.36
245.29
180.5
185.97
189.31
197.95
200.7
200.96
203.26
204.92
208.77
212.55
218.59
219.24
243.36
244.12
251.19
253.16
168
188.58
191.19
194.15
200.1
204.39
206.43
207.41
211.59
214.49
228.25
234.17
237.02
238.18
243.07
251.36
181.55
193.37
194.86
202.85
208.24
209.3
213.02
216.7
218.75
220.09
228.92
229.99
230.71
232.22
236.2
252.25
175.47
178.37
203.83
207.28
209.88
211.85
215.29
216.35
223.64
226.18
229.83
236.32
237.54
237.97
243.02
244.84
191.79
191.84
197.15
207.23
207.48
212.85
217.6
218.55
220.22
224.33
230.57
232.18
235.64
241.56
243.3
248.11
201.83
206.04
207.55
208.5
213.84
214.94
218.35
219.36
219.38
220.32
220.81
221.96
228.69
233.32
238.27
272.77
179.37
197.25
201.44
208.28
213.93
217.13
220.33
226.86
228.47
231.3
233.17
233.3
233.76
238.11
242.13
245.71
184.76
185.75
186.97
211.57
218.83
219.68
228.53
229.76
232.65
233.12
234.67
236.07
240.33
253.27
256.97
262.8
195.25
197.84
203.82
204.27
208.72
215.99
216.26
220.69
224.16
234.22
238.54
239.6
251.28
253.71
255.73
260.93
187.65
198.12
202.76
209.15
209.63
218.06
222.9
228.97
231.96
232.99
235.01
236.56
243.68
249.7
255.95
273.79
197.42
198.12
207.17
210.09
212.43
221.53
225.16
225.93
232.81
235.41
236.77
246.67
247.1
250.69
266.14
278.28
181.13
200.42
208.49
218.98
224.03
229
234.78
234.87
236.73
238.72
241.2
245.85
249.56
259.46
267.24
268.7
215.19
220.2
222.14
225.82
227.6
227.79
230.93
232.66
233.74
233.82
238.76
240
245.69
250.66
252.72
261.06
191.7
205.39
214.45
228.98
231.92
235.06
235.56
240.6
241.28
241.33
241.99
252.22
253.25
253.96
254.93
256.28
196.33
205.5
210.23
215.38
219.65
221.69
229.86
236.45
240.3
246.09
248.25
258.1
260.31
261.32
262.94
267
206.11
208.89
214.77
219.58
223.89
225.82
228.95
229.96
233.39
239.21
247.23
253.8
255.54
255.92
264.15
277.75
206.77
211.1
213.32
213.97
220.36
226.95
233.71
237.5
242.22
244
246.27
250.71
257.69
260.92
261.23
262.87
210.55
216.67
216.96
225.31
228.98
229.13
229.9
233.96
235.74
237.07
249.43
250.32
261.87
262.17
268.78
270.84
219.51
227.72
229.37
233.65
234.98
235.53
236.72
238.5
238.63
241.55
242.49
248.74
251.59
254.66
263.01
273.04
210.54
219.62
220.46
220.51
221.59
227.34
241.6
242.75
243.28
252.23
253.13
256.34
257.25
262.08
275.2
288.23
207.81
210.32
213.73
222.67
225.15
237.72
238.99
239.15
242.47
247
254.4
265.98
266.58
283.31
296.95
311.96
215.14
227.89
231.2
231.7
235.82
238.65
241.74
243.46
253.1
255.51
261.68
263.26
271.21
271.35
275.96
276.64
216.6
221
229.67
231.95
232.57
236.22
237.44
255.01
257.63
258.66
263.89
267.24
268.06
271.06
275.76
303.94
208.39
216.52
220.41
225.65
231.57
246.06
246.6
248.86
250.85
254.89
266.59
267.46
269.23
299.09
299.74
314.38
208.17
226.6
227.43
230.38
242.89
256.64
262.2
262.39
262.99
263.27
266.31
267.31
268.35
269.02
296.91
324.08
227.65
249.1
251.07
252.24
255.9
257.98
260.82
266.44
271.42
272.77
274.83
277.88
280.84
283.23
294.21
327.08
236.65
247.35
248.41
248.64
255.23
261.1
264.93
266.61
271.34
271.59
277.66
279.67
285.33
285.77
314.01
316.27
222.49
230.39
250.53
257.87
260.54
270.26
273.41
273.54
274.01
286.72
286.76
288.29
307.31
308.02
325.47
328.48
235.17
235.63
247.14
268.1
272.54
274.47
278.93
280.28
287.57
288.6
288.69
290.99
295.97
307.38
316.19
317.39
245.53
280.06
285.4
290.18
292.98
300.58
303.49
305.19
305.97
314.07
319.24
322.27
329.08
332.54
349.28
358.61
290.45
293.79
306.53
309.38
312.19
322.85
325.56
329.16
330.62
342.63
350.63
362.43
369.95
383.85
400.09
406.1
304.12
306.1
321.2
323.22
327.03
328.42
334.04
348.23
348.26
350.59
351.15
357.94
359.12
366.03
374.1
398.64
278.72
293.69
297.09
329.9
334.51
338.13
340.41
344.08
351.35
354.97
358.78
367.09
367.97
393.89
395.03
413.48
