3.45
17.16
28.33
28.64
6.92
16.58
44.54
72.33
19.6
26.62
84.89
91.77
7.84
31.25
60.36
138.98
29.04
51.36
60.11
132.09
51.48
63.05
124.17
172.65
40.26
93.2
162.66
181.69
69.28
72.71
90.82
275.86
74.87
98.01
116.34
220.01
104.46
112.14
135.87
178.83
91.48
125.99
144.78
270.4
74.56
77.64
151.51
483.44
